{
  "name": "+3 Shield Special Abilities",
  "flags": {},
  "description": "",
  "results": [
    {
      "_id": "7GrKn1WPRLTsgVd1",
      "flags": {},
      "type": 0,
      "text": "Hosteling",
      "weight": 15,
      "range": [1, 15],
      "drawn": false
    },
    {
      "_id": "kyp0S12UUsuNGi5q",
      "flags": {},
      "type": 0,
      "text": "Radiant",
      "weight": 17,
      "range": [16, 32],
      "drawn": false
    },
    {
      "_id": "Th6VeAlU2Ehd58VN",
      "flags": {},
      "type": 0,
      "text": "Moderate Fortification",
      "weight": 17,
      "range": [33, 49],
      "drawn": false
    },
    {
      "_id": "RSgcVOlnL2OxTsn8",
      "flags": {},
      "type": 0,
      "text": "Ghost Touch",
      "weight": 17,
      "range": [50, 66],
      "drawn": false
    },
    {
      "_id": "q1JDtnjo0XoPT1o7",
      "flags": {},
      "type": 0,
      "text": "Spell Resistance (15)",
      "weight": 17,
      "range": [67, 83],
      "drawn": false
    },
    {
      "_id": "D3tyi9AaOyAeWw3Q",
      "flags": {},
      "type": 0,
      "text": "Wild",
      "weight": 15,
      "range": [84, 98],
      "drawn": false
    }
  ],
  "formula": "1d98",
  "replacement": true,
  "displayRoll": true,
  "_id": "z5z0iTlGLlsHonWE"
}
