{
  "name": "+4/+5 Weapon Special Abilities",
  "flags": {},
  "description": "",
  "results": [
    {
      "_id": "h0up7h3oKe9MPvte",
      "flags": {},
      "type": 0,
      "text": "Brilliant Energy",
      "weight": 40,
      "range": [1, 40],
      "drawn": false
    },
    {
      "_id": "9kCSVOI120NOm0P4",
      "flags": {},
      "type": 0,
      "text": "Dancing",
      "weight": 40,
      "range": [41, 80],
      "drawn": false
    },
    {
      "_id": "YnRI9fHL5l514wFM",
      "flags": {},
      "type": 0,
      "text": "Vorpal",
      "weight": 10,
      "range": [81, 90],
      "drawn": false
    },
    {
      "_id": "yByvXINbwGfw45Wz",
      "flags": {},
      "type": 0,
      "text": "Transformative",
      "weight": 5,
      "range": [91, 95],
      "drawn": false
    },
    {
      "_id": "2JUF2CYkcLdKWyoK",
      "flags": {},
      "type": 0,
      "text": "Dueling",
      "weight": 5,
      "range": [96, 100],
      "drawn": false
    }
  ],
  "formula": "1d100",
  "replacement": true,
  "displayRoll": true,
  "_id": "spkfuu4RLii1jfIU"
}
