{
  "name": "Common Level 1 Wands",
  "flags": {},
  "description": "",
  "results": [
    {
      "_id": "QU7gqjllyEtvtGm9",
      "flags": {},
      "type": 0,
      "text": "Wand of Alarm",
      "img": "icons/svg/d20-black.svg",
      "resultId": "",
      "weight": 2,
      "range": [1, 2],
      "drawn": false
    },
    {
      "_id": "7CLTzgWC6Bl7Ug3C",
      "flags": {},
      "type": 0,
      "text": "Wand of Animate Rope",
      "img": "icons/svg/d20-black.svg",
      "resultId": "",
      "weight": 1,
      "range": [3, 3],
      "drawn": false
    },
    {
      "_id": "3cVC2JqoyctGHTeT",
      "flags": {},
      "type": 0,
      "text": "Wand of Bane",
      "img": "icons/svg/d20-black.svg",
      "resultId": "",
      "weight": 2,
      "range": [4, 5],
      "drawn": false
    },
    {
      "_id": "donEOY07L5mDizML",
      "flags": {},
      "type": 0,
      "text": "Wand of Bless",
      "img": "icons/svg/d20-black.svg",
      "resultId": "",
      "weight": 6,
      "range": [6, 11],
      "drawn": false
    },
    {
      "_id": "9aDOP9taxblxVwdW",
      "flags": {},
      "type": 0,
      "text": "Wand of Burning Hands",
      "img": "icons/svg/d20-black.svg",
      "resultId": "",
      "weight": 3,
      "range": [12, 14],
      "drawn": false
    },
    {
      "_id": "mvk56IS0NMNO7Kfd",
      "flags": {},
      "type": 0,
      "text": "Wand of Cause Fear",
      "img": "icons/svg/d20-black.svg",
      "resultId": "",
      "weight": 3,
      "range": [15, 17],
      "drawn": false
    },
    {
      "_id": "cDEd8oYvqJllo8WC",
      "flags": {},
      "type": 0,
      "text": "Wand of Charm Person",
      "img": "icons/svg/d20-black.svg",
      "resultId": "",
      "weight": 2,
      "range": [18, 19],
      "drawn": false
    },
    {
      "_id": "whqAMGVphk2XC3uO",
      "flags": {},
      "type": 0,
      "text": "Wand of Color Spray",
      "img": "icons/svg/d20-black.svg",
      "resultId": "",
      "weight": 2,
      "range": [20, 21],
      "drawn": false
    },
    {
      "_id": "aNnFqDfwIl953gYq",
      "flags": {},
      "type": 0,
      "text": "Wand of Command",
      "img": "icons/svg/d20-black.svg",
      "resultId": "",
      "weight": 2,
      "range": [22, 23],
      "drawn": false
    },
    {
      "_id": "fF5Ycu1hR7T0rMxU",
      "flags": {},
      "type": 0,
      "text": "Wand of Comprehend Languages",
      "img": "icons/svg/d20-black.svg",
      "resultId": "",
      "weight": 1,
      "range": [24, 24],
      "drawn": false
    },
    {
      "_id": "YvwcSfIsStuszYRl",
      "flags": {},
      "type": 0,
      "text": "Wand of Cure Light Wounds",
      "img": "icons/svg/d20-black.svg",
      "resultId": "",
      "weight": 7,
      "range": [25, 31],
      "drawn": false
    },
    {
      "_id": "lImFpxOO0K6e2AJ3",
      "flags": {},
      "type": 0,
      "text": "Wand of Disguise Self",
      "img": "icons/svg/d20-black.svg",
      "resultId": "",
      "weight": 2,
      "range": [32, 33],
      "drawn": false
    },
    {
      "_id": "s2TybPoDVhyradxn",
      "flags": {},
      "type": 0,
      "text": "Wand of Divine Favor",
      "img": "icons/svg/d20-black.svg",
      "resultId": "",
      "weight": 4,
      "range": [34, 37],
      "drawn": false
    },
    {
      "_id": "VK2pmp9SKlp42yfL",
      "flags": {},
      "type": 0,
      "text": "Wand of Endure Elements",
      "img": "icons/svg/d20-black.svg",
      "resultId": "",
      "weight": 1,
      "range": [38, 38],
      "drawn": false
    },
    {
      "_id": "BTDLVbHVeRjSM8dl",
      "flags": {},
      "type": 0,
      "text": "Wand of Enlarge Person",
      "img": "icons/svg/d20-black.svg",
      "resultId": "",
      "weight": 3,
      "range": [39, 41],
      "drawn": false
    },
    {
      "_id": "2sJA7SPHrTMGtidH",
      "flags": {},
      "type": 0,
      "text": "Wand of Entangle",
      "img": "icons/svg/d20-black.svg",
      "resultId": "",
      "weight": 2,
      "range": [42, 43],
      "drawn": false
    },
    {
      "_id": "GpbrHdSAr1xB3QUG",
      "flags": {},
      "type": 0,
      "text": "Wand of Expeditious Retreat",
      "img": "icons/svg/d20-black.svg",
      "resultId": "",
      "weight": 2,
      "range": [44, 45],
      "drawn": false
    },
    {
      "_id": "tKeUcmyrBNdCe7lW",
      "flags": {},
      "type": 0,
      "text": "Wand of Feather Fall",
      "img": "icons/svg/d20-black.svg",
      "resultId": "",
      "weight": 1,
      "range": [46, 46],
      "drawn": false
    },
    {
      "_id": "EuZ4m0d7RAyr0XxI",
      "flags": {},
      "type": 0,
      "text": "Wand of Grease",
      "img": "icons/svg/d20-black.svg",
      "resultId": "",
      "weight": 2,
      "range": [47, 48],
      "drawn": false
    },
    {
      "_id": "i5VrrCO5xGmwYAAh",
      "flags": {},
      "type": 0,
      "text": "Wand of Identify",
      "img": "icons/svg/d20-black.svg",
      "resultId": "",
      "weight": 2,
      "range": [49, 50],
      "drawn": false
    },
    {
      "_id": "loH3YhyMyFI1QT7r",
      "flags": {},
      "type": 0,
      "text": "Wand of Inflict Light Wounds",
      "img": "icons/svg/d20-black.svg",
      "resultId": "",
      "weight": 2,
      "range": [51, 52],
      "drawn": false
    },
    {
      "_id": "hAnVPNKXO3N9WZAJ",
      "flags": {},
      "type": 0,
      "text": "Wand of Mage Armor",
      "img": "icons/svg/d20-black.svg",
      "resultId": "",
      "weight": 6,
      "range": [53, 58],
      "drawn": false
    },
    {
      "_id": "ZJ9kIkw2p0gJ08yJ",
      "flags": {},
      "type": 0,
      "text": "Wand of Magic Fang",
      "img": "icons/svg/d20-black.svg",
      "resultId": "",
      "weight": 2,
      "range": [59, 60],
      "drawn": false
    },
    {
      "_id": "09e7YhOYREF79D1G",
      "flags": {},
      "type": 0,
      "text": "Wand of Magic Missile",
      "img": "icons/svg/d20-black.svg",
      "resultId": "",
      "weight": 7,
      "range": [61, 67],
      "drawn": false
    },
    {
      "_id": "NuMzrJjM2trhrdaC",
      "flags": {},
      "type": 0,
      "text": "Wand of Magic Stone",
      "img": "icons/svg/d20-black.svg",
      "resultId": "",
      "weight": 1,
      "range": [68, 68],
      "drawn": false
    },
    {
      "_id": "JR917DCMyHJUOzTS",
      "flags": {},
      "type": 0,
      "text": "Wand of Magic Weapon",
      "img": "icons/svg/d20-black.svg",
      "resultId": "",
      "weight": 2,
      "range": [69, 70],
      "drawn": false
    },
    {
      "_id": "6Ts264kgOBZGlSip",
      "flags": {},
      "type": 0,
      "text": "Wand of Obscuring Mist",
      "img": "icons/svg/d20-black.svg",
      "resultId": "",
      "weight": 1,
      "range": [71, 71],
      "drawn": false
    },
    {
      "_id": "UvsIbRX0t2EdWhHk",
      "flags": {},
      "type": 0,
      "text": "Wand of Produce Flame",
      "img": "icons/svg/d20-black.svg",
      "resultId": "",
      "weight": 2,
      "range": [72, 73],
      "drawn": false
    },
    {
      "_id": "ZE1hL4HWY2rZs2iE",
      "flags": {},
      "type": 0,
      "text": "Wand of Protection From Chaos",
      "img": "icons/svg/d20-black.svg",
      "resultId": "",
      "weight": 1,
      "range": [74, 74],
      "drawn": false
    },
    {
      "_id": "Ko9rj2kk5OpeeR4u",
      "flags": {},
      "type": 0,
      "text": "Wand of Protection From Evil",
      "img": "icons/svg/d20-black.svg",
      "resultId": "",
      "weight": 1,
      "range": [75, 75],
      "drawn": false
    },
    {
      "_id": "4CJtGw1HsLOfHeyN",
      "flags": {},
      "type": 0,
      "text": "Wand of Protection From Good",
      "img": "icons/svg/d20-black.svg",
      "resultId": "",
      "weight": 1,
      "range": [76, 76],
      "drawn": false
    },
    {
      "_id": "g0hBsjtAxCSYvqLz",
      "flags": {},
      "type": 0,
      "text": "Wand of Protection From Law",
      "img": "icons/svg/d20-black.svg",
      "resultId": "",
      "weight": 1,
      "range": [77, 77],
      "drawn": false
    },
    {
      "_id": "7hChOjo5LsQyaFR4",
      "flags": {},
      "type": 0,
      "text": "Wand of Ray of Enfeeblement",
      "img": "icons/svg/d20-black.svg",
      "resultId": "",
      "weight": 2,
      "range": [78, 79],
      "drawn": false
    },
    {
      "_id": "AGoTAwH3wGSFS6rB",
      "flags": {},
      "type": 0,
      "text": "Wand of Remove Fear",
      "img": "icons/svg/d20-black.svg",
      "resultId": "",
      "weight": 2,
      "range": [80, 81],
      "drawn": false
    },
    {
      "_id": "E9qV1upYdtIZYxOr",
      "flags": {},
      "type": 0,
      "text": "Wand of Shield",
      "img": "icons/svg/d20-black.svg",
      "resultId": "",
      "weight": 3,
      "range": [82, 84],
      "drawn": false
    },
    {
      "_id": "RBE5XtY9JllHOcja",
      "flags": {},
      "type": 0,
      "text": "Wand of Shield of Faith",
      "img": "icons/svg/d20-black.svg",
      "resultId": "",
      "weight": 2,
      "range": [85, 86],
      "drawn": false
    },
    {
      "_id": "cPSt49vnYRTjNtVP",
      "flags": {},
      "type": 0,
      "text": "Wand of Shillelagh",
      "img": "icons/svg/d20-black.svg",
      "resultId": "",
      "weight": 1,
      "range": [87, 87],
      "drawn": false
    },
    {
      "_id": "J8WCveJYbnzF4hNT",
      "flags": {},
      "type": 0,
      "text": "Wand of Shocking Grasp",
      "img": "icons/svg/d20-black.svg",
      "resultId": "",
      "weight": 2,
      "range": [88, 89],
      "drawn": false
    },
    {
      "_id": "CsxpWqYH4Cf0m8Ig",
      "flags": {},
      "type": 0,
      "text": "Wand of Silent Image",
      "img": "icons/svg/d20-black.svg",
      "resultId": "",
      "weight": 1,
      "range": [90, 90],
      "drawn": false
    },
    {
      "_id": "pUhWqnp7RJ9UvEON",
      "flags": {},
      "type": 0,
      "text": "Wand of Sleep",
      "img": "icons/svg/d20-black.svg",
      "resultId": "",
      "weight": 4,
      "range": [91, 94],
      "drawn": false
    },
    {
      "_id": "MZkOWtmqysvELxjQ",
      "flags": {},
      "type": 0,
      "text": "Wand of Summon Monster I",
      "img": "icons/svg/d20-black.svg",
      "resultId": "",
      "weight": 1,
      "range": [95, 95],
      "drawn": false
    },
    {
      "_id": "NXCuXdojNMVNSOZg",
      "flags": {},
      "type": 0,
      "text": "Wand of Summon Nature's Ally I",
      "img": "icons/svg/d20-black.svg",
      "resultId": "",
      "weight": 1,
      "range": [96, 96],
      "drawn": false
    },
    {
      "_id": "tibA9IhGofuRrMbR",
      "flags": {},
      "type": 0,
      "text": "Wand of True Strike",
      "img": "icons/svg/d20-black.svg",
      "resultId": "",
      "weight": 3,
      "range": [97, 99],
      "drawn": false
    },
    {
      "_id": "oU0JJ6IvuxCRn5K8",
      "flags": {},
      "type": 0,
      "text": "Wand of Unseen Servant",
      "img": "icons/svg/d20-black.svg",
      "resultId": "",
      "weight": 1,
      "range": [100, 100],
      "drawn": false
    }
  ],
  "formula": "1d201",
  "replacement": true,
  "displayRoll": true,
  "_id": "Kxtzw02nxm5GWPb9"
}
