{
  "name": "Greater Major Body",
  "flags": {},
  "description": "",
  "results": [
    {
      "_id": "ES33aDjVZBM3yGa0",
      "flags": {},
      "type": 0,
      "text": "Robe of Stars",
      "weight": 10,
      "range": [1, 10],
      "drawn": false
    },
    {
      "_id": "ktS0X8k2lvIUapeB",
      "flags": {},
      "type": 0,
      "text": "Robe of Gates",
      "weight": 5,
      "range": [11, 15],
      "drawn": false
    },
    {
      "_id": "iY1OnkFVLlVRpzNC",
      "flags": {},
      "type": 0,
      "text": "Otherworldly Kimono",
      "weight": 5,
      "range": [16, 20],
      "drawn": false
    },
    {
      "_id": "u8YxdmCnoVTy3LI9",
      "flags": {},
      "type": 0,
      "text": "Bodywrap of Mighty Strikes +5",
      "weight": 20,
      "range": [21, 40],
      "drawn": false
    },
    {
      "_id": "Yld3TQCwt6qti2Ee",
      "flags": {},
      "type": 0,
      "text": "Resplendent Robe of the Thespian",
      "weight": 11,
      "range": [41, 51],
      "drawn": false
    },
    {
      "_id": "pbMvCD8joUFRmVbD",
      "flags": {},
      "type": 0,
      "text": "Robe of the Archmagi",
      "weight": 16,
      "range": [52, 67],
      "drawn": false
    },
    {
      "_id": "9ORRA12EMMdmEqJy",
      "flags": {},
      "type": 0,
      "text": "Bodywrap of Mighty Strikes +6",
      "weight": 10,
      "range": [68, 77],
      "drawn": false
    },
    {
      "_id": "t6vgIYFhBHph6Yaj",
      "flags": {},
      "type": 0,
      "text": "Robe of Eyes",
      "weight": 20,
      "range": [78, 97],
      "drawn": false
    },
    {
      "_id": "IIiSEJBYT38Nd7VH",
      "flags": {},
      "type": 0,
      "text": "Bodywrap of Mighty Strikes +7",
      "weight": 3,
      "range": [98, 100],
      "drawn": false
    }
  ],
  "formula": "1d100",
  "replacement": true,
  "displayRoll": true,
  "_id": "yrFfcKGukwSEz08k"
}
