{
  "name": "Greater Minor Specific Shields",
  "flags": {},
  "description": "",
  "results": [
    {
      "_id": "NDXG59GKucFM7XET",
      "flags": {},
      "type": 0,
      "text": "Zombie Skin Shield",
      "weight": 30,
      "range": [1, 30],
      "drawn": false
    },
    {
      "_id": "GKoLMi7nFMzktxeH",
      "flags": {},
      "type": 0,
      "text": "Caster's Shield",
      "weight": 45,
      "range": [31, 75],
      "drawn": false
    },
    {
      "_id": "eAfFxRM1sWQSS1su",
      "flags": {},
      "type": 0,
      "text": "Burglar's Buckler",
      "weight": 25,
      "range": [76, 100],
      "drawn": false
    }
  ],
  "formula": "1d100",
  "replacement": true,
  "displayRoll": true,
  "_id": "aU4dTbg3lw9JUEtJ"
}
