{
  "name": "Greater Medium Head",
  "flags": {},
  "description": "",
  "results": [
    {
      "_id": "eXTNPAThAlZDzNJA",
      "flags": {},
      "type": 0,
      "text": "\tCat's Eye Crown",
      "weight": 6,
      "range": [1, 6],
      "drawn": false
    },
    {
      "_id": "zoubtUWpFQL5g72z",
      "flags": {},
      "type": 0,
      "text": "\tMaw of the Wyrm",
      "weight": 6,
      "range": [7, 12],
      "drawn": false
    },
    {
      "_id": "buDrCJ8VKCqpBSfP",
      "flags": {},
      "type": 0,
      "text": "\tMitre of the Hierophant",
      "weight": 7,
      "range": [13, 19],
      "drawn": false
    },
    {
      "_id": "Sna4KC7D1jMNmNhS",
      "flags": {},
      "type": 0,
      "text": "\tMagician's Hat",
      "weight": 8,
      "range": [20, 27],
      "drawn": false
    },
    {
      "_id": "at0dzEbtXSP6cwii",
      "flags": {},
      "type": 0,
      "text": "\tCirclet of Mindsight",
      "weight": 7,
      "range": [28, 34],
      "drawn": false
    },
    {
      "_id": "3Vvluz1CUWxktdOY",
      "flags": {},
      "type": 0,
      "text": "\tMask of the Skull",
      "weight": 8,
      "range": [35, 42],
      "drawn": false
    },
    {
      "_id": "A0zdhvNg1TJ9UHcQ",
      "flags": {},
      "type": 0,
      "text": "\tHowling Helm",
      "weight": 8,
      "range": [43, 50],
      "drawn": false
    },
    {
      "_id": "SAM5TmsBu6ZezgCy",
      "flags": {},
      "type": 0,
      "text": "\tCrown of Blasting, Major",
      "weight": 12,
      "range": [51, 62],
      "drawn": false
    },
    {
      "_id": "Kc9puDWQn23nwQA8",
      "flags": {},
      "type": 0,
      "text": "\tHelm of Underwater Action",
      "weight": 10,
      "range": [63, 72],
      "drawn": false
    },
    {
      "_id": "15vas8LsFxVo6Rxl",
      "flags": {},
      "type": 0,
      "text": "\tCrown of Conquest",
      "weight": 7,
      "range": [73, 79],
      "drawn": false
    },
    {
      "_id": "Rul5NAPhDF1qgPJo",
      "flags": {},
      "type": 0,
      "text": "\tBatrachian Helm",
      "weight": 6,
      "range": [80, 85],
      "drawn": false
    },
    {
      "_id": "4LFZTVYCXzk3d6oP",
      "flags": {},
      "type": 0,
      "text": "\tHelm of Telepathy",
      "weight": 9,
      "range": [86, 94],
      "drawn": false
    },
    {
      "_id": "HllJSgHGuUjbNlOz",
      "flags": {},
      "type": 0,
      "text": "\tPlague Mask",
      "weight": 6,
      "range": [95, 100],
      "drawn": false
    }
  ],
  "formula": "1d100",
  "replacement": true,
  "displayRoll": true,
  "_id": "IFLfKfodblA7qcb5"
}
