{
  "name": "Greater Minor Headband",
  "flags": {},
  "description": "",
  "results": [
    {
      "_id": "nwWpy0aY1MO56AOK",
      "flags": {},
      "type": 0,
      "text": "\tHeadband of Alluring Charisma +2",
      "weight": 9,
      "range": [1, 9],
      "drawn": false
    },
    {
      "_id": "zxgVE7yNmm3zO0iy",
      "flags": {},
      "type": 0,
      "text": "\tHeadband of Inspired Wisdom +2",
      "weight": 9,
      "range": [10, 18],
      "drawn": false
    },
    {
      "_id": "kTrzQ7aN2LzBWqhF",
      "flags": {},
      "type": 0,
      "text": "\tHeadband of Vast Intelligence +2",
      "weight": 9,
      "range": [19, 27],
      "drawn": false
    },
    {
      "_id": "iO1qaHd1Dfa5vPz7",
      "flags": {},
      "type": 0,
      "text": "\tHeadband of Aerial Agility +2",
      "weight": 6,
      "range": [28, 33],
      "drawn": false
    },
    {
      "_id": "GlQBUSlcCmVu0taX",
      "flags": {},
      "type": 0,
      "text": "\tShifter's Headband +2",
      "weight": 6,
      "range": [34, 39],
      "drawn": false
    },
    {
      "_id": "JInN1d0xkK9sVUy4",
      "flags": {},
      "type": 0,
      "text": "\tHeadband of Ponderous Recollection",
      "weight": 6,
      "range": [40, 45],
      "drawn": false
    },
    {
      "_id": "teYp52tJSmyp0vzF",
      "flags": {},
      "type": 0,
      "text": "\tHeadband of Ki Focus",
      "weight": 6,
      "range": [46, 51],
      "drawn": false
    },
    {
      "_id": "FXXhUodgMwbPJfd2",
      "flags": {},
      "type": 0,
      "text": "\tHeadband of Unshakeable Resolve",
      "weight": 7,
      "range": [52, 58],
      "drawn": false
    },
    {
      "_id": "nazgCYwrNABIWqny",
      "flags": {},
      "type": 0,
      "text": "\tHollywreath Band",
      "weight": 8,
      "range": [59, 66],
      "drawn": false
    },
    {
      "_id": "oiZeMRurhVz3LqDl",
      "flags": {},
      "type": 0,
      "text": "\tHeadband of Deathless Devotion",
      "weight": 8,
      "range": [67, 74],
      "drawn": false
    },
    {
      "_id": "Rq1eBSXKOU1hZmqs",
      "flags": {},
      "type": 0,
      "text": "\tPhylactery of the Shepherd",
      "weight": 8,
      "range": [75, 82],
      "drawn": false
    },
    {
      "_id": "nEbV1tXkyxlR7Bo5",
      "flags": {},
      "type": 0,
      "text": "\tHeadband of Intuition",
      "weight": 9,
      "range": [83, 91],
      "drawn": false
    },
    {
      "_id": "SP7RVDKwt9Hj98dx",
      "flags": {},
      "type": 0,
      "text": "\tHeadband of Fortune's Favor",
      "weight": 9,
      "range": [92, 100],
      "drawn": false
    }
  ],
  "formula": "1d100",
  "replacement": true,
  "displayRoll": true,
  "_id": "fyPhICcwTpHmWsdy"
}
