{
  "name": "Greater Major Headband",
  "flags": {},
  "description": "",
  "results": [
    {
      "_id": "IxPgKZ7LsrtnUL8B",
      "flags": {},
      "type": 0,
      "text": "\tHeadband of Mental Resilience",
      "weight": 20,
      "range": [1, 20],
      "drawn": false
    },
    {
      "_id": "0d0jjP3OLQADiTDf",
      "flags": {},
      "type": 0,
      "text": "\tHeadband of Mental Superiority +4",
      "weight": 30,
      "range": [21, 50],
      "drawn": false
    },
    {
      "_id": "V0ljo5b7SPHrBlAr",
      "flags": {},
      "type": 0,
      "text": "\tHeadband of Aerial Agility +6",
      "weight": 15,
      "range": [51, 65],
      "drawn": false
    },
    {
      "_id": "wuKz7gYihVzJlohR",
      "flags": {},
      "type": 0,
      "text": "\tHeadband of Metal Prowess +6",
      "weight": 20,
      "range": [66, 85],
      "drawn": false
    },
    {
      "_id": "1PzjwWFffAGcFYam",
      "flags": {},
      "type": 0,
      "text": "\tHeadband of Mental Superiority +6",
      "weight": 15,
      "range": [86, 100],
      "drawn": false
    }
  ],
  "formula": "1d100",
  "replacement": true,
  "displayRoll": true,
  "_id": "SMa8b1IuhvqsGPmw"
}
