{
  "name": "Lesser Minor Headband",
  "flags": {},
  "description": "",
  "results": [
    {
      "_id": "vKJa9WRdMUEz04CI",
      "flags": {},
      "type": 0,
      "text": "\tPhylactery of Faithfulness",
      "weight": 60,
      "range": [1, 60],
      "drawn": false
    },
    {
      "_id": "wzzU9goL1X3vRx6t",
      "flags": {},
      "type": 0,
      "text": "\tDead Man's Headband",
      "weight": 40,
      "range": [61, 100],
      "drawn": false
    }
  ],
  "formula": "1d100",
  "replacement": true,
  "displayRoll": true,
  "_id": "Cy27XqT2f0MclQ0P"
}
