{
  "name": "Metamagic Rods +2 Level",
  "flags": {},
  "description": "",
  "results": [
    {
      "_id": "q1iRIuHX09W0IbQz",
      "flags": {},
      "type": 0,
      "text": "Metamagic Rod of Burning",
      "img": "icons/svg/d20-black.svg",
      "resultId": "",
      "weight": 11,
      "range": [1, 11],
      "drawn": false
    },
    {
      "_id": "VuumQ51a111G19uV",
      "flags": {},
      "type": 0,
      "text": "Metamagic Rod of Concussive",
      "img": "icons/svg/d20-black.svg",
      "resultId": "",
      "weight": 11,
      "range": [12, 22],
      "drawn": false
    },
    {
      "_id": "jTameqCtmzGhg3Fh",
      "flags": {},
      "type": 0,
      "text": "Metamagic Rod of Empower",
      "img": "icons/svg/d20-black.svg",
      "resultId": "",
      "weight": 18,
      "range": [23, 40],
      "drawn": false
    },
    {
      "_id": "8MkGE5UUprLqeyT6",
      "flags": {},
      "type": 0,
      "text": "Metamagic Rod of Persistent",
      "img": "icons/svg/d20-black.svg",
      "resultId": "",
      "weight": 11,
      "range": [41, 51],
      "drawn": false
    },
    {
      "_id": "01iA8HAH32fjcfm5",
      "flags": {},
      "type": 0,
      "text": "Metamagic Rod of Sickening",
      "img": "icons/svg/d20-black.svg",
      "resultId": "",
      "weight": 11,
      "range": [52, 62],
      "drawn": false
    },
    {
      "_id": "kqcVkE8Y5Qz5XY8f",
      "flags": {},
      "type": 0,
      "text": "Metamagic Rod of Thanatopic",
      "img": "icons/svg/d20-black.svg",
      "resultId": "",
      "weight": 13,
      "range": [63, 75],
      "drawn": false
    },
    {
      "_id": "4BU6ZAgHyTzJvJq6",
      "flags": {},
      "type": 0,
      "text": "Metamagic Rod of Threnodic",
      "img": "icons/svg/d20-black.svg",
      "resultId": "",
      "weight": 13,
      "range": [76, 88],
      "drawn": false
    },
    {
      "_id": "wJY69PmTS5Tg8A71",
      "flags": {},
      "type": 0,
      "text": "Metamagic Rod of Thundering",
      "img": "icons/svg/d20-black.svg",
      "resultId": "",
      "weight": 12,
      "range": [89, 100],
      "drawn": false
    }
  ],
  "formula": "1d100",
  "replacement": true,
  "displayRoll": true,
  "_id": "fVtebKXOC6OlBcKl"
}
