{
  "name": "Uncommon Level 2 Wands",
  "flags": {},
  "description": "",
  "results": [
    {
      "_id": "Xhe5u0k7ro1S7zhc",
      "flags": {},
      "type": 0,
      "text": "Wand of Align Weapon",
      "img": "icons/svg/d20-black.svg",
      "resultId": "",
      "weight": 2,
      "range": [1, 2],
      "drawn": false
    },
    {
      "_id": "KP2iupGKWa3KX2Nf",
      "flags": {},
      "type": 0,
      "text": "Wand of Animal Aspect",
      "img": "icons/svg/d20-black.svg",
      "resultId": "",
      "weight": 3,
      "range": [3, 5],
      "drawn": false
    },
    {
      "_id": "V3woI2iqbzHfsQUc",
      "flags": {},
      "type": 0,
      "text": "Wand of Animal Messenger",
      "img": "icons/svg/d20-black.svg",
      "resultId": "",
      "weight": 1,
      "range": [6, 6],
      "drawn": false
    },
    {
      "_id": "2o83vgn7qdWNkKCD",
      "flags": {},
      "type": 0,
      "text": "Wand of Animal Trance",
      "img": "icons/svg/d20-black.svg",
      "resultId": "",
      "weight": 1,
      "range": [7, 7],
      "drawn": false
    },
    {
      "_id": "00Ac2XrjLYH31n10",
      "flags": {},
      "type": 0,
      "text": "Wand of Aspect of The Bear",
      "img": "icons/svg/d20-black.svg",
      "resultId": "",
      "weight": 3,
      "range": [8, 10],
      "drawn": false
    },
    {
      "_id": "vTUNkqy00FXAarmZ",
      "flags": {},
      "type": 0,
      "text": "Wand of Bestow Weapon Proficiency",
      "img": "icons/svg/d20-black.svg",
      "resultId": "",
      "weight": 3,
      "range": [11, 13],
      "drawn": false
    },
    {
      "_id": "7TIXWeAvT2z3BNbc",
      "flags": {},
      "type": 0,
      "text": "Wand of Blindness/Deafness",
      "img": "icons/svg/d20-black.svg",
      "resultId": "",
      "weight": 2,
      "range": [14, 15],
      "drawn": false
    },
    {
      "_id": "Zue3Y3QFbSafIUd5",
      "flags": {},
      "type": 0,
      "text": "Wand of Burning Gaze",
      "img": "icons/svg/d20-black.svg",
      "resultId": "",
      "weight": 3,
      "range": [16, 18],
      "drawn": false
    },
    {
      "_id": "TaHtfMbHSsPJh4Lf",
      "flags": {},
      "type": 0,
      "text": "Wand of Calm Emotions",
      "img": "icons/svg/d20-black.svg",
      "resultId": "",
      "weight": 3,
      "range": [19, 21],
      "drawn": false
    },
    {
      "_id": "O5aDwl2pHtzNB5Lm",
      "flags": {},
      "type": 0,
      "text": "Wand of Chill Metal",
      "img": "icons/svg/d20-black.svg",
      "resultId": "",
      "weight": 3,
      "range": [22, 24],
      "drawn": false
    },
    {
      "_id": "ifzq1XwD0oNVGjbB",
      "flags": {},
      "type": 0,
      "text": "Wand of Command Undead",
      "img": "icons/svg/d20-black.svg",
      "resultId": "",
      "weight": 1,
      "range": [25, 25],
      "drawn": false
    },
    {
      "_id": "KlyZcUQnFbuDL8UI",
      "flags": {},
      "type": 0,
      "text": "Wand of Daze Monster",
      "img": "icons/svg/d20-black.svg",
      "resultId": "",
      "weight": 2,
      "range": [26, 27],
      "drawn": false
    },
    {
      "_id": "EhUhaLzSoIg9TO9s",
      "flags": {},
      "type": 0,
      "text": "Wand of Death Knell",
      "img": "icons/svg/d20-black.svg",
      "resultId": "",
      "weight": 2,
      "range": [28, 29],
      "drawn": false
    },
    {
      "_id": "BJgxl7hKXVyel7rU",
      "flags": {},
      "type": 0,
      "text": "Wand of Defensive Shock",
      "img": "icons/svg/d20-black.svg",
      "resultId": "",
      "weight": 3,
      "range": [30, 32],
      "drawn": false
    },
    {
      "_id": "oR60hVtb81h8OLns",
      "flags": {},
      "type": 0,
      "text": "Wand of Delay Pain",
      "img": "icons/svg/d20-black.svg",
      "resultId": "",
      "weight": 1,
      "range": [33, 33],
      "drawn": false
    },
    {
      "_id": "pQ6XagQROvetJmW9",
      "flags": {},
      "type": 0,
      "text": "Wand of Detect Thoughts",
      "img": "icons/svg/d20-black.svg",
      "resultId": "",
      "weight": 2,
      "range": [34, 35],
      "drawn": false
    },
    {
      "_id": "E6czZbiufdDqUs39",
      "flags": {},
      "type": 0,
      "text": "Wand of Disguise Other",
      "img": "icons/svg/d20-black.svg",
      "resultId": "",
      "weight": 4,
      "range": [36, 39],
      "drawn": false
    },
    {
      "_id": "4PV73gmFwXi9PMTT",
      "flags": {},
      "type": 0,
      "text": "Wand of Effortless Armor",
      "img": "icons/svg/d20-black.svg",
      "resultId": "",
      "weight": 3,
      "range": [40, 42],
      "drawn": false
    },
    {
      "_id": "MCUE26VwXGR9Nq0t",
      "flags": {},
      "type": 0,
      "text": "Wand of Elemental Touch",
      "img": "icons/svg/d20-black.svg",
      "resultId": "",
      "weight": 4,
      "range": [43, 46],
      "drawn": false
    },
    {
      "_id": "NZD2BJsWuYoPSxRR",
      "flags": {},
      "type": 0,
      "text": "Wand of Enthrall",
      "img": "icons/svg/d20-black.svg",
      "resultId": "",
      "weight": 2,
      "range": [47, 48],
      "drawn": false
    },
    {
      "_id": "Ogj8xOBy1YgasQP4",
      "flags": {},
      "type": 0,
      "text": "Wand of Gentle Repose",
      "img": "icons/svg/d20-black.svg",
      "resultId": "",
      "weight": 2,
      "range": [49, 50],
      "drawn": false
    },
    {
      "_id": "WuzNck2klNmiqKEH",
      "flags": {},
      "type": 0,
      "text": "Wand of Ghoul Touch",
      "img": "icons/svg/d20-black.svg",
      "resultId": "",
      "weight": 1,
      "range": [51, 51],
      "drawn": false
    },
    {
      "_id": "ge5R5QVn2IZqp2lI",
      "flags": {},
      "type": 0,
      "text": "Wand of Glide",
      "img": "icons/svg/d20-black.svg",
      "resultId": "",
      "weight": 2,
      "range": [52, 53],
      "drawn": false
    },
    {
      "_id": "NIBBJK9nmmU6zUqF",
      "flags": {},
      "type": 0,
      "text": "Wand of Groundswell",
      "img": "icons/svg/d20-black.svg",
      "resultId": "",
      "weight": 2,
      "range": [54, 55],
      "drawn": false
    },
    {
      "_id": "apqGDpVEsEHedBXH",
      "flags": {},
      "type": 0,
      "text": "Wand of Gust of Wind",
      "img": "icons/svg/d20-black.svg",
      "resultId": "",
      "weight": 1,
      "range": [56, 56],
      "drawn": false
    },
    {
      "_id": "yISWOH2aJWkzNuF7",
      "flags": {},
      "type": 0,
      "text": "Wand of Hold Animal",
      "img": "icons/svg/d20-black.svg",
      "resultId": "",
      "weight": 1,
      "range": [57, 57],
      "drawn": false
    },
    {
      "_id": "B10FxjHSaR9ViwhI",
      "flags": {},
      "type": 0,
      "text": "Wand of Hypnotic Pattern",
      "img": "icons/svg/d20-black.svg",
      "resultId": "",
      "weight": 2,
      "range": [58, 59],
      "drawn": false
    },
    {
      "_id": "3WlJ05n1gSXEmrdF",
      "flags": {},
      "type": 0,
      "text": "Wand of Locate Object",
      "img": "icons/svg/d20-black.svg",
      "resultId": "",
      "weight": 1,
      "range": [60, 60],
      "drawn": false
    },
    {
      "_id": "0PZU4QLRtUMCkzfD",
      "flags": {},
      "type": 0,
      "text": "Wand of Make Whole",
      "img": "icons/svg/d20-black.svg",
      "resultId": "",
      "weight": 1,
      "range": [61, 61],
      "drawn": false
    },
    {
      "_id": "UOA1crbZUrsMGLFa",
      "flags": {},
      "type": 0,
      "text": "Wand of Misdirection",
      "img": "icons/svg/d20-black.svg",
      "resultId": "",
      "weight": 2,
      "range": [62, 63],
      "drawn": false
    },
    {
      "_id": "nhEv0ButbOVVjdSU",
      "flags": {},
      "type": 0,
      "text": "Wand of Oppressive Boredom",
      "img": "icons/svg/d20-black.svg",
      "resultId": "",
      "weight": 2,
      "range": [64, 65],
      "drawn": false
    },
    {
      "_id": "3FBQprjOqcesO8Na",
      "flags": {},
      "type": 0,
      "text": "Wand of Protection From Arrows",
      "img": "icons/svg/d20-black.svg",
      "resultId": "",
      "weight": 1,
      "range": [66, 66],
      "drawn": false
    },
    {
      "_id": "jpZQE5ymFg30C6he",
      "flags": {},
      "type": 0,
      "text": "Wand of Reduce Animal",
      "img": "icons/svg/d20-black.svg",
      "resultId": "",
      "weight": 1,
      "range": [67, 67],
      "drawn": false
    },
    {
      "_id": "CynCK2xIH4H8H1rF",
      "flags": {},
      "type": 0,
      "text": "Wand of Rope Trick",
      "img": "icons/svg/d20-black.svg",
      "resultId": "",
      "weight": 2,
      "range": [68, 69],
      "drawn": false
    },
    {
      "_id": "NtTxgB06HvOxjCul",
      "flags": {},
      "type": 0,
      "text": "Wand of Scare",
      "img": "icons/svg/d20-black.svg",
      "resultId": "",
      "weight": 3,
      "range": [70, 72],
      "drawn": false
    },
    {
      "_id": "IEcxjleAvXL0rfxy",
      "flags": {},
      "type": 0,
      "text": "Wand of Share Language",
      "img": "icons/svg/d20-black.svg",
      "resultId": "",
      "weight": 2,
      "range": [73, 74],
      "drawn": false
    },
    {
      "_id": "LSaLI083ACfH930l",
      "flags": {},
      "type": 0,
      "text": "Wand of Soften Earth and Stone",
      "img": "icons/svg/d20-black.svg",
      "resultId": "",
      "weight": 2,
      "range": [75, 76],
      "drawn": false
    },
    {
      "_id": "yzpJuyXc5a3P8wBz",
      "flags": {},
      "type": 0,
      "text": "Wand of Spectral Hand",
      "img": "icons/svg/d20-black.svg",
      "resultId": "",
      "weight": 2,
      "range": [77, 78],
      "drawn": false
    },
    {
      "_id": "Ru9EKQIGLGYnv1jf",
      "flags": {},
      "type": 0,
      "text": "Wand of Status",
      "img": "icons/svg/d20-black.svg",
      "resultId": "",
      "weight": 2,
      "range": [79, 80],
      "drawn": false
    },
    {
      "_id": "nHwNkbNxFA85RaIy",
      "flags": {},
      "type": 0,
      "text": "Wand of Tongues",
      "img": "icons/svg/d20-black.svg",
      "resultId": "",
      "weight": 2,
      "range": [81, 82],
      "drawn": false
    },
    {
      "_id": "5djkzS0McLoVv0jw",
      "flags": {},
      "type": 0,
      "text": "Wand of Touch of Idiocy",
      "img": "icons/svg/d20-black.svg",
      "resultId": "",
      "weight": 2,
      "range": [83, 84],
      "drawn": false
    },
    {
      "_id": "8napBOtLElOx6aVB",
      "flags": {},
      "type": 0,
      "text": "Wand of Tree Shape",
      "img": "icons/svg/d20-black.svg",
      "resultId": "",
      "weight": 2,
      "range": [85, 86],
      "drawn": false
    },
    {
      "_id": "bnhR4WwWkFuSZRvA",
      "flags": {},
      "type": 0,
      "text": "Wand of Warp Wood",
      "img": "icons/svg/d20-black.svg",
      "resultId": "",
      "weight": 2,
      "range": [87, 88],
      "drawn": false
    },
    {
      "_id": "oa2JB78y2xcqwvTv",
      "flags": {},
      "type": 0,
      "text": "Wand of Weapon of Awe",
      "img": "icons/svg/d20-black.svg",
      "resultId": "",
      "weight": 3,
      "range": [89, 91],
      "drawn": false
    },
    {
      "_id": "2I5XkXpp8LKMdvrr",
      "flags": {},
      "type": 0,
      "text": "Wand of Wood Shape",
      "img": "icons/svg/d20-black.svg",
      "resultId": "",
      "weight": 2,
      "range": [92, 93],
      "drawn": false
    },
    {
      "_id": "1mplxKMEnZD5j5P2",
      "flags": {},
      "type": 0,
      "text": "Wand of Zone of Truth",
      "img": "icons/svg/d20-black.svg",
      "resultId": "",
      "weight": 2,
      "range": [94, 95],
      "drawn": false
    },
    {
      "_id": "om4YW7KJaeE3Lidw",
      "flags": {},
      "type": 0,
      "text": "Wand of Arcane Lock",
      "img": "icons/svg/d20-black.svg",
      "resultId": "",
      "weight": 1,
      "range": [96, 96],
      "drawn": false
    },
    {
      "_id": "NoiJhMWvSJiVPzjF",
      "flags": {},
      "type": 0,
      "text": "Wand of Consecrate",
      "img": "icons/svg/d20-black.svg",
      "resultId": "",
      "weight": 1,
      "range": [97, 97],
      "drawn": false
    },
    {
      "_id": "D7Cth0jYYVDoFzF2",
      "flags": {},
      "type": 0,
      "text": "Wand of Desecrate",
      "img": "icons/svg/d20-black.svg",
      "resultId": "",
      "weight": 1,
      "range": [98, 98],
      "drawn": false
    },
    {
      "_id": "kBk9uAeFc5PD3ji7",
      "flags": {},
      "type": 0,
      "text": "Wand of Continual Flame",
      "img": "icons/svg/d20-black.svg",
      "resultId": "",
      "weight": 1,
      "range": [99, 99],
      "drawn": false
    },
    {
      "_id": "MEA7KChIyWgGROS8",
      "flags": {},
      "type": 0,
      "text": "Wand of Phantom Trap",
      "img": "icons/svg/d20-black.svg",
      "resultId": "",
      "weight": 1,
      "range": [100, 100],
      "drawn": false
    }
  ],
  "formula": "1d100",
  "replacement": true,
  "displayRoll": true,
  "_id": "visy19CsXY2jpABp"
}
