{
  "_id": "RwcA3WdbaYSp3xze",
  "name": "Weapon Type",
  "flags": {},
  "description": "",
  "results": [
    {
      "_id": "e9pVp9pDW2m70Tko",
      "flags": {},
      "type": 2,
      "text": "Light Melee",
      "collection": "pf1.ultimate-equipment",
      "resultId": "w3GqfgBGS0ccUFiR",
      "weight": 1,
      "range": [1, 15],
      "drawn": false
    },
    {
      "_id": "kDvWAatUntbxcgOS",
      "flags": {},
      "type": 2,
      "text": "One Handed Melee",
      "collection": "pf1.ultimate-equipment",
      "resultId": "7oUe3wUklUUbAVhL",
      "weight": 1,
      "range": [16, 35],
      "drawn": false
    },
    {
      "_id": "nOiToXw9KSMgLKcU",
      "flags": {},
      "type": 2,
      "text": "Ranged",
      "collection": "pf1.ultimate-equipment",
      "resultId": "QMDELLppsdz5zS7S",
      "weight": 1,
      "range": [36, 60],
      "drawn": false
    },
    {
      "_id": "d73iSYrsGxfr7j8s",
      "flags": {},
      "type": 2,
      "text": "Two Handed Melee",
      "collection": "pf1.ultimate-equipment",
      "resultId": "ddBiEymXuAAnE9BP",
      "weight": 1,
      "range": [61, 90],
      "drawn": false
    },
    {
      "_id": "qKL8nLICdIqtkQP8",
      "flags": {},
      "type": 2,
      "text": "Ammunition",
      "collection": "pf1.ultimate-equipment",
      "resultId": "HIi7oxxt0rIhvNA6",
      "weight": 1,
      "range": [91, 100],
      "drawn": false
    }
  ],
  "formula": "1d100",
  "replacement": true,
  "displayRoll": true
}
