{
  "_id": "gsE0PAOmCwivue5A",
  "name": "Buckler",
  "type": "equipment",
  "img": "systems/pf1/icons/items/armor/buckler.PNG",
  "sort": 0,
  "flags": {},
  "system": {
    "description": {
      "value": "<p>This small metal shield is worn strapped to your forearm. You can use a bow or crossbow without penalty while carrying it. You can also use your shield arm to wield a weapon (whether you are using an off-hand weapon or using your off hand to help wield a two-handed weapon), but you take a –1 penalty on attack rolls while doing so. This penalty stacks with those that may apply for fighting with your off hand and for fighting with two weapons. In any case, if you use a weapon in your off hand, you lose the buckler’s AC bonus until your next turn. You can cast a spell with somatic components using your shield arm, but you lose the buckler’s AC bonus until your next turn. You can’t make a shield bash with a buckler.</p>"
    },
    "tags": [],
    "weight": {
      "value": 5
    },
    "price": 5,
    "hp": {
      "max": 5,
      "value": 5
    },
    "hardness": 10,
    "changes": [],
    "contextNotes": [],
    "actions": [],
    "attackNotes": [],
    "effectNotes": [],
    "links": {
      "children": [],
      "charges": []
    },
    "scriptCalls": [],
    "subType": "shield",
    "equipmentSubtype": "other",
    "armor": {
      "value": 1,
      "acp": 1
    },
    "spellFailure": 5,
    "slot": "shield"
  }
}
