{
  "_id": "c5L61pgFgUETqPtm",
  "name": "Gray Maiden Plate",
  "type": "equipment",
  "img": "systems/pf1/icons/items/armor/fullplate.PNG",
  "sort": 0,
  "flags": {},
  "system": {
    "description": {
      "value": "<p>The Gray Maidens’ distinctive armor is one of their most iconic identifiers. Gray Maiden plate is mechanically identical to full plate, and any effect that functions with full plate functions with Gray Maiden plate. Certain options for Gray Maidens function only when they wear Gray Maiden plate.</p>"
    },
    "tags": [],
    "weight": {
      "value": 50
    },
    "price": 1500,
    "hp": {
      "max": 45,
      "value": 45
    },
    "hardness": 10,
    "changes": [],
    "contextNotes": [],
    "actions": [],
    "attackNotes": [],
    "effectNotes": [],
    "links": {
      "children": [],
      "charges": []
    },
    "scriptCalls": [],
    "equipmentSubtype": "heavyArmor",
    "armor": {
      "value": 9,
      "dex": 1,
      "acp": 6
    },
    "spellFailure": 35,
    "slot": "armor"
  }
}
