{
  "_id": "yDRhZid8sMuCiN0q",
  "name": "Giantkin Ogre",
  "type": "feat",
  "img": "systems/pf1/icons/skills/violet_07.jpg",
  "sort": 0,
  "flags": {},
  "system": {
    "description": {
      "value": "<p><strong>Acquired/Inherited Template</strong>&nbsp;Inherited<br><strong>Simple Template</strong>&nbsp;No<br><strong>Usable with Summons</strong>&nbsp;No<br><br>Ogres sometimes interbreed with other giants. The result of such crossbreeding is a giantkin ogre, which gains some abilities from its non-ogre parents. In areas where ogre clans live near large populations of giants, interbreeding can be so common that entire ogre clans consist solely of giantkin.<br><br>Blessed with the blood of greater giants, giantkin ogres are larger and stronger than their normal ogre relatives and gain abilities from their giant progenitors.<br><br><strong>Rebuild Rules:&nbsp;</strong>Hit points&nbsp;+10 hit points;&nbsp;Saving Throws&nbsp;+1 racial bonus to all saving throws;&nbsp;Ability Scores&nbsp;+4 Strength, +4 Constitution;&nbsp;Special Attacks&nbsp;rock throwing (1d6, 90 ft.),&nbsp;Special&nbsp;see table.</p>\n<hr>\n<table class=\"inner\" style=\"border-color: white; color: #ffffff; font-family: 'Century Gothic', CenturyGothic, AppleGothic, sans-serif; font-size: 15px; background-color: #0f0f0f;\">\n<tbody style=\"margin-top: 0px;\">\n<tr style=\"margin-top: 0px;\">\n<td style=\"margin: 0px; border: 1px solid white; padding: 1px 5px; text-align: center;\"><strong style=\"margin-top: 0px;\">Crossbreed</strong></td>\n<td style=\"border: 1px solid white; padding: 1px 5px; margin: 0px; text-align: center;\"><strong style=\"margin-top: 0px;\">Special Abilities</strong></td>\n</tr>\n<tr style=\"background: #3e3e3e;\">\n<td style=\"margin: 0px; border: 1px solid white; padding: 1px 5px; text-align: center;\">Fireblood</td>\n<td style=\"border: 1px solid white; padding: 1px 5px; margin: 0px; text-align: center;\">Resist fire 10</td>\n</tr>\n<tr>\n<td style=\"margin: 0px; border: 1px solid white; padding: 1px 5px; text-align: center;\">Frostblood</td>\n<td style=\"border: 1px solid white; padding: 1px 5px; margin: 0px; text-align: center;\">Resist cold 10</td>\n</tr>\n<tr style=\"background: #3e3e3e;\">\n<td style=\"margin: 0px; border: 1px solid white; padding: 1px 5px; text-align: center;\">Hillblood</td>\n<td style=\"border: 1px solid white; padding: 1px 5px; margin: 0px; text-align: center;\">Increase natural armor by 2</td>\n</tr>\n<tr>\n<td style=\"margin: 0px; border: 1px solid white; padding: 1px 5px; text-align: center;\">Stoneblood</td>\n<td style=\"border: 1px solid white; padding: 1px 5px; margin: 0px; text-align: center;\">Rock catching, rock throwing (1d8, 120 ft.)</td>\n</tr>\n</tbody>\n</table>"
    },
    "tags": [],
    "actions": [],
    "attackNotes": [],
    "effectNotes": [],
    "changes": [
      {
        "_id": "kqn0quhx",
        "formula": "10",
        "operator": "add",
        "subTarget": "mhp",
        "modifier": "untyped",
        "priority": 0,
        "value": 0,
        "target": "misc"
      },
      {
        "_id": "8v9djafz",
        "formula": "1",
        "operator": "add",
        "subTarget": "allSavingThrows",
        "modifier": "untyped",
        "priority": 0,
        "value": 0,
        "target": "savingThrows"
      },
      {
        "_id": "t19udrpk",
        "formula": "4",
        "operator": "add",
        "subTarget": "str",
        "modifier": "untyped",
        "priority": 0,
        "value": 0,
        "target": "ability"
      },
      {
        "_id": "yi9fni6e",
        "formula": "4",
        "operator": "add",
        "subTarget": "con",
        "modifier": "untyped",
        "priority": 0,
        "value": 0,
        "target": "ability"
      }
    ],
    "contextNotes": [],
    "links": {
      "children": [],
      "charges": []
    },
    "armorProf": {
      "value": []
    },
    "weaponProf": {
      "value": []
    },
    "languages": {
      "value": []
    },
    "scriptCalls": [],
    "subType": "template",
    "associations": {
      "classes": []
    },
    "crOffset": "1"
  }
}
