{
  "_id": "j7IZqYzTZKa8xmSb",
  "name": "Half-Celestial",
  "type": "feat",
  "img": "systems/pf1/icons/skills/violet_07.jpg",
  "sort": 0,
  "flags": {},
  "system": {
    "description": {
      "value": "<p><strong>Acquired/Inherited Template</strong>&nbsp;Both<br><strong>Simple Template</strong>&nbsp;No<br><strong>Usable with Summons</strong>&nbsp;Yes<br><br>“Half-celestial” is an inherited or acquired template that can be added to any living, corporeal creature with an Intelligence score of 4 or more. A half-celestial creature retains the base creature's statistics and special abilities except as noted here.<br><br><strong>CR:</strong> HD 5 or less, as base creature + 1; HD 6–10, as base creature + 2; HD 11 or more, as base creature + 3.<br><br><strong>Alignment: </strong>Any good.<br><br><strong>Type:</strong> The creature's type changes to outsider (native). Do not recalculate HD, BAB, or saves.<br><br><strong>Armor Class: </strong>Natural armor improves by +1.<br><br><strong>Defenses/Qualities: </strong>It gains darkvision 60 feet; immunity to disease; +4 racial bonus on saves vs. poison; acid, cold, and electricity resist 10; DR 5/magic (if HD 11 or less) or 10/magic (if HD 12 or more); and SR equal to CR + 11 (maximum 35).<br><br><strong>Speed: </strong>Unless the base creature flies better, the half-celestial flies at twice the base creature's land speed (good maneuverability).<br><br><strong>Special Abilities:</strong> A half-celestial gains the following.<br><br><em>Smite Evil (Su):</em> Once per day as a swift action the half-celestial can smite evil as a paladin of the same level as its Hit Dice. The smite persists until the target is dead of the half-celestial rests.<br><br><strong>Spell-Like Abilities:</strong> A half-celestial with an Int or Wis score of 8 or higher has a cumulative number of spell-like abilities depending on its Hit Dice. Unless otherwise noted, an ability is usable once per day. Caster level equals the creature's HD (or the caster evel of the base creature's spell-like abilities, whichever is higher).</p>\n<hr>\n<table class=\"inner\" style=\"border-color: white; color: #ffffff; font-family: 'Century Gothic', CenturyGothic, AppleGothic, sans-serif; font-size: 15px; background-color: #0f0f0f;\">\n<tbody style=\"margin-top: 0px;\">\n<tr style=\"margin-top: 0px;\">\n<td style=\"margin: 0px; border: 1px solid white; padding: 1px 5px; text-align: center;\"><strong style=\"margin-top: 0px;\">HD</strong></td>\n<td style=\"border: 1px solid white; padding: 1px 5px; margin: 0px; text-align: center;\"><strong style=\"margin-top: 0px;\">Abilities</strong></td>\n</tr>\n<tr style=\"background: #3e3e3e;\">\n<td style=\"margin: 0px; border: 1px solid white; padding: 1px 5px; text-align: center;\">1–2</td>\n<td style=\"border: 1px solid white; padding: 1px 5px; margin: 0px; text-align: center;\"><em style=\"margin-top: 0px;\">Protection from evil&nbsp;</em>3/day,&nbsp;<em>bless</em></td>\n</tr>\n<tr>\n<td style=\"margin: 0px; border: 1px solid white; padding: 1px 5px; text-align: center;\">3–4</td>\n<td style=\"border: 1px solid white; padding: 1px 5px; margin: 0px; text-align: center;\"><em style=\"margin-top: 0px;\">Aid</em>,&nbsp;<em>Detect evil</em></td>\n</tr>\n<tr style=\"background: #3e3e3e;\">\n<td style=\"margin: 0px; border: 1px solid white; padding: 1px 5px; text-align: center;\">5–6</td>\n<td style=\"border: 1px solid white; padding: 1px 5px; margin: 0px; text-align: center;\"><em style=\"margin-top: 0px;\">Cure serious wounds</em>,&nbsp;<em>Neutralize poison</em></td>\n</tr>\n<tr>\n<td style=\"margin: 0px; border: 1px solid white; padding: 1px 5px; text-align: center;\">7–8</td>\n<td style=\"border: 1px solid white; padding: 1px 5px; margin: 0px; text-align: center;\"><em style=\"margin-top: 0px;\">Holy smite</em>,&nbsp;<em>Remove disease</em></td>\n</tr>\n<tr style=\"background: #3e3e3e;\">\n<td style=\"margin: 0px; border: 1px solid white; padding: 1px 5px; text-align: center;\">9–10</td>\n<td style=\"border: 1px solid white; padding: 1px 5px; margin: 0px; text-align: center;\"><em style=\"margin-top: 0px;\">Dispel evil</em></td>\n</tr>\n<tr>\n<td style=\"margin: 0px; border: 1px solid white; padding: 1px 5px; text-align: center;\">11–12</td>\n<td style=\"border: 1px solid white; padding: 1px 5px; margin: 0px; text-align: center;\"><em style=\"margin-top: 0px;\">Holy word</em></td>\n</tr>\n<tr style=\"background: #3e3e3e;\">\n<td style=\"margin: 0px; border: 1px solid white; padding: 1px 5px; text-align: center;\">13–14</td>\n<td style=\"border: 1px solid white; padding: 1px 5px; margin: 0px; text-align: center;\"><em style=\"margin-top: 0px;\">Holy aura&nbsp;</em>3/day, Hallow</td>\n</tr>\n<tr>\n<td style=\"margin: 0px; border: 1px solid white; padding: 1px 5px; text-align: center;\">15–16</td>\n<td style=\"border: 1px solid white; padding: 1px 5px; margin: 0px; text-align: center;\"><em style=\"margin-top: 0px;\">Mass charm monster</em></td>\n</tr>\n<tr style=\"background: #3e3e3e;\">\n<td style=\"margin: 0px; border: 1px solid white; padding: 1px 5px; text-align: center;\">17–18</td>\n<td style=\"border: 1px solid white; padding: 1px 5px; margin: 0px; text-align: center;\"><em style=\"margin-top: 0px;\">Summon monster IX&nbsp;</em>(celestials only)</td>\n</tr>\n<tr>\n<td style=\"margin: 0px; border: 1px solid white; padding: 1px 5px; text-align: center;\">19–20</td>\n<td style=\"border: 1px solid white; padding: 1px 5px; margin: 0px; text-align: center;\"><em style=\"margin-top: 0px;\">Resurrection</em></td>\n</tr>\n</tbody>\n</table>\n<hr>\n<p><br style=\"color: #ffffff; font-family: 'Century Gothic', CenturyGothic, AppleGothic, sans-serif; font-size: 15px; background-color: #0f0f0f;\"><strong>Abilities: </strong>A half-celestial gains a +4 bonus on three ability scores of its choice and a +2 bonus on the other three. (Select these in the \"Changes\" tab of this entry)<br><br><strong>Skills:</strong> A half-celestial with racial Hit Dice has skill points per racial Hit Die equal to 6 + its Intelligence modifier. Racial class skills are unchanged from the base creature's. Skill ranks from class levels are unaffected.</p>"
    },
    "tags": [],
    "actions": [],
    "attackNotes": [],
    "effectNotes": [],
    "changes": [
      {
        "_id": "morbn1sa",
        "formula": "1",
        "operator": "add",
        "subTarget": "nac",
        "modifier": "untyped",
        "priority": 0,
        "value": 0,
        "target": "ac"
      },
      {
        "_id": "033ty076",
        "formula": "4",
        "operator": "add",
        "subTarget": "str",
        "modifier": "untyped",
        "priority": 0,
        "value": 0,
        "target": "ability"
      },
      {
        "_id": "3ybnzjpq",
        "formula": "4",
        "operator": "add",
        "subTarget": "str",
        "modifier": "untyped",
        "priority": 0,
        "value": 0,
        "target": "ability"
      },
      {
        "_id": "a2k7my9i",
        "formula": "4",
        "operator": "add",
        "subTarget": "str",
        "modifier": "untyped",
        "priority": 0,
        "value": 0,
        "target": "ability"
      },
      {
        "_id": "lsicw3j3",
        "formula": "2",
        "operator": "add",
        "subTarget": "str",
        "modifier": "untyped",
        "priority": 0,
        "value": 0,
        "target": "ability"
      },
      {
        "_id": "qfwtb8k6",
        "formula": "2",
        "operator": "add",
        "subTarget": "str",
        "modifier": "untyped",
        "priority": 0,
        "value": 0,
        "target": "ability"
      },
      {
        "_id": "wvvbnp9s",
        "formula": "2",
        "operator": "add",
        "subTarget": "str",
        "modifier": "untyped",
        "priority": 0,
        "value": 0,
        "target": "ability"
      }
    ],
    "contextNotes": [],
    "links": {
      "children": [],
      "charges": []
    },
    "armorProf": {
      "value": []
    },
    "weaponProf": {
      "value": []
    },
    "languages": {
      "value": []
    },
    "scriptCalls": [],
    "subType": "template",
    "associations": {
      "classes": []
    },
    "crOffset": "1"
  }
}
