{
  "_id": "2YuxcUNFMPNBpekG",
  "name": "Silent Spell",
  "type": "feat",
  "img": "systems/pf1/icons/feats/silent-spell.jpg",
  "sort": 0,
  "flags": {},
  "system": {
    "description": {
      "value": "\n                <i>You can cast your spells without making any sound.</i>\n                <br />\n                <br />\n                \n                <p><b>Benefits</b></p>\n                <p><p class=\"stat-block-1\"> A silent spell can be cast with no verbal components. Spells without verbal components are not affected. A silent spell uses up a spell slot one level higher than the spell's actual level.</p></p>\n                \n            <br />\n                <p><b>Special</b></p>\n                <p><p class=\"stat-block-1\"> Bard spells cannot be enhanced by this feat.</p></p>\n                \n            \n            "
    },
    "tags": [["Metamagic"], ["Magic"]],
    "actions": [],
    "attackNotes": [],
    "effectNotes": [],
    "changes": [],
    "contextNotes": [],
    "links": {
      "children": [],
      "charges": []
    },
    "tag": "feat_silentSpell",
    "useCustomTag": true,
    "armorProf": {
      "value": []
    },
    "weaponProf": {
      "value": []
    },
    "languages": {
      "value": []
    },
    "scriptCalls": [],
    "associations": {
      "classes": []
    }
  }
}
