{
  "_id": "ZnRc2qF1ZfpajxEe",
  "name": "Rougarou",
  "type": "race",
  "img": "systems/pf1/icons/races/creature-types/animal.png",
  "sort": 0,
  "flags": {},
  "system": {
    "description": {
      "value": "<h2>Standard Racial Traits</h2><ul><li><strong>Ability Scores:</strong> +2 <em>Strength</em>, +2 <em>Wisdom</em>, –2 <em>Intelligence</em>. Rougarous are strong and alert, but simplistic.</li><li><strong>Size:</strong> Medium. Rougarous are Medium creatures.</li><li><strong>Speed:</strong> Rougarous have a base speed of 30 feet.</li><li><strong>Languages:</strong> Rougarous speak Common and their own racial language of Rougarou. Rougarous with high <em>Intelligence</em> scores can choose from these bonus languages: Aklo, Elven, Gnoll, Gnome, Goblin, or Sylvan.</li></ul><h3>Offensive Racial Traits</h3><ul><li><strong>Natural Weapon: </strong>Rougarous have a bite attack that deals 1d4 points of damage. This is a secondary attack if a rougarou wields a manufactured weapon.</li></ul><h3>Senses Racial Traits</h3><ul><li><strong>Senses</strong>: Rougarous have <em>low-light vision</em> and the <em>scent</em> special ability.</li></ul><h3>Other Racial Traits</h3><ul><li><strong>Change Shape (Su)</strong> A rougarou can change shape once per day into a <em>wolf</em> as a <em>standard action</em>, as <em>beast shape I</em>. A rougarou can revert to its true form as a <em>swift action</em>.</li></ul>"
    },
    "tags": [],
    "changes": [
      {
        "_id": "wcea60lv",
        "formula": "2",
        "operator": "add",
        "subTarget": "str",
        "modifier": "racial",
        "priority": 0,
        "value": 0,
        "target": "ability"
      },
      {
        "_id": "8pbmvp3a",
        "formula": "2",
        "operator": "add",
        "subTarget": "wis",
        "modifier": "racial",
        "priority": 0,
        "value": 0,
        "target": "ability"
      },
      {
        "_id": "ls8q001j",
        "formula": "-2",
        "operator": "add",
        "subTarget": "int",
        "modifier": "racial",
        "priority": 0,
        "value": 0,
        "target": "ability"
      }
    ],
    "contextNotes": [],
    "links": {
      "children": []
    },
    "armorProf": {
      "value": []
    },
    "weaponProf": {
      "value": []
    },
    "languages": {
      "value": ["common"],
      "custom": "Rougarou"
    },
    "scriptCalls": [],
    "subTypes": [["Rougarou"]]
  }
}
