{
  "_id": "FSflNkwWnEY8pJuQ",
  "name": "Acid Crossbow Bolt",
  "type": "loot",
  "img": "icons/weapons/ammunition/arrow-simple-brown.webp",
  "sort": 0,
  "flags": {},
  "system": {
    "description": {
      "value": "<p><strong>Source</strong> <em>Pathfinder #15: The Armageddon Echo pg. 18</em></p><h3 class=\"framing\"><span title=\"3.5 Material\">[3.5]</span> Statistics</h3><p><strong>Cost</strong> 40 gp <strong>Weight</strong> -</p><p><strong>Category</strong> Ammunition; <strong>Proficiency</strong> Ammunition</p><h3 class=\"framing\">Description</h3><p>These metal bolts have a glass section in the middle, filled with acid. On a successful hit, they deal normal damage and 1d4 points of additional acid damage. Acid bolts do not cause any splash damage.</p>"
    },
    "tags": [],
    "weight": {
      "value": 0.1
    },
    "price": 40,
    "equipped": false,
    "hp": {
      "max": 1,
      "value": 1
    },
    "hardness": 5,
    "identifiedName": "Acid Crossbow Bolt",
    "changes": [],
    "contextNotes": [],
    "links": {
      "children": []
    },
    "tag": "acidBolt",
    "scriptCalls": [],
    "subType": "ammo",
    "extraType": "bolt"
  }
}
