{
  "_id": "vkUakr0V4RE9CAyk",
  "name": "Bladed Scarf",
  "type": "weapon",
  "img": "systems/pf1/icons/items/weapons/bladed-scarf.PNG",
  "sort": 0,
  "flags": {},
  "system": {
    "description": {
      "value": "<p><strong>Source</strong> <em>Varisia, Birthplace of Legends pg. 14</em>, <em>Rise of the Runelords Player's Guide pg. 11</em>, <em>Curse of the Crimson Throne Player's Guide pg. 13</em>, <em>Pathfinder Campaign Setting pg. 209</em>, <em>Inner Sea World Guide pg. 290</em>, <em>Adventurer's Armory pg. 33</em></p><h3 class=\"framing\"><span title=\"PFS Legal\">[PFS]</span> Statistics</h3><p><strong>Cost</strong> 12 gp <strong>Weight</strong> 2 lbs.</p><p><strong>Damage</strong> 1d4 (small), 1d6 (medium); <strong>Critical</strong> x2; <strong>Range</strong> -; <strong>Type</strong> S; <strong>Special</strong> disarm, trip</p><p><strong>Category</strong> Two-Handed; <strong>Proficiency</strong> Exotic</p><p><strong>Weapon Groups</strong> Flails</p><h3 class=\"framing\">Description</h3><p>Knowing that seductive performances can bring out the worst in watchers, some Varisians craft rows of razor-sharp blades into their scarves. The skill required in using such scarves effectively and not revealing their deadly nature makes them exotic weapons. If you are proficient with a bladed scarf, you deal 1d4 points of slashing damage to any creature that makes a successful grapple check against you while you wield the scarf. You can use the Weapon Finesse feat to apply your Dexterity modifier instead of your Strength modifier on attack rolls with a bladed scarf sized for you, even though it isn't a light weapon.</p>"
    },
    "tags": [],
    "weight": {
      "value": 2
    },
    "price": 12,
    "hardness": 10,
    "identifiedName": "Bladed Scarf",
    "changes": [],
    "actions": [
      {
        "_id": "auxvs2rmhnsco24u",
        "name": "Attack",
        "img": "systems/pf1/icons/items/weapons/bladed-scarf.PNG",
        "description": "",
        "tag": "",
        "activation": {
          "cost": 1,
          "type": "attack"
        },
        "unchainedAction": {
          "activation": {
            "cost": 1,
            "type": ""
          }
        },
        "duration": {
          "value": null,
          "units": "inst"
        },
        "target": {
          "value": ""
        },
        "range": {
          "value": "0",
          "units": "melee",
          "maxIncrements": 1,
          "minValue": null,
          "minUnits": ""
        },
        "uses": {
          "autoDeductChargesCost": "",
          "self": {
            "value": 0,
            "maxFormula": "",
            "per": null
          },
          "per": "",
          "value": 0,
          "maxFormula": ""
        },
        "measureTemplate": {
          "type": "",
          "size": "",
          "overrideColor": false,
          "customColor": "",
          "overrideTexture": false,
          "customTexture": ""
        },
        "attackName": "",
        "actionType": "mwak",
        "attackBonus": "",
        "critConfirmBonus": "",
        "damage": {
          "parts": [
            [
              "sizeRoll(1, 6, @size)",
              {
                "values": ["slashing"],
                "custom": ""
              }
            ]
          ],
          "critParts": [],
          "nonCritParts": []
        },
        "attackParts": [],
        "formulaicAttacks": {
          "count": {
            "formula": "min(3, ceil(@attributes.bab.total / 5) - 1)"
          },
          "bonus": {
            "formula": "@formulaicAttack * -5"
          },
          "label": null
        },
        "formula": "",
        "ability": {
          "attack": "str",
          "damage": "str",
          "damageMult": 1.5,
          "critRange": 20,
          "critMult": 2
        },
        "save": {
          "dc": "0",
          "type": "",
          "description": ""
        },
        "effectNotes": [],
        "attackNotes": [],
        "soundEffect": "",
        "powerAttack": {
          "multiplier": "",
          "damageBonus": 2,
          "critMultiplier": 1
        },
        "naturalAttack": {
          "primaryAttack": true,
          "secondary": {
            "attackBonus": "-5",
            "damageMult": 0.5
          }
        },
        "nonlethal": false,
        "usesAmmo": false,
        "spellEffect": "",
        "spellArea": "",
        "conditionals": [],
        "enh": {
          "value": null
        }
      }
    ],
    "uses": {
      "per": ""
    },
    "attackNotes": [],
    "effectNotes": [],
    "contextNotes": [],
    "links": {
      "children": []
    },
    "tag": "bladedScarf",
    "scriptCalls": [],
    "held": "2h",
    "weaponGroups": {
      "value": ["flails"]
    },
    "subType": "exotic",
    "weaponSubtype": "2h"
  }
}
