{
  "_id": "RFfwbr0xWBDWvExu",
  "name": "Musket",
  "type": "weapon",
  "img": "icons/weapons/guns/gun-wood.webp",
  "sort": 0,
  "flags": {},
  "system": {
    "description": {
      "value": "<p><strong>Source</strong> <em>Ultimate Equipment pg. 43</em>, <em>Ultimate Combat pg. 137</em></p>\n<h3 class=\"framing\"><span class=\"pfs-conditional\" title=\"No character may purchase a firearm unless she possesses the Gunsmithing feat and firearms are never considered Always Available\">[PFS]</span> Statistics</h3>\n<p><strong>Cost</strong> 1,500 gp <strong>Weight</strong> 9 lbs.</p>\n<p><strong>Damage</strong> 1d10 (small), 1d12 (medium); <strong>Critical</strong> x4; <strong>Range</strong> 40 ft.; <strong>Type</strong> B and P; <strong>Special</strong> -</p>\n<p><strong>Misfire</strong> 1-2 (5 ft.); <strong>Capacity</strong> 1</p>\n<p><strong>Category</strong> Two-Handed; <strong>Proficiency</strong> Exotic</p>\n<h3 class=\"framing\">Description</h3>\n<p>This long-barreled firearm has a much greater range than a pistol. A musket uses either a bullet and 1 dose of black powder or a single alchemical cartridge as its ammunition.</p>\n<p><strong>This is an early firearm.</strong></p>"
    },
    "tags": [],
    "weight": {
      "value": 9
    },
    "price": 1500,
    "hardness": 10,
    "identifiedName": "Musket",
    "changes": [],
    "actions": [
      {
        "_id": "7ejexe4mmovdera6",
        "name": "Attack",
        "img": "icons/weapons/guns/gun-wood.webp",
        "description": "",
        "tag": "",
        "activation": {
          "cost": 1,
          "type": "attack"
        },
        "unchainedAction": {
          "activation": {
            "cost": 1,
            "type": ""
          }
        },
        "duration": {
          "value": null,
          "units": "inst"
        },
        "target": {
          "value": ""
        },
        "range": {
          "value": "40",
          "units": "ft",
          "maxIncrements": 10,
          "minValue": null,
          "minUnits": ""
        },
        "uses": {
          "autoDeductChargesCost": "",
          "self": {
            "value": 0,
            "maxFormula": "",
            "per": null
          },
          "per": "",
          "value": 0,
          "maxFormula": ""
        },
        "measureTemplate": {
          "type": "",
          "size": "",
          "overrideColor": false,
          "customColor": "",
          "overrideTexture": false,
          "customTexture": ""
        },
        "attackName": "",
        "actionType": "rwak",
        "attackBonus": "",
        "critConfirmBonus": "",
        "damage": {
          "parts": [
            [
              "sizeRoll(1, 12, @size)",
              {
                "values": ["bludgeoning", "piercing"],
                "custom": ""
              }
            ]
          ],
          "critParts": [],
          "nonCritParts": []
        },
        "attackParts": [],
        "formulaicAttacks": {
          "count": {
            "formula": "min(3, ceil(@attributes.bab.total / 5) - 1)"
          },
          "bonus": {
            "formula": "@formulaicAttack * -5"
          },
          "label": ""
        },
        "formula": "",
        "ability": {
          "attack": "dex",
          "damage": "",
          "damageMult": 1.5,
          "critRange": 20,
          "critMult": 4
        },
        "save": {
          "dc": "0",
          "type": "",
          "description": ""
        },
        "effectNotes": [],
        "attackNotes": [],
        "soundEffect": "",
        "powerAttack": {
          "multiplier": "",
          "damageBonus": 2,
          "critMultiplier": 1
        },
        "naturalAttack": {
          "primaryAttack": true,
          "secondary": {
            "attackBonus": "-5",
            "damageMult": 0.5
          }
        },
        "nonlethal": false,
        "usesAmmo": true,
        "spellEffect": "",
        "spellArea": "",
        "conditionals": [],
        "enh": {
          "value": null
        },
        "ammoType": "gunBullet"
      }
    ],
    "uses": {
      "per": ""
    },
    "attackNotes": [],
    "effectNotes": [],
    "contextNotes": [],
    "links": {
      "children": []
    },
    "tag": "musket",
    "scriptCalls": [],
    "held": "2h",
    "weaponGroups": {
      "value": ["firearms"]
    },
    "subType": "exotic",
    "weaponSubtype": "ranged",
    "ammoType": "gunBullet"
  }
}
