{
  "_id": "Pptj09bpbsNqEqMK",
  "name": "Screaming Bullet",
  "type": "loot",
  "img": "systems/pf1/icons/items/weapons/bullet.png",
  "sort": 0,
  "flags": {},
  "system": {
    "description": {
      "value": "<p><strong>Source</strong> <em>Heroes of Golarion pg. 18</em></p><h3 class=\"framing\"><span title=\"PFS Legal\">[PFS]</span> Statistics</h3><p><strong>Cost</strong> 20 gp <strong>Weight</strong> -</p><p><strong>Category</strong> Ammunition; <strong>Proficiency</strong> Exotic</p><h3 class=\"framing\">Description</h3><p>This ammunition makes a piercing scream when fired. If fired as part of an Intimidate check, it imparts a +5 bonus on the check. If used with the startling shot deed, the target is flat-footed for an additional round. </p>"
    },
    "tags": [],
    "price": 20,
    "equipped": false,
    "hp": {
      "max": 1,
      "value": 1
    },
    "hardness": 5,
    "identifiedName": "Screaming Bullet",
    "changes": [],
    "contextNotes": [],
    "links": {
      "children": []
    },
    "tag": "screamingBullet",
    "scriptCalls": [],
    "subType": "ammo",
    "extraType": "slingBullet"
  }
}
