{
  "_id": "SMafawGRCZxdUjgR",
  "name": "Bachelor snuff",
  "type": "loot",
  "img": "systems/pf1/icons/items/inventory/dice.jpg",
  "sort": 0,
  "flags": {},
  "system": {
    "description": {
      "value": "<p>Source&nbsp;<a href=\"http://paizo.com/store/downloads/pathfinder/pathfinderCompanion/pathfinderRPG/v5748btpy8dmf\" target=\"_blank\" rel=\"noopener\">Adventurer's Armory pg. 19</a><br>Price&nbsp;1 gp;&nbsp;Weight&nbsp;—<br>Category&nbsp;Black Market</p>\n<h3>Description</h3>\n<p>If inhaled through the nose, this sootysmelling golden powder renders humanoid males temporarily sterile without otherwise affecting their performance. A dose typically lasts 1–3 days. Long-term users of bachelor snuff tend to develop a slight, but still noticeable, gilded tinge to their teeth and nails.</p>"
    },
    "tags": [],
    "price": 1,
    "equipped": false,
    "identifiedName": "Bachelor snuff",
    "changes": [],
    "contextNotes": [],
    "links": {
      "children": []
    },
    "scriptCalls": [],
    "subType": "gear"
  }
}
