{
  "_id": "pcnplahfiytlmxtc",
  "name": "Bucket",
  "type": "loot",
  "img": "systems/pf1/icons/items/inventory/dice.jpg",
  "sort": 0,
  "flags": {},
  "system": {
    "description": {
      "value": " \n<p class=\"source\"><b>Source</b> <em>PZO1110</em></p> \n<p>A simple bucket holds 1 cubic ft. or up to 65 lb. of liquid or material and when full. A bucket filled with liquid holds about 7 gallons.</p> \n<p><b>Empty Weight</b>: 2 lb.; <b>Capacity</b>: 1 cubic ft./65 lb.</p> \n"
    },
    "tags": [],
    "weight": {
      "value": 2
    },
    "price": 0.5,
    "equipped": false,
    "changes": [],
    "contextNotes": [],
    "links": {
      "children": []
    },
    "scriptCalls": [],
    "subType": "gear"
  }
}
