{
  "_id": "wU8UByas24WFXOMn",
  "name": "Cloak of Resistance +5",
  "type": "equipment",
  "img": "systems/pf1/icons/items/equipment/cloak-plain.jpg",
  "sort": 0,
  "flags": {},
  "system": {
    "description": {
      "value": "<p>This garment offers magic protection in the form of a +1 to +5&nbsp;<em>resistance bonus</em>&nbsp;on all saving throws (<em>Fortitude</em>,&nbsp;<em>Reflex</em>, and&nbsp;<em>Will</em>).</p>"
    },
    "tags": [],
    "weight": {
      "value": 1
    },
    "price": 25000,
    "resizing": true,
    "unidentified": {
      "name": "Cloak"
    },
    "identifiedName": "Cloak of Resistance +5",
    "cl": 15,
    "aura": {
      "school": "abj"
    },
    "changes": [
      {
        "_id": "8lxsocua",
        "formula": "5",
        "operator": "add",
        "subTarget": "allSavingThrows",
        "modifier": "resist",
        "priority": 0,
        "value": 0,
        "target": "savingThrows"
      }
    ],
    "contextNotes": [],
    "actions": [],
    "attackNotes": [],
    "effectNotes": [],
    "links": {
      "children": [],
      "charges": []
    },
    "tag": "cloakOfResistance5",
    "scriptCalls": [],
    "subType": "misc",
    "equipmentSubtype": "wondrous",
    "slot": "shoulders"
  }
}
