{
  "_id": "eztmvxecbahvbash",
  "name": "Dancer's Garb",
  "type": "loot",
  "img": "systems/pf1/icons/items/inventory/dice.jpg",
  "sort": 0,
  "flags": {},
  "system": {
    "description": {
      "value": " \n<p class=\"source\"><b>Source</b> <a href=\"http://amzn.to/2eT3m9D\" target=\"_blank\" rel=\"noopener\">PPZO94102</a></p> \n<p><b>Price</b> 100 gp; <b>Weight</b> 5 lbs.</p> \n<p>This combination of loose-fitting sashes, veils, and ornamentation accentuates a dancer's form and movements.</p> \n<p>Dancer's garb provides a +2 <em>circumstance bonus</em> on <em>Perform</em> (dance) checks, similar to that provided by masterwork instruments for other <em>Perform</em> skills, but does not grant this benefit when worn with armor or other concealing clothing.</p> \n"
    },
    "tags": [],
    "weight": {
      "value": 5
    },
    "price": 100,
    "equipped": false,
    "changes": [],
    "contextNotes": [],
    "links": {
      "children": []
    },
    "scriptCalls": [],
    "subType": "gear"
  }
}
