{
  "_id": "nfrtucqtaepxmmdi",
  "name": "Flask",
  "type": "loot",
  "img": "systems/pf1/icons/items/inventory/dice.jpg",
  "sort": 0,
  "flags": {},
  "system": {
    "description": {
      "value": " \n<p class=\"source\"><b>Source</b> <em>PZO1110</em></p> \n<p>A flask holds 1 pint of liquid and weighs 1 lb. when full.</p> \n<p><b>Empty Weight</b>: &#8211; (1 lb. full); <b>Capacity</b>: 1 pint/1 lb.</p> \n"
    },
    "tags": [],
    "weight": {
      "value": 1
    },
    "price": 0.03,
    "equipped": false,
    "changes": [],
    "contextNotes": [],
    "links": {
      "children": []
    },
    "scriptCalls": [],
    "subType": "gear"
  }
}
