{
  "_id": "djfbgejxobybhmkh",
  "name": "Godsbrew",
  "type": "loot",
  "img": "systems/pf1/icons/items/inventory/dice.jpg",
  "sort": 0,
  "flags": {},
  "system": {
    "description": {
      "value": "<h4><span id=\"Godsbrew\"><a name=\"TOC-Godsbrew\"></a>Godsbrew</span></h4>\r\n<p class=\"source\"><b>Source</b> <em>PPZO9410</em></p>\r\n<p>The recipe for this beer was said to be the last beer imbibed by a god before he undertook a great challenge.</p>\r\n<p>The listed prices are for a tavern or restaurant in an average city.</p>\r\n<p class=\"source\">*Are you looking for the official Pathfinder Roleplaying Game version of this item? Click <a href=\"http://www.pathfindercommunity.net/home/equipment/goods-and-services\">here</a> to find it!</p>\r\n"
    },
    "tags": [],
    "equipped": false,
    "changes": [],
    "contextNotes": [],
    "links": {
      "children": []
    },
    "scriptCalls": [],
    "subType": "gear"
  }
}
