{
  "_id": "cuthceisvorerlyl",
  "name": "Incendiary Catalyst",
  "type": "loot",
  "img": "systems/pf1/icons/items/inventory/dice.jpg",
  "sort": 0,
  "flags": {},
  "system": {
    "description": {
      "value": "\r\n<p class=\"source\"><b>Source</b> <a href=\"http://amzn.to/2CbteVz\" target=\"_blank\" rel=\"noopener\">PZO90115</a></p>\r\n<p><b>Price</b> 40 gp; <b>Weight</b> 1 lb.</p>\r\n<p>Incendiary catalyst can be thrown at a creature as a ranged <em>touch attack</em> with a range increment of 10 feet. On a hit, the target is doused with accelerants that give the target <em>vulnerability</em> to fire for 1 round. Incendiary catalyst does not affect creatures that are already vulnerable to fire, and the target's fire <em>immunity</em> and resistances apply as normal. Crafting this item requires a successful DC 20 <em>Craft</em> (alchemy) check.</p>\r\n"
    },
    "tags": [],
    "weight": {
      "value": 1
    },
    "price": 40,
    "equipped": false,
    "changes": [],
    "contextNotes": [],
    "links": {
      "children": []
    },
    "scriptCalls": [],
    "subType": "gear"
  }
}
