{
  "_id": "ftrkbsreopltvqdo",
  "name": "Kit, Chirurgeon's",
  "type": "loot",
  "img": "systems/pf1/icons/items/inventory/dice.jpg",
  "sort": 0,
  "flags": {},
  "system": {
    "description": {
      "value": "\r\n<p><b>Price</b> 400 gp; <b>Weight</b> 4 lbs.</p>\r\n<p>This sturdy leather case straps to the waist or thigh, or can be slung over a shoulder. It consists of a leather pouch, a <em>healer's kit</em>, a <em>bottle</em> of strong brandy, a potion of cure light wounds, a <em>vial</em> of smelling salts, and 2 doses each of alchemist's kindness, antiplague, antitoxin, bloodblock, and soothe syrup.</p>\r\n\r\n"
    },
    "tags": [],
    "weight": {
      "value": 4
    },
    "price": 400,
    "equipped": false,
    "changes": [],
    "contextNotes": [],
    "links": {
      "children": []
    },
    "scriptCalls": [],
    "subType": "gear"
  }
}
