{
  "_id": "bascdsklyibhfpmg",
  "name": "Lamp, Celestial",
  "type": "loot",
  "img": "systems/pf1/icons/items/inventory/dice.jpg",
  "sort": 0,
  "flags": {},
  "system": {
    "description": {
      "value": "<h4><span id=\"Lamp_Celestial\"><a name=\"TOC-Lamp-Celestial\"></a>Lamp, Celestial</span></h4>\r\n<p class=\"source\"><b>Source</b> <em>PZO1121</em></p>\r\n<p>This polished lantern contains a <em>continual flame</em> and sheds light as a common lamp. If its font of consecrated crystal and metalwork is filled with <em>holy water</em>, the lamp's light is sanctified for 24 hours, adding a +1 bonus to the save DC of channeled positive energy or energy channeled to harm evil <em>outsiders</em> within a 30-foot radius.</p>\r\n"
    },
    "tags": [],
    "equipped": false,
    "changes": [],
    "contextNotes": [],
    "links": {
      "children": []
    },
    "scriptCalls": [],
    "subType": "gear"
  }
}
