{
  "_id": "vqtczqgvydyjotff",
  "name": "Moondew",
  "type": "loot",
  "img": "systems/pf1/icons/items/inventory/dice.jpg",
  "sort": 0,
  "flags": {},
  "system": {
    "description": {
      "value": "\r\n<p class=\"source\"><b>Source</b> <em>PZO9445</em></p>\r\n<p><b>Price</b> 4 gp; <b>Weight</b> -</p>\r\n<p>Moondew is derived from a potent herb. It is commonly used in the creation of medicinal, protective, and divinatory items.</p>\r\n<p class=\"header\">Alchemical Power Component</p>\r\n<p><b>Doses</b> 5 (20 gp); <b>Spells</b> divination school</p>\r\n<p>Spells of the divination school are cast at +1 caster level for the purpose of all effects.</p>\r\n"
    },
    "tags": [],
    "price": 4,
    "equipped": false,
    "changes": [],
    "contextNotes": [],
    "links": {
      "children": []
    },
    "scriptCalls": [],
    "subType": "gear"
  }
}
