{
  "_id": "lrjdzrmqexoutxoo",
  "name": "Oil, Wing",
  "type": "loot",
  "img": "systems/pf1/icons/items/inventory/dice.jpg",
  "sort": 0,
  "flags": {},
  "system": {
    "description": {
      "value": "\r\n<p class=\"source\"><b>Source</b> <em>PZO1121</em></p>\r\n<p>Tengus mix special salves to protect their feathers from the elements. This one-ounce vial of wing oil gives a feathered creature a +1 bonus on all saving throws to resist the effects of cold weather. Its effects last 24 hours.</p>\r\n<h3 style=\"margin-top: 30px;border-bottom-style: solid;border-bottom-width: thin\"><span id=\"Tools_Devices_and_Kits\"><a name=\"TOC-Tools-Devices-and-Kits\"></a>Tools, Devices and Kits</span></h3>\r\n"
    },
    "tags": [],
    "price": 1,
    "equipped": false,
    "changes": [],
    "contextNotes": [],
    "links": {
      "children": []
    },
    "scriptCalls": [],
    "subType": "gear"
  }
}
