{
  "_id": "tTVn2S29PKvr5S3c",
  "name": "Rope, silk",
  "type": "loot",
  "img": "systems/pf1/icons/items/inventory/dice.jpg",
  "sort": 0,
  "flags": {},
  "system": {
    "description": {
      "value": "<p><span id=\"ctl00_MainContent_DataListTypes_ctl00_LabelName\">Source&nbsp;<a href=\"http://paizo.com/products/btpy8tmc?Pathfinder-Roleplaying-Game-Ultimate-Equipment\" target=\"_blank\" rel=\"noopener\">Ultimate Equipment pg. 57</a><br>Price&nbsp;10 gp;&nbsp;Weight&nbsp;5 lbs.<br>Category&nbsp;Adventuring Gear</span></p>\n<h3>Description</h3>\n<p>This 50-foot length of silk rope has 4 hit points and can be broken with a DC 24 Strength check.</p>"
    },
    "tags": [],
    "weight": {
      "value": 5
    },
    "price": 10,
    "equipped": false,
    "identifiedName": "Rope, silk",
    "changes": [],
    "contextNotes": [],
    "links": {
      "children": []
    },
    "scriptCalls": [],
    "subType": "gear"
  }
}
