{
  "_id": "raviqbfzysuedqle",
  "name": "Tea, Ceremonial",
  "type": "loot",
  "img": "systems/pf1/icons/items/inventory/dice.jpg",
  "sort": 0,
  "flags": {},
  "system": {
    "description": {
      "value": "<h4><span id=\"Tea_Ceremonial\"><a name=\"TOC-Tea-Ceremonial\"></a>Tea, Ceremonial</span></h4>\r\n<p class=\"source\"><b>Source</b> <em>PPZO9410</em></p>\r\n<p>This dark, hot tea comes from the east, and its brewing is part of the classical tea ceremony. Knowing the proper steps of preparing and participating in a tea ceremony requires a successful DC 15 <em>Knowledge</em> (nobility) skill check. A ceremonial tea set includes a tray, teapot, and four tiny cups and spoons.</p>\r\n<p>The listed prices are for a tavern or restaurant in an average city.</p>\r\n<h3><span id=\"Foods\"><a name=\"TOC-Foods\"></a>Foods</span></h3>\r\n"
    },
    "tags": [],
    "equipped": false,
    "changes": [],
    "contextNotes": [],
    "links": {
      "children": []
    },
    "scriptCalls": [],
    "subType": "gear"
  }
}
