{
  "_id": "dxgyonpqubjscduu",
  "name": "Tools, Surgeon's",
  "type": "loot",
  "img": "systems/pf1/icons/items/inventory/dice.jpg",
  "sort": 0,
  "flags": {},
  "system": {
    "description": {
      "value": "\r\n<p><b>Price</b> 20 gp; <b>Weight</b> 5 lbs.</p>\r\n<p>When used in conjunction with a healer's kit, surgeon's tools raise the kit's bonus to a +3 <em>circumstance bonus</em> on <em>Heal</em> checks to treat wounds or deadly wounds.</p>\r\n\r\n"
    },
    "tags": [],
    "weight": {
      "value": 5
    },
    "price": 20,
    "equipped": false,
    "changes": [],
    "contextNotes": [],
    "links": {
      "children": []
    },
    "scriptCalls": [],
    "subType": "gear"
  }
}
