{
  "_id": "odlcdkydnmaatfhr",
  "name": "Tusk Blades",
  "type": "loot",
  "img": "systems/pf1/icons/items/inventory/dice.jpg",
  "sort": 0,
  "flags": {},
  "system": {
    "description": {
      "value": "\r\n<p class=\"source\"><b>Source</b> <em>PCS:Orcs</em></p>\r\n<p>These metal caps must be specially fitted to a creature's horns or tusks; a blade reminiscent of a sword or axe head projects from each cap. If the creature makes a gore attack (including as part of a <em>powerful charge</em>), the attack deals both piercing and slashing damage, and has a critical threat range of 19-20 (this range can be increased by other effects). Tusk blades can be enhanced as melee weapons; the enhancement is applied to the creature's gore attack.</p>\r\n\r\n"
    },
    "tags": [],
    "weight": {
      "value": 5
    },
    "price": 100,
    "equipped": false,
    "changes": [],
    "contextNotes": [],
    "links": {
      "children": []
    },
    "scriptCalls": [],
    "subType": "gear"
  }
}
