{
  "_id": "6ANPEvygaIVogxOf",
  "name": "Alchemical Zombie",
  "type": "feat",
  "img": "systems/pf1/icons/items/potions/unique-3.jpg",
  "sort": 0,
  "flags": {},
  "system": {
    "description": {
      "value": "<p>The alchemist gains the ability to animate a relatively complete corpse as an alchemy-powered zombie. This process takes 1 hour and costs 100 gp in alchemical reagents per HD of the corpse being animated; the dead creature gains the&nbsp;<a href=\"https://aonprd.com/MonsterDisplay.aspx?ItemName=Human%20Zombie\">zombie template</a>. Zombies that are created in this manner count as undead created by @Compendium[pf1.spells.8uwmrygxgih1fb57]{Animate Dead}&nbsp;for the purposes of determining how many undead the alchemist can control. An alchemist must be at least 8th level before selecting this discovery. The created zombie is a creature, not a supernatural effect.</p>"
    },
    "tags": [],
    "actions": [],
    "attackNotes": [],
    "effectNotes": [],
    "changes": [],
    "contextNotes": [],
    "links": {
      "children": [],
      "charges": []
    },
    "tag": "classFeat_alchemicalZombie",
    "useCustomTag": true,
    "armorProf": {
      "value": []
    },
    "weaponProf": {
      "value": []
    },
    "languages": {
      "value": []
    },
    "scriptCalls": [],
    "subType": "classFeat",
    "associations": {
      "classes": [["Alchemist"]]
    },
    "abilityType": "su"
  }
}
