{
  "_id": "HHFF0BGqvbuvLjta",
  "name": "Angelic Protection",
  "type": "feat",
  "img": "systems/pf1/icons/skills/red_05.jpg",
  "sort": 0,
  "flags": {},
  "system": {
    "description": {
      "value": "<p>At 16th level, you gain a +4 deflection bonus to AC and a +4 resistance bonus on saving throws against attacks made or effects created by evil creatures. In addition, you are affected as if subject to a @Compendium[pf1.spells.skgjjub1hng29nwo]{Protection From Evil}&nbsp;spell. This effect cannot be dispelled.</p>"
    },
    "tags": [],
    "actions": [],
    "attackNotes": [],
    "effectNotes": [],
    "changes": [
      {
        "_id": "3u6sdptz",
        "formula": "4",
        "operator": "add",
        "subTarget": "ac",
        "modifier": "deflection",
        "priority": 0,
        "value": 0,
        "target": "ac"
      }
    ],
    "contextNotes": [],
    "links": {
      "children": [],
      "charges": []
    },
    "tag": "classFeat_angelicProtection",
    "useCustomTag": true,
    "armorProf": {
      "value": []
    },
    "weaponProf": {
      "value": []
    },
    "languages": {
      "value": []
    },
    "scriptCalls": [],
    "subType": "classFeat",
    "associations": {
      "classes": [["Bloodrager"]]
    },
    "abilityType": "su"
  }
}
