{
  "_id": "lVG8KQHHnqrMiSRd",
  "name": "Animate Trees",
  "type": "feat",
  "img": "systems/pf1/icons/spells/slice-spirit-3.jpg",
  "sort": 0,
  "flags": {},
  "system": {
    "description": {
      "value": "<p>At 13th level, you can animate a tree within 180 feet as a standard action. This functions as a treant’s animate trees ability, with the following exceptions.</p>\n<p>Each day, you can animate a number of trees equal to 3 + your Charisma modifier, and you can control up to one tree at a time, plus an additional tree at 15th level and every 2 levels thereafter.</p>\n<p>A tree remains animated for 10 minutes per level, or until dismissed by you or destroyed.</p>"
    },
    "tags": [],
    "actions": [],
    "attackNotes": [],
    "effectNotes": [],
    "changes": [],
    "contextNotes": [],
    "links": {
      "children": [],
      "charges": []
    },
    "tag": "classFeat_animateTrees",
    "useCustomTag": true,
    "armorProf": {
      "value": []
    },
    "weaponProf": {
      "value": []
    },
    "languages": {
      "value": []
    },
    "scriptCalls": [],
    "subType": "classFeat",
    "associations": {
      "classes": [["Psychic"]]
    },
    "abilityType": "su"
  }
}
