{
  "_id": "Ov9kuT1OGqORvolI",
  "name": "Arrest the Flow",
  "type": "feat",
  "img": "systems/pf1/icons/spells/air-burst-jade-3.jpg",
  "sort": 0,
  "flags": {},
  "system": {
    "description": {
      "value": "<p>At 15th level, once per day as an&nbsp;<em>immediate action</em>, you can attune yourself to the Astral’s timeless nature to halt the effects of one condition or affliction (such as&nbsp;<em>paralyzed</em>,&nbsp;<em>stunned</em>, a&nbsp;<em>poison</em>, or a curse), including permanent and instantaneous conditions, until the end of your next turn. You can use this ability even when a condition or affliction would normally prevent you from doing so, regardless of whether you’re targeting that prevention effect’s source. At the end of your next turn the condition or affliction resumes its normal effect and the round delayed by this ability does not count toward the condition or affliction’s duration. This ability has no effect on hit point damage,&nbsp;<em>ability damage</em>, or the&nbsp;<em>dead</em>&nbsp;condition. Alternatively, you can use this ability to extend the duration of any one effect affecting you until the end of your next turn; this does not extend the duration for any other creatures under the effect. At 19th level, you can use this ability twice per day.</p>"
    },
    "tags": [],
    "actions": [
      {
        "_id": "ulxzl7qzksn03ybq",
        "name": "Use",
        "img": "systems/pf1/icons/spells/air-burst-jade-3.jpg",
        "description": "",
        "tag": "",
        "activation": {
          "cost": 1,
          "type": "immediate"
        },
        "unchainedAction": {
          "activation": {
            "cost": 1,
            "type": "reaction"
          }
        },
        "duration": {
          "value": null,
          "units": ""
        },
        "target": {
          "value": ""
        },
        "range": {
          "value": null,
          "units": "",
          "maxIncrements": 1,
          "minValue": null,
          "minUnits": ""
        },
        "uses": {
          "autoDeductChargesCost": "",
          "self": {
            "value": 0,
            "maxFormula": "",
            "per": null
          },
          "per": "day",
          "value": 0,
          "maxFormula": "@classes.sorcerer.level >= 19 ? 2 : 1"
        },
        "measureTemplate": {
          "type": "",
          "size": "0",
          "overrideColor": false,
          "customColor": "",
          "overrideTexture": false,
          "customTexture": ""
        },
        "attackName": "",
        "actionType": "",
        "attackBonus": "",
        "critConfirmBonus": "",
        "damage": {
          "parts": [],
          "critParts": [],
          "nonCritParts": []
        },
        "attackParts": [],
        "formulaicAttacks": {
          "count": {
            "formula": ""
          },
          "bonus": {
            "formula": ""
          },
          "label": null
        },
        "formula": "",
        "ability": {
          "attack": null,
          "damage": null,
          "damageMult": 1,
          "critRange": 20,
          "critMult": 2
        },
        "save": {
          "dc": 0,
          "type": "",
          "description": ""
        },
        "effectNotes": [],
        "attackNotes": [],
        "soundEffect": "",
        "powerAttack": {
          "multiplier": "",
          "damageBonus": 2,
          "critMultiplier": 1
        },
        "naturalAttack": {
          "primaryAttack": true,
          "secondary": {
            "attackBonus": "-5",
            "damageMult": 0.5
          }
        },
        "nonlethal": false,
        "usesAmmo": false,
        "spellEffect": "",
        "spellArea": "",
        "conditionals": [],
        "enh": {
          "value": null
        }
      }
    ],
    "uses": {
      "per": "day",
      "maxFormula": "@classes.sorcerer.level >= 19 ? 2 : 1"
    },
    "attackNotes": [],
    "effectNotes": [],
    "changes": [],
    "contextNotes": [],
    "links": {
      "children": [],
      "charges": []
    },
    "tag": "classFeat_arrestTheFlow",
    "useCustomTag": true,
    "armorProf": {
      "value": []
    },
    "weaponProf": {
      "value": []
    },
    "languages": {
      "value": []
    },
    "scriptCalls": [],
    "subType": "classFeat",
    "associations": {
      "classes": [["Sorcerer"]]
    },
    "abilityType": "su"
  }
}
