{
  "_id": "KR6Hhz4S7ZIegQCx",
  "name": "Ascension",
  "type": "feat",
  "img": "systems/pf1/icons/spells/haste-sky-3.jpg",
  "sort": 0,
  "flags": {},
  "system": {
    "description": {
      "value": "<p>At 20th level, you become infused with the power of the heavens. You gain:</p>\n<ul>\n<li>Immunity to acid, cold, and petrification</li>\n<li>Resist electricity 10</li>\n<li>Resist fire 10</li>\n<li>+4 racial bonus on saves against poison</li>\n<li>Unlimited use of the Wings of Heaven ability</li>\n<li>the ability to speak with any creature that has a language (as per the @Compendium[pf1.spells.m1rmcpcaixcpz9ib]{Tongues}&nbsp;spell).</li>\n</ul>"
    },
    "tags": [],
    "actions": [
      {
        "_id": "bg64b2v1i7cxbme8",
        "name": "Use",
        "img": "systems/pf1/icons/spells/haste-sky-3.jpg",
        "description": "",
        "tag": "",
        "activation": {
          "cost": 1,
          "type": "passive"
        },
        "unchainedAction": {
          "activation": {
            "cost": 1,
            "type": "passive"
          }
        },
        "duration": {
          "value": null,
          "units": ""
        },
        "target": {
          "value": ""
        },
        "range": {
          "value": null,
          "units": "",
          "maxIncrements": 1,
          "minValue": null,
          "minUnits": ""
        },
        "uses": {
          "autoDeductChargesCost": "",
          "self": {
            "value": 0,
            "maxFormula": "",
            "per": null
          },
          "per": "",
          "value": 0,
          "maxFormula": ""
        },
        "measureTemplate": {
          "type": "",
          "size": "0",
          "overrideColor": false,
          "customColor": "",
          "overrideTexture": false,
          "customTexture": ""
        },
        "attackName": "",
        "actionType": "",
        "attackBonus": "",
        "critConfirmBonus": "",
        "damage": {
          "parts": [],
          "critParts": [],
          "nonCritParts": []
        },
        "attackParts": [],
        "formulaicAttacks": {
          "count": {
            "formula": ""
          },
          "bonus": {
            "formula": ""
          },
          "label": null
        },
        "formula": "",
        "ability": {
          "attack": null,
          "damage": null,
          "damageMult": 1,
          "critRange": 20,
          "critMult": 2
        },
        "save": {
          "dc": 0,
          "type": "",
          "description": ""
        },
        "effectNotes": [],
        "attackNotes": [],
        "soundEffect": "",
        "powerAttack": {
          "multiplier": "",
          "damageBonus": 2,
          "critMultiplier": 1
        },
        "naturalAttack": {
          "primaryAttack": true,
          "secondary": {
            "attackBonus": "-5",
            "damageMult": 0.5
          }
        },
        "nonlethal": false,
        "usesAmmo": false,
        "spellEffect": "",
        "spellArea": "",
        "conditionals": [],
        "enh": {
          "value": null
        }
      }
    ],
    "uses": {
      "per": ""
    },
    "attackNotes": [],
    "effectNotes": [],
    "changes": [],
    "contextNotes": [],
    "links": {
      "children": [],
      "charges": []
    },
    "tag": "classFeat_ascension",
    "useCustomTag": true,
    "armorProf": {
      "value": []
    },
    "weaponProf": {
      "value": []
    },
    "languages": {
      "value": []
    },
    "scriptCalls": [],
    "subType": "classFeat",
    "associations": {
      "classes": [["Sorcerer"]]
    },
    "abilityType": "su"
  }
}
