{
  "_id": "zw7TnOnAdcXGjbck",
  "name": "Bear Aspect",
  "type": "feat",
  "img": "systems/pf1/icons/skills/blue_29.jpg",
  "sort": 0,
  "flags": {},
  "system": {
    "description": {
      "value": "<p><em>The aspect of the bear invokes a juggernaut of tireless endurance and furious power. Those who take this aspect are known for surviving severe wounds and delivering punishing blows in return.</em><br><br><strong>Minor Form: </strong>You gain a +2 enhancement bonus to your Constitution score.</p>\n<p>At 8th level, the bonus increases to +4, and at 15th level it increases to +6.<br><br><strong>Major Form:</strong> Your shape changes to that of a dire bear (Bestiary&nbsp;31). While in this form, you gain a base speed of 40 feet, low-light vision, scent (30 feet), a bite attack (1d8 damage), and two claw attacks (1d6 damage) with the grab ability.</p>\n<p>At 8th level, you gain Improved Natural Attack (Bestiary&nbsp;315) with your claws.</p>\n<p>At 15th level, the critical multiplier of your claw attack increases by 1 (×2 becomes ×3) to a maximum of ×4, and you gain the Awesome Blow feat (Bestiary&nbsp;314).<br><br><strong>Alternate Natural Attacks: </strong>Bite (B, P, S)</p>"
    },
    "tags": [],
    "actions": [],
    "attackNotes": [],
    "effectNotes": [],
    "changes": [],
    "contextNotes": [],
    "links": {
      "children": [],
      "charges": []
    },
    "tag": "classFeat_bearAspect",
    "useCustomTag": true,
    "armorProf": {
      "value": []
    },
    "weaponProf": {
      "value": []
    },
    "languages": {
      "value": []
    },
    "scriptCalls": [],
    "subType": "classFeat",
    "associations": {
      "classes": [["Shifter"]]
    }
  }
}
