{
  "_id": "EbFE6VM68aZ8jAPK",
  "name": "Beginner's Luck",
  "type": "feat",
  "img": "systems/pf1/icons/skills/light_07.jpg",
  "sort": 0,
  "flags": {},
  "system": {
    "description": {
      "value": "<p>The vigilante appears so harmless and innocent that onlookers dismiss his incredible abilities as nothing more than beginner’s luck. When the vigilante uses a vigilante talent while in his social identity, he can add the +20 circumstance bonus from seamless guise to his Disguise check to fool onlookers, so long as the number of onlookers witnessing him is no greater than his vigilante level. The vigilante’s PC allies do not count as onlookers (and at the GM’s discretion, a closely allied NPC might not count as an onlooker, either). He loses this bonus against onlookers who have already witnessed him using a vigilante talent in his social identity within the last week.</p>"
    },
    "tags": [],
    "actions": [],
    "attackNotes": [],
    "effectNotes": [],
    "changes": [],
    "contextNotes": [],
    "links": {
      "children": [],
      "charges": []
    },
    "tag": "classFeat_beginnersLuck",
    "useCustomTag": true,
    "armorProf": {
      "value": []
    },
    "weaponProf": {
      "value": []
    },
    "languages": {
      "value": []
    },
    "scriptCalls": [],
    "subType": "classFeat",
    "associations": {
      "classes": [["Vigilante"]]
    },
    "abilityType": "ex"
  }
}
