{
  "_id": "0p3L0HtL5ClqZKEi",
  "name": "Blight",
  "type": "feat",
  "img": "systems/pf1/icons/skills/violet_02.jpg",
  "sort": 0,
  "flags": {},
  "system": {
    "description": {
      "value": "<p>The witch can curse an animal, plant creature, or plot of land, causing it to wither and die. Blighting an area takes 1 round, during which time the witch and her familiar must be in contact with the target. If it's used on a plot of land, the land begins to wither the following day, and over the next week all plants in the area die. Nothing will grow in that area so long as the curse persists. A witch can affect an area with a radius equal to her class level × 10 feet. Blighting a creature is a standard action that requires a melee touch attack. If used on a creature of the animal or plant type, the creature gains the following curse:</p>\n<p><em>Blight Hex</em>—type&nbsp;curse;&nbsp;save&nbsp;Will negates;&nbsp;frequency&nbsp;1/day;&nbsp;effect&nbsp;1 Con damage. Both types of curse can be removed with a&nbsp;remove curse&nbsp;or similar magic, using the save DC as the DC to remove the curse. A witch can only have one blight in effect at a time. If another blight hex is made, the first immediately ends.</p>"
    },
    "tags": [],
    "actions": [
      {
        "_id": "cdh8ngzbslaxzs12",
        "name": "Use",
        "img": "systems/pf1/icons/skills/violet_02.jpg",
        "description": "",
        "tag": "",
        "activation": {
          "cost": 1,
          "type": "standard"
        },
        "unchainedAction": {
          "activation": {
            "cost": 2,
            "type": "action"
          }
        },
        "duration": {
          "value": null,
          "units": ""
        },
        "target": {
          "value": "creature touched"
        },
        "range": {
          "value": null,
          "units": "touch",
          "maxIncrements": 1,
          "minValue": null,
          "minUnits": ""
        },
        "uses": {
          "autoDeductChargesCost": "",
          "self": {
            "value": 0,
            "maxFormula": "",
            "per": null
          },
          "per": "",
          "value": 0,
          "maxFormula": ""
        },
        "measureTemplate": {
          "type": "",
          "size": "",
          "overrideColor": false,
          "customColor": "",
          "overrideTexture": false,
          "customTexture": ""
        },
        "attackName": "",
        "actionType": "",
        "attackBonus": "",
        "critConfirmBonus": "",
        "damage": {
          "parts": [],
          "critParts": [],
          "nonCritParts": []
        },
        "attackParts": [],
        "formulaicAttacks": {
          "count": {
            "formula": ""
          },
          "bonus": {
            "formula": ""
          },
          "label": null
        },
        "formula": "",
        "ability": {
          "attack": null,
          "damage": null,
          "damageMult": 1,
          "critRange": 20,
          "critMult": 2
        },
        "save": {
          "dc": 0,
          "type": "",
          "description": ""
        },
        "effectNotes": [],
        "attackNotes": [],
        "soundEffect": "",
        "powerAttack": {
          "multiplier": "",
          "damageBonus": 2,
          "critMultiplier": 1
        },
        "naturalAttack": {
          "primaryAttack": true,
          "secondary": {
            "attackBonus": "-5",
            "damageMult": 0.5
          }
        },
        "nonlethal": false,
        "usesAmmo": false,
        "spellEffect": "",
        "spellArea": "",
        "conditionals": [],
        "enh": {
          "value": null
        }
      }
    ],
    "uses": {
      "per": ""
    },
    "attackNotes": [],
    "effectNotes": [],
    "changes": [],
    "contextNotes": [],
    "links": {
      "children": [],
      "charges": []
    },
    "tag": "classFeat_blight",
    "useCustomTag": true,
    "armorProf": {
      "value": []
    },
    "weaponProf": {
      "value": []
    },
    "languages": {
      "value": []
    },
    "scriptCalls": [],
    "subType": "classFeat",
    "associations": {
      "classes": [["Witch"]]
    },
    "abilityType": "su"
  }
}
