{
  "_id": "yiRHYNThaNWySIrt",
  "name": "Boreal Bloodline",
  "type": "feat",
  "img": "systems/pf1/icons/skills/ice_05.jpg",
  "sort": 0,
  "flags": {},
  "system": {
    "description": {
      "value": "<p><em>Descended from inhabitants of the lands of ice and snow, you count among your ancestors giant-kin, troll-born, and frost-rimed spirits. Their savage and raw energies flow down through generations to infuse you to the marrow with the chill of the polar wind, crackling auroras, and the long winter’s night.</em></p>\n<p><strong>Class Skill:</strong>&nbsp;<em>Survival</em>.</p>\n<p><strong>Bonus Spells:</strong></p>\n<ul>\n<li>@Compendium[pf1.spells.jnlr9cuepka1l26e]{Enlarge Person}&nbsp;(3rd),</li>\n<li>@Compendium[pf1.spells.8u1xa5javcxc6szk]{Rage}&nbsp;(5th),</li>\n<li>@Compendium[pf1.spells.q35l6m4pggb4y98v]{Elemental Aura}&nbsp;(cold only) (7th),</li>\n<li>@Compendium[pf1.spells.ijui94bv4uzu8awb]{Wall Of Ice}&nbsp;(9th),</li>\n<li>@Compendium[pf1.spells.pkm8um5t1cxsn6jh]{Cone of Cold} (11th),</li>\n<li>@Compendium[pf1.spells.9pbl3ktd5oqejl19]{Transformation} (13th),</li>\n<li>@Compendium[pf1.spells.61uvtd18e9s6zku3]{Giant Form I}&nbsp;(15th),</li>\n<li>@Compendium[pf1.spells.8jq1atxonnerix55]{Polar Ray}&nbsp;(17th),</li>\n<li>@Compendium[pf1.spells.xhzme0v6tjq95fg6]{Meteor Swarm}&nbsp;(dealing cold damage) (19th).</li>\n</ul>\n<p><strong>Bonus Feats:</strong></p>\n<ul>\n<li>@Compendium[pf1.feats.QvlxYVVsBDlykPKe]{Arcane Strike},</li>\n<li>@Compendium[pf1.feats.O0e0UCim27GPKFuW]{Diehard},</li>\n<li>@Compendium[pf1.feats.77gXSucrxfrE9yWk]{Empower Spell},</li>\n<li>@Compendium[pf1.feats.ehqx8txNRGMaNOPt]{Endurance},</li>\n<li>@Compendium[pf1.feats.BJBC4lbo7xGWPsKJ]{Exotic Weapon Proficiency},</li>\n<li>@Compendium[pf1.feats.FUW5mIXHNBBIQ1Sq]{Power Attack},</li>\n<li>@Compendium[pf1.feats.7zJTztNW7hdaqjKc]{Skill Focus}&nbsp;(<em>Intimidate</em>),</li>\n<li>@Compendium[pf1.feats.8snLqsJN4LLL00Nq]{Toughness}.</li>\n</ul>\n<p><a name=\"TOC-Bloodline-Arcana\"></a><strong>Bloodline Arcana:</strong> Whenever you cast a spell with the cold descriptor, increase the spell’s save DC by 1.</p>"
    },
    "tags": [],
    "actions": [],
    "attackNotes": [],
    "effectNotes": [],
    "changes": [],
    "contextNotes": [],
    "links": {
      "children": [],
      "charges": []
    },
    "tag": "classFeat_borealBloodline",
    "useCustomTag": true,
    "armorProf": {
      "value": []
    },
    "weaponProf": {
      "value": []
    },
    "languages": {
      "value": []
    },
    "scriptCalls": [],
    "subType": "classFeat",
    "associations": {
      "classes": [["Sorcerer"]]
    }
  }
}
