{
  "_id": "PNvnSiZJ5h4gI1mw",
  "name": "Boundaries Patron",
  "type": "feat",
  "img": "systems/pf1/icons/feats/improved-familiar.jpg",
  "sort": 0,
  "flags": {},
  "system": {
    "description": {
      "value": "<ul>\n<li>2nd — @Compendium[pf1.spells.skgjjub1hng29nwo]{Protection From Evil}</li>\n<li>4th — @Compendium[pf1.spells.nokru6mxk9p3r513]{See Invisibility}</li>\n<li>6th — @Compendium[pf1.spells.1i8b1v3dngkxj6jp]{Magic Circle against Evil}</li>\n<li>8th — @Compendium[pf1.spells.0vmz2klcfvkc3h0v]{Dimensional Anchor}</li>\n<li>10th — @Compendium[pf1.spells.lqbbvb9w0rby8hse]{Control Summoned Creature}</li>\n<li>12th — @Compendium[pf1.spells.trl849bibbe760xo]{Banishment}</li>\n<li>14th — @Compendium[pf1.spells.btccs4sjo2nog1a0]{Ethereal Jaunt}</li>\n<li>16th — @Compendium[pf1.spells.ef75tkrzjuotgra2]{Dimensional Lock}</li>\n<li>18th — @Compendium[pf1.spells.ursm11405zobemi3]{Gate}</li>\n</ul>"
    },
    "tags": [],
    "actions": [],
    "attackNotes": [],
    "effectNotes": [],
    "changes": [],
    "contextNotes": [],
    "links": {
      "children": [],
      "charges": []
    },
    "tag": "classFeat_boundariesPatron",
    "useCustomTag": true,
    "armorProf": {
      "value": []
    },
    "weaponProf": {
      "value": []
    },
    "languages": {
      "value": []
    },
    "scriptCalls": [],
    "subType": "classFeat",
    "associations": {
      "classes": [["Witch"]]
    }
  }
}
