{
  "_id": "1UaKOr0pJtiV6wle",
  "name": "Command the Meek",
  "type": "feat",
  "img": "systems/pf1/icons/items/inventory/banner-red.jpg",
  "sort": 0,
  "flags": {},
  "system": {
    "description": {
      "value": "<p>At 8th level, the cavalier treats all of her allies with the shaken condition as though they had the same teamwork feats as the cavalier for the purpose of determining whether the cavalier receives a bonus from her teamwork feats. Her allies do not receive any bonuses from these feats unless they actually have the feats themselves. The allies’ positioning and actions must still meet the prerequisites listed in the teamwork feat for the cavalier to receive the listed bonus. When the cavalier uses tactician, greater tactician, or mighty tactician, the duration doubles for any creatures that have no more than half the cavalier’s Hit Dice or that have the shaken condition when she activates the ability.</p>"
    },
    "tags": [],
    "actions": [],
    "attackNotes": [],
    "effectNotes": [],
    "changes": [],
    "contextNotes": [],
    "links": {
      "children": [],
      "charges": []
    },
    "tag": "classFeat_commandTheMeek",
    "useCustomTag": true,
    "armorProf": {
      "value": []
    },
    "weaponProf": {
      "value": []
    },
    "languages": {
      "value": []
    },
    "scriptCalls": [],
    "subType": "classFeat",
    "associations": {
      "classes": [["Cavalier"]]
    },
    "abilityType": "ex"
  }
}
