{
  "_id": "HW0ddoaMHSRjyewo",
  "name": "Draconic Bloodline",
  "type": "feat",
  "img": "systems/pf1/icons/races/creature-types/dragon.png",
  "sort": 0,
  "flags": {},
  "system": {
    "description": {
      "value": "<p><em>At some point in your family’s history, a dragon interbred with your bloodline, and now its ancient power flows through your veins.</em></p>\n<p><strong>Class Skill:</strong>&nbsp;<em>Perception</em>.</p>\n<p><strong>Bonus Spells:</strong></p>\n<ul>\n<li>@Compendium[pf1.spells.ucc0a31d1y86oleh]{Mage Armor}&nbsp;(3rd),</li>\n<li>@Compendium[pf1.spells.tkjnm3lw7ni82tag]{Resist Energy}&nbsp;(5th),</li>\n<li>@Compendium[pf1.spells.7d6sv5ecvi7kho3m]{Fly}&nbsp;(7th),</li>\n<li>@Compendium[pf1.spells.be88e90guqbi1q1z]{Fear}&nbsp;(9th),</li>\n<li>@Compendium[pf1.spells.4k9bh8ny1il2oner]{Spell Resistance}&nbsp;(11th),</li>\n<li>@Compendium[pf1.spells.iqcjiyi9leldfzxt]{Form of the Dragon I}&nbsp;(13th),</li>\n<li>@Compendium[pf1.spells.5icj4nasrlgqojqm]{Form of the Dragon II} (15th),</li>\n<li>@Compendium[pf1.spells.6qpg42rj70oi4css]{Form of the Dragon III} (17th),</li>\n<li>@Compendium[pf1.spells.nnj51dwfkwd15ngj]{Wish}&nbsp;(19th).</li>\n</ul>\n<p><strong>Bonus Feats:</strong></p>\n<ul>\n<li>@Compendium[pf1.feats.pmAO1Sni8xx71pLF]{Blind-Fight},</li>\n<li>@Compendium[pf1.feats.fVRnBIHR4Jq6btvm]{Great Fortitude},</li>\n<li>@Compendium[pf1.feats.Uuiu3p982omhMEPj]{Improved Initiative},</li>\n<li>@Compendium[pf1.feats.FUW5mIXHNBBIQ1Sq]{Power Attack},</li>\n<li>@Compendium[pf1.feats.wFoLrh5FeeqBXsQ8]{Quicken Spell},</li>\n<li>@Compendium[pf1.feats.7zJTztNW7hdaqjKc]{Skill Focus}&nbsp;(<em>Fly</em>),</li>\n<li>@Compendium[pf1.feats.7zJTztNW7hdaqjKc]{Skill Focus}&nbsp;(<em>Knowledge</em>&nbsp;[arcana]),</li>\n<li>@Compendium[pf1.feats.8snLqsJN4LLL00Nq]{Toughness}.</li>\n</ul>\n<p><strong>Bloodline Arcana:</strong> Whenever you cast a spell with an energy descriptor that matches your draconic bloodline’s energy type, that spell deals +1 point of damage per die rolled.</p>"
    },
    "tags": [],
    "actions": [],
    "attackNotes": [],
    "effectNotes": [],
    "changes": [],
    "contextNotes": [],
    "links": {
      "children": [],
      "charges": []
    },
    "tag": "classFeat_draconicBloodline",
    "useCustomTag": true,
    "armorProf": {
      "value": []
    },
    "weaponProf": {
      "value": []
    },
    "languages": {
      "value": []
    },
    "scriptCalls": [],
    "subType": "classFeat",
    "associations": {
      "classes": [["Sorcerer"]]
    }
  }
}
