{
  "_id": "uQWu1Ue6jXNs2uME",
  "name": "Elemental Bloodrager Bloodline",
  "type": "feat",
  "img": "systems/pf1/icons/skills/red_13.jpg",
  "sort": 0,
  "flags": {},
  "system": {
    "description": {
      "value": "<p><em>The power of the elements resides in you, and at times you can hardly control its fury. This influence comes either from an elemental outsider in your family history or from a moment when you or your ancestors were exposed to a powerful elemental force or cataclysm.</em><br><br><strong>Bonus Feats:</strong></p>\n<ul>\n<li>@Compendium[pf1.feats.Zeq6RWYv5otvg8q7]{Cleave}</li>\n<li>@Compendium[pf1.feats.JreaiTHdyWFNj3Tb]{Dodge}</li>\n<li>@Compendium[pf1.feats.fVRnBIHR4Jq6btvm]{Great Fortitude}</li>\n<li>@Compendium[pf1.feats.Uuiu3p982omhMEPj]{Improved Initiative}</li>\n<li>@Compendium[pf1.feats.0bZf3SDkvVOe2ujH]{Lightning Reflexes}</li>\n<li>@Compendium[pf1.feats.FUW5mIXHNBBIQ1Sq]{Power Attack}</li>\n<li>@Compendium[pf1.feats.n250dFlbykAIAg5Z]{Weapon Focus}</li>\n</ul>\n<p><strong>Bonus Spells:&nbsp;</strong></p>\n<ul>\n<li>@Compendium[pf1.spells.lndeaqm2j2nvgm6p]{Burning Hands}* (7th),&nbsp;</li>\n<li>@Compendium[pf1.spells.q4ixxjb4v281g2xv]{Scorching Ray}* (10th),&nbsp;</li>\n<li>@Compendium[pf1.spells.1vh2ewwvzvxunoxk]{Protection from Energy} (13th),&nbsp;</li>\n<li>@Compendium[pf1.spells.pawbnw1nm4f0b98e]{Elemental Body I}&nbsp;(16th)</li>\n</ul>\n<p>Spells marked with an asterisk [*] always deal a type of energy damage determined by your element, regardless of the spell’s normal effects. In addition, the subtype of these spells changes to match the energy type of your element.</p>\n<p>At first level, you must select an element: air, earth, fire, or water. Once chosen, this cannot be changed. A number of your abilities deal damage and grant resistances based on your element, as noted below.</p>\n<hr>\n<table class=\"inner\" style=\"border-color: white; color: #ffffff; font-family: 'Century Gothic', CenturyGothic, AppleGothic, sans-serif; font-size: 15px; background-color: #0f0f0f;\">\n<tbody style=\"margin-top: 0px;\">\n<tr style=\"margin-top: 0px;\">\n<td style=\"margin: 0px; border: 1px solid white; padding: 1px 5px; text-align: center;\"><strong style=\"margin-top: 0px;\">Element</strong></td>\n<td style=\"border: 1px solid white; padding: 1px 5px; margin: 0px; text-align: center;\"><strong style=\"margin-top: 0px;\">Energy Type</strong></td>\n<td style=\"border: 1px solid white; padding: 1px 5px; margin: 0px; text-align: center;\"><strong style=\"margin-top: 0px;\">Elemental Movement</strong></td>\n</tr>\n<tr style=\"background: #3e3e3e;\">\n<td style=\"margin: 0px; border: 1px solid white; padding: 1px 5px; text-align: center;\">Air</td>\n<td style=\"border: 1px solid white; padding: 1px 5px; margin: 0px; text-align: center;\">Electricity</td>\n<td style=\"border: 1px solid white; padding: 1px 5px; margin: 0px; text-align: center;\">Fly 60 feet (good)</td>\n</tr>\n<tr>\n<td style=\"margin: 0px; border: 1px solid white; padding: 1px 5px; text-align: center;\">Earth</td>\n<td style=\"border: 1px solid white; padding: 1px 5px; margin: 0px; text-align: center;\">Acid</td>\n<td style=\"border: 1px solid white; padding: 1px 5px; margin: 0px; text-align: center;\">Burrow 30 feet</td>\n</tr>\n<tr style=\"background: #3e3e3e;\">\n<td style=\"margin: 0px; border: 1px solid white; padding: 1px 5px; text-align: center;\">Fire</td>\n<td style=\"border: 1px solid white; padding: 1px 5px; margin: 0px; text-align: center;\">Fire</td>\n<td style=\"border: 1px solid white; padding: 1px 5px; margin: 0px; text-align: center;\">+30 feet base land speed</td>\n</tr>\n<tr>\n<td style=\"margin: 0px; border: 1px solid white; padding: 1px 5px; text-align: center;\">Water</td>\n<td style=\"border: 1px solid white; padding: 1px 5px; margin: 0px; text-align: center;\">Cold</td>\n<td style=\"border: 1px solid white; padding: 1px 5px; margin: 0px; text-align: center;\">Swim 60 feet</td>\n</tr>\n</tbody>\n</table>"
    },
    "tags": [],
    "actions": [],
    "attackNotes": [],
    "effectNotes": [],
    "changes": [],
    "contextNotes": [],
    "links": {
      "children": [],
      "charges": []
    },
    "tag": "classFeat_elementalBloodragerBloodline",
    "useCustomTag": true,
    "armorProf": {
      "value": []
    },
    "weaponProf": {
      "value": []
    },
    "languages": {
      "value": []
    },
    "scriptCalls": [],
    "subType": "classFeat",
    "associations": {
      "classes": [["Bloodrager"]]
    }
  }
}
