{
  "_id": "UvTI5Xle83obdL5O",
  "name": "Feign Innocence",
  "type": "feat",
  "img": "systems/pf1/icons/skills/light_07.jpg",
  "sort": 0,
  "flags": {},
  "system": {
    "description": {
      "value": "<p>The vigilante’s social identity seems so innocent that it is hard to believe he was involved in wrongdoing. Within his area of renown, this provides a nonmagical effect identical to the @Compendium[pf1.spells.4w51afqi5d9t8nl4]{Innocence}&nbsp;spell.</p>\n<p>A vigilante must be at least 5th level and have the renown social talent to take this talent.</p>"
    },
    "tags": [],
    "actions": [],
    "attackNotes": [],
    "effectNotes": [],
    "changes": [],
    "contextNotes": [],
    "links": {
      "children": [],
      "charges": []
    },
    "tag": "classFeat_feignInnocence",
    "useCustomTag": true,
    "armorProf": {
      "value": []
    },
    "weaponProf": {
      "value": []
    },
    "languages": {
      "value": []
    },
    "scriptCalls": [],
    "subType": "classFeat",
    "associations": {
      "classes": [["Vigilante"]]
    },
    "abilityType": "ex"
  }
}
