{
  "_id": "uRByMtaIgLj4Wy7Y",
  "name": "Furious Barrage",
  "type": "feat",
  "img": "systems/pf1/icons/feats/deafening-critical.jpg",
  "sort": 0,
  "flags": {},
  "system": {
    "description": {
      "value": "<p>The barbarian is treated as having the @Compendium[pf1.feats.NABgOSBRECIREaha]{Rapid Shot}&nbsp;feat, but only for the purpose of attacking with thrown weapons. She need not meet the feat’s prerequisites.</p>\n<p>A barbarian must be at least 4th level and must have the furious draw rage power before selecting this power.</p>"
    },
    "tags": [],
    "actions": [],
    "attackNotes": [],
    "effectNotes": [],
    "changes": [],
    "contextNotes": [],
    "links": {
      "children": [],
      "charges": []
    },
    "tag": "classFeat_furiousBarrage",
    "useCustomTag": true,
    "armorProf": {
      "value": []
    },
    "weaponProf": {
      "value": []
    },
    "languages": {
      "value": []
    },
    "scriptCalls": [],
    "subType": "classFeat",
    "associations": {
      "classes": [["Barbarian"], ["Skald"]]
    },
    "abilityType": "ex"
  }
}
