{
  "_id": "N4xwClqd600NaeDb",
  "name": "Greater Divine Inks",
  "type": "feat",
  "img": "systems/pf1/icons/items/potions/unique-3.jpg",
  "sort": 0,
  "flags": {},
  "system": {
    "description": {
      "value": "<p>The alchemist’s unique dyes allow him to create lifelike images. If he expends an additional daily use of his bombs, the image he creates with the divine inks discovery also produces sound, smell, and heat, as @Compendium[pf1.spells.7rx66m98dwo18fy8]{Major Image}.</p>\n<p>The alchemist must be at least 6th level and must have the divine inks and improved divine inks discoveries before selecting this discovery.</p>"
    },
    "tags": [],
    "actions": [],
    "attackNotes": [],
    "effectNotes": [],
    "changes": [],
    "contextNotes": [],
    "links": {
      "children": [],
      "charges": []
    },
    "tag": "classFeat_greaterDivineInks",
    "useCustomTag": true,
    "armorProf": {
      "value": []
    },
    "weaponProf": {
      "value": []
    },
    "languages": {
      "value": []
    },
    "scriptCalls": [],
    "subType": "classFeat",
    "associations": {
      "classes": [["Alchemist"]]
    }
  }
}
