{
  "_id": "DrHYoTN8Lvpd35uT",
  "name": "Greater Constructive Dyes",
  "type": "feat",
  "img": "systems/pf1/icons/items/potions/unique-3.jpg",
  "sort": 0,
  "flags": {},
  "system": {
    "description": {
      "value": "<p>The alchemist expands the set of objects he can create with his constructive dyes. The alchemist can expend one additional use of his daily bombs when using his constructive dyes discovery to create objects, as @Compendium[pf1.spells.b8lt1275mz4ez4d8]{Major Creation}.</p>\n<p>The alchemist must be at least 10th level and have the constructive dyes and divine inks discoveries before selecting this discovery.</p>"
    },
    "tags": [],
    "actions": [],
    "attackNotes": [],
    "effectNotes": [],
    "changes": [],
    "contextNotes": [],
    "links": {
      "children": [],
      "charges": []
    },
    "tag": "classFeat_greaterConstructiveDyes",
    "useCustomTag": true,
    "armorProf": {
      "value": []
    },
    "weaponProf": {
      "value": []
    },
    "languages": {
      "value": []
    },
    "scriptCalls": [],
    "subType": "classFeat",
    "associations": {
      "classes": [["Alchemist"]]
    }
  }
}
