{
  "_id": "wQzDpnuEOloBB7ZH",
  "name": "Greater Rage (UC)",
  "type": "feat",
  "img": "systems/pf1/icons/feats/extra-rage.jpg",
  "sort": 0,
  "flags": {},
  "system": {
    "description": {
      "value": "<p>At 11th level, a barbarian’s bonus on melee attack rolls, melee damage rolls, thrown weapon damage rolls, and Will saves while raging increases to +3. In addition, the amount of temporary hit points gained when entering a rage increases to 3 per Hit Die.</p>"
    },
    "tags": [],
    "actions": [],
    "attackNotes": [],
    "effectNotes": [],
    "changes": [],
    "contextNotes": [],
    "links": {
      "children": [],
      "charges": []
    },
    "tag": "classFeat_greaterRageUc",
    "useCustomTag": true,
    "armorProf": {
      "value": []
    },
    "weaponProf": {
      "value": []
    },
    "languages": {
      "value": []
    },
    "scriptCalls": [],
    "subType": "classFeat",
    "associations": {
      "classes": [["Barbarian (Unchained)"]]
    },
    "abilityType": "ex"
  }
}
