{
  "_id": "tPYmbs5ChEojyPSe",
  "name": "Ice Subdomain",
  "type": "feat",
  "img": "systems/pf1/icons/skills/blue_24.jpg",
  "sort": 0,
  "flags": {},
  "system": {
    "description": {
      "value": "<p><strong>Replacement Domain Spells:</strong></p>\n<ul>\n<li>7th—@Compendium[pf1.spells.ol05jfb606v0lzj9]{Freezing Sphere}</li>\n<li>9th—@Compendium[pf1.spells.8jq1atxonnerix55]{Polar Ray}</li>\n</ul>"
    },
    "tags": [],
    "actions": [],
    "attackNotes": [],
    "effectNotes": [],
    "changes": [],
    "contextNotes": [],
    "links": {
      "children": [],
      "charges": []
    },
    "tag": "classFeat_iceSubdomain",
    "useCustomTag": true,
    "armorProf": {
      "value": []
    },
    "weaponProf": {
      "value": []
    },
    "languages": {
      "value": []
    },
    "scriptCalls": [],
    "subType": "classFeat",
    "associations": {
      "classes": [["Cleric"]]
    }
  }
}
