{
  "_id": "mKu7cXOlntB043QS",
  "name": "Imagination Subdomain",
  "type": "feat",
  "img": "systems/pf1/icons/spells/leaf-jade-1.jpg",
  "sort": 0,
  "flags": {},
  "system": {
    "description": {
      "value": "<p><strong>Replacement Domain Spells:</strong></p>\n<ul>\n<li>1st—@Compendium[pf1.spells.kq916lznxo0ig68v]{Silent Image}</li>\n<li>2nd—@Compendium[pf1.spells.27o3msobhyghmfid]{Minor Image}</li>\n<li>3rd—@Compendium[pf1.spells.7rx66m98dwo18fy8]{Major Image}</li>\n<li>5th—@Compendium[pf1.spells.ifcnx1yyw6e7ousm]{Dream}</li>\n</ul>"
    },
    "tags": [],
    "actions": [],
    "attackNotes": [],
    "effectNotes": [],
    "changes": [],
    "contextNotes": [],
    "links": {
      "children": [],
      "charges": []
    },
    "tag": "classFeat_imaginationSubdomain",
    "useCustomTag": true,
    "armorProf": {
      "value": []
    },
    "weaponProf": {
      "value": []
    },
    "languages": {
      "value": []
    },
    "scriptCalls": [],
    "subType": "classFeat",
    "associations": {
      "classes": [["Cleric"]]
    }
  }
}
