{
  "_id": "ZfnHhhTFQVo0Lj4P",
  "name": "Improved Uncanny Dodge",
  "type": "feat",
  "img": "systems/pf1/icons/feats/wind-stance.jpg",
  "sort": 0,
  "flags": {},
  "system": {
    "description": {
      "value": "<p>This character can no longer be flanked. This defense denies a rogue the ability to sneak attack the character by flanking her, unless the attacker has at least four more rogue levels than the target has class levels.</p>\n<p>If a character already has&nbsp;<em>uncanny dodge</em>&nbsp;(see above) from another class, the levels from the classes that grant&nbsp;<em>uncanny dodge</em>&nbsp;stack to determine the minimum rogue level required to flank the character.</p>"
    },
    "tags": [],
    "actions": [
      {
        "_id": "62oxegxcf5hd54nq",
        "name": "Use",
        "img": "systems/pf1/icons/feats/wind-stance.jpg",
        "description": "",
        "tag": "",
        "activation": {
          "cost": 1,
          "type": "passive"
        },
        "unchainedAction": {
          "activation": {
            "cost": 1,
            "type": "passive"
          }
        },
        "duration": {
          "value": null,
          "units": ""
        },
        "target": {
          "value": ""
        },
        "range": {
          "value": null,
          "units": "",
          "maxIncrements": 1,
          "minValue": null,
          "minUnits": ""
        },
        "uses": {
          "autoDeductChargesCost": "",
          "self": {
            "value": 0,
            "maxFormula": "",
            "per": null
          },
          "per": "",
          "value": 0,
          "maxFormula": ""
        },
        "measureTemplate": {
          "type": "",
          "size": "0",
          "overrideColor": false,
          "customColor": "",
          "overrideTexture": false,
          "customTexture": ""
        },
        "attackName": "",
        "actionType": "",
        "attackBonus": "",
        "critConfirmBonus": "",
        "damage": {
          "parts": [],
          "critParts": [],
          "nonCritParts": []
        },
        "attackParts": [],
        "formulaicAttacks": {
          "count": {
            "formula": ""
          },
          "bonus": {
            "formula": ""
          },
          "label": null
        },
        "formula": "",
        "ability": {
          "attack": null,
          "damage": null,
          "damageMult": 1,
          "critRange": 20,
          "critMult": 2
        },
        "save": {
          "dc": 0,
          "type": "",
          "description": ""
        },
        "effectNotes": [],
        "attackNotes": [],
        "soundEffect": "",
        "powerAttack": {
          "multiplier": "",
          "damageBonus": 2,
          "critMultiplier": 1
        },
        "naturalAttack": {
          "primaryAttack": true,
          "secondary": {
            "attackBonus": "-5",
            "damageMult": 0.5
          }
        },
        "nonlethal": false,
        "usesAmmo": false,
        "spellEffect": "",
        "spellArea": "",
        "conditionals": [],
        "enh": {
          "value": null
        }
      }
    ],
    "uses": {
      "per": ""
    },
    "attackNotes": [],
    "effectNotes": [],
    "changes": [],
    "contextNotes": [
      {
        "subTarget": "ac",
        "target": "misc",
        "text": "Cannot be flanked"
      }
    ],
    "links": {
      "children": [],
      "charges": []
    },
    "tag": "classFeat_improvedUncannyDodge",
    "useCustomTag": true,
    "armorProf": {
      "value": []
    },
    "weaponProf": {
      "value": []
    },
    "languages": {
      "value": []
    },
    "scriptCalls": [],
    "subType": "classFeat",
    "associations": {
      "classes": [["Barbarian"]]
    },
    "abilityType": "ex"
  }
}
