{
  "_id": "1HQUUhQhowqKfmCA",
  "name": "Inspired Rage",
  "type": "feat",
  "img": "systems/pf1/icons/skills/yellow_17.jpg",
  "sort": 0,
  "flags": {},
  "system": {
    "description": {
      "value": "<p>At 1st level, affected allies gain a +2 morale bonus to Strength and Constitution and a +1 morale bonus on Will saving throws, but also take a –1 penalty to AC. While under the effects of inspired rage, allies other than the skald cannot use any Charisma-, Dexterity-, or Intelligence-based skills (except Acrobatics, Fly, Intimidate, and Ride) or any ability that requires patience or concentration. At 4th level and every 4 levels thereafter, the song’s bonuses on Will saves increase by 1; the penalty to AC doesn’t change. At 8th and 16th levels, the song’s bonuses to Strength and Constitution increase by 2. (Unlike the barbarian’s rage ability, those affected are not fatigued after the song ends.)<br><br>If an ally has her own rage class ability (such as barbarian’s rage, bloodrager’s bloodrage, or skald’s inspired rage), she may use the Strength, Constitution, and Will saving throw bonuses, as well as AC penalties, based on her own ability and level instead of those from the skald (still suffering no fatigue afterward). However, inspired rage does not allow the ally to activate abilities dependent on other rage class abilities, such as rage powers, blood casting, or bloodrager bloodlines; the ally must activate her own rage class ability in order to use these features.</p>"
    },
    "tags": [],
    "actions": [
      {
        "_id": "gubwxwcrwz5ixjuz",
        "name": "Use",
        "img": "systems/pf1/icons/skills/yellow_17.jpg",
        "description": "",
        "tag": "",
        "activation": {
          "cost": 1,
          "type": "special"
        },
        "unchainedAction": {
          "activation": {
            "cost": 1,
            "type": "special"
          }
        },
        "duration": {
          "value": null,
          "units": ""
        },
        "target": {
          "value": ""
        },
        "range": {
          "value": null,
          "units": "",
          "maxIncrements": 1,
          "minValue": null,
          "minUnits": ""
        },
        "uses": {
          "autoDeductChargesCost": "",
          "self": {
            "value": 0,
            "maxFormula": "",
            "per": null
          },
          "per": "",
          "value": 0,
          "maxFormula": ""
        },
        "measureTemplate": {
          "type": "",
          "size": "",
          "overrideColor": false,
          "customColor": "",
          "overrideTexture": false,
          "customTexture": ""
        },
        "attackName": "",
        "actionType": "",
        "attackBonus": "",
        "critConfirmBonus": "",
        "damage": {
          "parts": [],
          "critParts": [],
          "nonCritParts": []
        },
        "attackParts": [],
        "formulaicAttacks": {
          "count": {
            "formula": ""
          },
          "bonus": {
            "formula": ""
          },
          "label": null
        },
        "formula": "",
        "ability": {
          "attack": null,
          "damage": null,
          "damageMult": 1,
          "critRange": 20,
          "critMult": 2
        },
        "save": {
          "dc": 0,
          "type": "",
          "description": ""
        },
        "effectNotes": [],
        "attackNotes": [],
        "soundEffect": "",
        "powerAttack": {
          "multiplier": "",
          "damageBonus": 2,
          "critMultiplier": 1
        },
        "naturalAttack": {
          "primaryAttack": true,
          "secondary": {
            "attackBonus": "-5",
            "damageMult": 0.5
          }
        },
        "nonlethal": false,
        "usesAmmo": false,
        "spellEffect": "",
        "spellArea": "",
        "conditionals": [],
        "enh": {
          "value": null
        }
      }
    ],
    "uses": {
      "per": ""
    },
    "attackNotes": [],
    "effectNotes": [],
    "changes": [],
    "contextNotes": [],
    "links": {
      "children": [],
      "charges": []
    },
    "tag": "classFeat_inspiredRage",
    "useCustomTag": true,
    "armorProf": {
      "value": []
    },
    "weaponProf": {
      "value": []
    },
    "languages": {
      "value": []
    },
    "scriptCalls": [],
    "subType": "classFeat",
    "associations": {
      "classes": [["Skald"]]
    },
    "abilityType": "su"
  }
}
