{
  "_id": "gIesygL1nL45vr0C",
  "name": "Intense Focus (OCC)",
  "type": "feat",
  "img": "systems/pf1/icons/items/weapons/lantern-staff.png",
  "sort": 0,
  "flags": {},
  "system": {
    "description": {
      "value": "<p>The implement channels and enhances the effects of damaging evocations. A spellcaster who bears the implement can add the implement as an additional focus component for any of his damaging evocation spells that have an instantaneous duration or focus powers with an instantaneous duration. If he does so, the spell or focus power deals 1 additional point of damage of the same type to each creature for every 2 points of mental focus invested in the implement, to a maximum of 1 + 1 for every 2 occultist levels you possess.</p>"
    },
    "tags": [],
    "actions": [],
    "attackNotes": [],
    "effectNotes": [],
    "changes": [],
    "contextNotes": [],
    "links": {
      "children": [],
      "charges": []
    },
    "tag": "classFeat_intenseFocusOcc",
    "useCustomTag": true,
    "armorProf": {
      "value": []
    },
    "weaponProf": {
      "value": []
    },
    "languages": {
      "value": []
    },
    "scriptCalls": [],
    "subType": "classFeat",
    "associations": {
      "classes": [["Occultist"]]
    },
    "abilityType": "su"
  }
}
