{
  "_id": "BSKuZmqXxinAFOiT",
  "name": "Kami Warden",
  "type": "feat",
  "img": "systems/pf1/icons/items/weapons/kunai.png",
  "sort": 0,
  "flags": {},
  "system": {
    "description": {
      "value": "<p>Ninjas can act as bodyguards as well as assassins or spies; some mystically emulate the relationship between&nbsp;<a href=\"https://www.aonprd.com/MonsterFamilies.aspx?ItemName=Kami\">kami</a>&nbsp;and their wards when protecting their charges. A ninja with this trick gains&nbsp;<a href=\"https://www.aonprd.com/FeatDisplay.aspx?ItemName=Bodyguard\">Bodyguard</a>&nbsp;and&nbsp;as bonus feats, ignoring their prerequisites. When using In Harm’s Way to intercept an attack, the ninja can spend 1 ki point to gains DR 10/cold iron and resistance 10 to acid, electricity, and fire for that attack.</p>"
    },
    "tags": [],
    "actions": [],
    "attackNotes": [],
    "effectNotes": [],
    "changes": [],
    "contextNotes": [],
    "links": {
      "children": [],
      "charges": []
    },
    "tag": "classFeat_kamiWarden",
    "useCustomTag": true,
    "armorProf": {
      "value": []
    },
    "weaponProf": {
      "value": []
    },
    "languages": {
      "value": []
    },
    "scriptCalls": [],
    "subType": "classFeat",
    "associations": {
      "classes": [["Ninja"]]
    },
    "abilityType": "su"
  }
}
