{
  "_id": "qs6igzxCTQjadGF5",
  "name": "Kinetic Awe",
  "type": "feat",
  "img": "systems/pf1/icons/spells/runes-blue-1.jpg",
  "sort": 0,
  "flags": {},
  "system": {
    "description": {
      "value": "<p><strong>Element&nbsp;</strong>universal;&nbsp;<strong>Type&nbsp;</strong>utility (Su);&nbsp;<strong>Level&nbsp;</strong>1;&nbsp;<strong>Burn&nbsp;</strong>0</p>\n<p>You create a terrifying display of elemental power. This ability functions as @Compendium[pf1.feats.3cq9YbgcMrAXC76j]{Dazzling Display}, except you can use this ability as a standard action and you add half your kineticist level as a bonus on your Intimidate check if you’ve used gather power during the same round; doing so expends the gathered power. This ability otherwise counts as the @Compendium[pf1.feats.3cq9YbgcMrAXC76j]{Dazzling Display} feat; feats and other effects which affect @Compendium[pf1.feats.3cq9YbgcMrAXC76j]{Dazzling Display} (such as @Compendium[pf1.feats.kn854Ovz0BDA2Dgz]{Shatter Defenses}) apply to it, and it counts as @Compendium[pf1.feats.3cq9YbgcMrAXC76j]{Dazzling Display}&nbsp;for the purpose of meeting combat feat prerequisites.</p>"
    },
    "tags": [],
    "actions": [],
    "attackNotes": [],
    "effectNotes": [],
    "changes": [],
    "contextNotes": [],
    "links": {
      "children": [],
      "charges": []
    },
    "tag": "classFeat_kineticAwe",
    "useCustomTag": true,
    "armorProf": {
      "value": []
    },
    "weaponProf": {
      "value": []
    },
    "languages": {
      "value": []
    },
    "scriptCalls": [],
    "subType": "classFeat",
    "associations": {
      "classes": [["Kineticist"]]
    },
    "abilityType": "su"
  }
}
