{
  "_id": "D6SFoCn0BXLRhvjc",
  "name": "Linnorm Death Curse, Ice",
  "type": "feat",
  "img": "systems/pf1/icons/feats/deafening-critical.jpg",
  "sort": 0,
  "flags": {},
  "system": {
    "description": {
      "value": "<p>The character channels the power of an&nbsp;<a href=\"https://aonprd.com/MonsterDisplay.aspx?ItemName=Ice%20Linnorm\">ice linnorm</a>. The character’s melee attacks deal an additional 1 point of cold damage. If the character is knocked unconscious or killed, the attacker suffers the curse of frost.</p>\n<p>A character must be at least 4th level to select this rage power.&nbsp;Curse of Frost:&nbsp;save&nbsp;Will DC 10 + 1/2 character’s level + character’s Charisma bonus;&nbsp;effect&nbsp;target gains vulnerability to cold.</p>"
    },
    "tags": [],
    "actions": [],
    "attackNotes": [],
    "effectNotes": [],
    "changes": [],
    "contextNotes": [],
    "links": {
      "children": [],
      "charges": []
    },
    "tag": "classFeat_linnormDeathCurseIce",
    "useCustomTag": true,
    "armorProf": {
      "value": []
    },
    "weaponProf": {
      "value": []
    },
    "languages": {
      "value": []
    },
    "scriptCalls": [],
    "subType": "classFeat",
    "associations": {
      "classes": [["Skald"], ["Barbarian"]]
    },
    "abilityType": "su"
  }
}
