{
  "_id": "8zFgXBqHkP1CWAj3",
  "name": "Lore Discipline",
  "type": "feat",
  "img": "systems/pf1/icons/spells/slice-spirit-3.jpg",
  "sort": 0,
  "flags": {},
  "system": {
    "description": {
      "value": "<p>By collecting expert information and reading all sorts of treatises and chapbooks on occult subjects, you learn proper techniques and rituals to empower your mental abilities. Your abilities become stronger through study and science, not instinct.<br><br><strong>Phrenic Pool Ability:</strong> Wisdom<br><br><strong>Bonus Spells:</strong>&nbsp;</p>\n<ul>\n<li>@Compendium[pf1.spells.jcs7ba5depdyitey]{Comprehend Languages} (1st),&nbsp;</li>\n<li>@Compendium[pf1.spells.pyr472hvqn8c8es2]{Hypercognition} (4th),&nbsp;</li>\n<li>@Compendium[pf1.spells.gmgwyjfpeuuc4t4o]{Dispel Magic} (6th),&nbsp;</li>\n<li>@Compendium[pf1.spells.vrzgrnmiz8kmz6di]{Mind Probe} (8th),&nbsp;</li>\n<li>@Compendium[pf1.spells.nv20ki8uteao1vqv]{Retrocognition} (10th),&nbsp;</li>\n<li>@Compendium[pf1.spells.b5mz8voksps5g4yq]{Legend Lore} (12th),&nbsp;</li>\n<li>@Compendium[pf1.spells.ln4jpuurxbrfxw5j]{Arcane Sight, Greater} (14th),&nbsp;</li>\n<li>@Compendium[pf1.spells.2vb5orfcy57lrfmc]{Moment of Prescience} (16th),&nbsp;</li>\n<li>@Compendium[pf1.spells.q8nety5obvbbd5xs]{Divide Mind} (18th).</li>\n</ul>"
    },
    "tags": [],
    "actions": [],
    "attackNotes": [],
    "effectNotes": [],
    "changes": [],
    "contextNotes": [],
    "links": {
      "children": [],
      "charges": []
    },
    "tag": "classFeat_loreDiscipline",
    "useCustomTag": true,
    "armorProf": {
      "value": []
    },
    "weaponProf": {
      "value": []
    },
    "languages": {
      "value": []
    },
    "scriptCalls": [],
    "subType": "classFeat",
    "associations": {
      "classes": [["Psychic"]]
    }
  }
}
