{
  "_id": "Z2sZPjplxeUu0KNh",
  "name": "Manifestation",
  "type": "feat",
  "img": "systems/pf1/icons/skills/blue_37.jpg",
  "sort": 0,
  "flags": {},
  "system": {
    "description": {
      "value": "<p>Upon reaching 20th level, a shaman undergoes a transformation as she manifests as a pinnacle of her main spirit. The nature of this manifestation depends on the shaman’s spirit, and is described in its entry.</p>"
    },
    "tags": [],
    "actions": [],
    "attackNotes": [],
    "effectNotes": [],
    "changes": [],
    "contextNotes": [],
    "links": {
      "children": [],
      "charges": []
    },
    "tag": "classFeat_manifestation",
    "useCustomTag": true,
    "armorProf": {
      "value": []
    },
    "weaponProf": {
      "value": []
    },
    "languages": {
      "value": []
    },
    "scriptCalls": [],
    "subType": "classFeat",
    "associations": {
      "classes": [["Shaman"]]
    },
    "abilityType": "su"
  }
}
