{
  "_id": "FnfX1SMG9uzBghnB",
  "name": "Mass Suggestion",
  "type": "feat",
  "img": "systems/pf1/icons/feats/deceitful.jpg",
  "sort": 0,
  "flags": {},
  "system": {
    "description": {
      "value": "<p>This ability functions just like @Compendium[pf1.spells.zqj5qzyl46af27v0]{Suggestion}, but allows a bard of 18th level or higher to make a suggestion simultaneously to any number of creatures that he has already&nbsp;<em>fascinated</em>. Mass suggestion is an&nbsp;<em>enchantment</em>&nbsp;(<em>compulsion</em>), mind-affecting, language dependent ability that relies on audible components.</p>"
    },
    "tags": [],
    "actions": [],
    "attackNotes": [],
    "effectNotes": [],
    "changes": [],
    "contextNotes": [],
    "links": {
      "children": [],
      "charges": []
    },
    "tag": "classFeat_massSuggestion",
    "useCustomTag": true,
    "armorProf": {
      "value": []
    },
    "weaponProf": {
      "value": []
    },
    "languages": {
      "value": []
    },
    "scriptCalls": [],
    "subType": "classFeat",
    "associations": {
      "classes": [["Bard"]]
    },
    "abilityType": "sp"
  }
}
