{
  "_id": "ffiFA6XOcHaeFEBW",
  "name": "Mental Discord",
  "type": "feat",
  "img": "systems/pf1/icons/feats/leadership.jpg",
  "sort": 0,
  "flags": {},
  "system": {
    "description": {
      "value": "<p>As a standard action, you can expend 1 point of mental focus to disrupt the mind of one living creature within 30 feet. The creature can attempt a Will saving throw to negate the effect. If it fails the save, the creature can’t concentrate on any spell effects and must succeed at a concentration check to cast any spell (DC = 15 + double the spell level). The affected creature takes a –4 penalty on this check if the spell includes a thought component. The creature takes a –2 penalty on all Will saving throws while under this effect.</p>\n<p>This effect lasts for 1 round per occultist level you possess.</p>"
    },
    "tags": [],
    "actions": [
      {
        "_id": "jow0rilzb4h1sxym",
        "name": "Use",
        "img": "systems/pf1/icons/feats/leadership.jpg",
        "description": "",
        "tag": "",
        "activation": {
          "cost": 1,
          "type": "standard"
        },
        "unchainedAction": {
          "activation": {
            "cost": 2,
            "type": "action"
          }
        },
        "duration": {
          "value": "@classes.occultist.level",
          "units": "round"
        },
        "target": {
          "value": "one living creature"
        },
        "range": {
          "value": "30",
          "units": "ft",
          "maxIncrements": 1,
          "minValue": null,
          "minUnits": ""
        },
        "uses": {
          "autoDeductChargesCost": "",
          "self": {
            "value": 0,
            "maxFormula": "",
            "per": null
          },
          "per": "",
          "value": 0,
          "maxFormula": ""
        },
        "measureTemplate": {
          "type": "",
          "size": "",
          "overrideColor": false,
          "customColor": "",
          "overrideTexture": false,
          "customTexture": ""
        },
        "attackName": "",
        "actionType": "",
        "attackBonus": "",
        "critConfirmBonus": "",
        "damage": {
          "parts": [],
          "critParts": [],
          "nonCritParts": []
        },
        "attackParts": [],
        "formulaicAttacks": {
          "count": {
            "formula": ""
          },
          "bonus": {
            "formula": ""
          },
          "label": null
        },
        "formula": "",
        "ability": {
          "attack": null,
          "damage": "",
          "damageMult": 1,
          "critRange": 20,
          "critMult": 2
        },
        "save": {
          "dc": "0",
          "type": "",
          "description": ""
        },
        "effectNotes": [],
        "attackNotes": [],
        "soundEffect": "",
        "powerAttack": {
          "multiplier": "",
          "damageBonus": 2,
          "critMultiplier": 1
        },
        "naturalAttack": {
          "primaryAttack": true,
          "secondary": {
            "attackBonus": "-5",
            "damageMult": 0.5
          }
        },
        "nonlethal": false,
        "usesAmmo": false,
        "spellEffect": "",
        "spellArea": "",
        "conditionals": [],
        "enh": {
          "value": null
        }
      }
    ],
    "uses": {
      "per": ""
    },
    "attackNotes": [],
    "effectNotes": [],
    "changes": [],
    "contextNotes": [],
    "links": {
      "children": [],
      "charges": []
    },
    "tag": "classFeat_mentalDiscord",
    "useCustomTag": true,
    "armorProf": {
      "value": []
    },
    "weaponProf": {
      "value": []
    },
    "languages": {
      "value": []
    },
    "scriptCalls": [],
    "subType": "classFeat",
    "associations": {
      "classes": [["Occultist"]]
    },
    "abilityType": "sp"
  }
}
