{
  "_id": "942a8ZwoVNhYCP4S",
  "name": "Numerical Strike, Masterful",
  "type": "feat",
  "img": "systems/pf1/icons/items/weapons/sword-cane.png",
  "sort": 0,
  "flags": {},
  "system": {
    "description": {
      "value": "<p>The investigator can use both numerical strike and greater numerical strike three times per day. The investigator doesn’t need to expend uses of inspiration to use either ability, but he can never use either more than three times per day each.</p>\n<p>The investigator must have the numerical strike and greater numerical strike talents and be at least 17th level to select this talent.</p>"
    },
    "tags": [],
    "actions": [],
    "attackNotes": [],
    "effectNotes": [],
    "changes": [],
    "contextNotes": [],
    "links": {
      "children": [],
      "charges": []
    },
    "tag": "classFeat_numericalStrikeMasterful",
    "useCustomTag": true,
    "armorProf": {
      "value": []
    },
    "weaponProf": {
      "value": []
    },
    "languages": {
      "value": []
    },
    "scriptCalls": [],
    "subType": "classFeat",
    "associations": {
      "classes": [["Investigator"]]
    },
    "abilityType": "ex"
  }
}
