{
  "_id": "ZX6hTU45q9lMDLnL",
  "name": "Oppress",
  "type": "feat",
  "img": "systems/pf1/icons/items/inventory/banner-red.jpg",
  "sort": 0,
  "flags": {},
  "system": {
    "description": {
      "value": "<p>At 2nd level, when the cavalier deals damage to an opponent with his&nbsp;<a href=\"https://aonprd.com/HellknightOrders.aspx\">Hellknight order’s favored weapon</a>, as a swift action he learns whether that creature’s alignment is chaotic, as if he had cast @Compendium[pf1.spells.17eskras8cjynj10]{Detect Chaos}&nbsp;and studied the creature for 3 rounds. Additionally, if he learns that a creature is chaotic by using this ability, he gains a +1 morale bonus on attack rolls against it. This bonus does not stack with itself, but it does stack with the bonus from the cavalier’s challenge.</p>"
    },
    "tags": [],
    "actions": [],
    "attackNotes": [],
    "effectNotes": [],
    "changes": [],
    "contextNotes": [],
    "links": {
      "children": [],
      "charges": []
    },
    "tag": "classFeat_oppress",
    "useCustomTag": true,
    "armorProf": {
      "value": []
    },
    "weaponProf": {
      "value": []
    },
    "languages": {
      "value": []
    },
    "scriptCalls": [],
    "subType": "classFeat",
    "associations": {
      "classes": [["Cavalier"]]
    },
    "abilityType": "sp"
  }
}
