{
  "_id": "p9yDKj9mQz1bBiJp",
  "name": "Petrification Subdomain",
  "type": "feat",
  "img": "systems/pf1/icons/skills/blood_09.jpg",
  "sort": 0,
  "flags": {},
  "system": {
    "description": {
      "value": "<p><strong>Replacement Domain Spells:</strong></p>\n<ul>\n<li>4th—@Compendium[pf1.spells.wvpa1pt2gyh75g3x]{Calcific Touch}</li>\n<li>5th—@Compendium[pf1.spells.knyako6zopc1chrv]{Stoneskin}</li>\n<li>6th—@Compendium[pf1.spells.361rc74674l3zt9a]{Flesh to Stone}</li>\n<li>8th—@Compendium[pf1.spells.g52zx1t1giteg5h1]{Statue}</li>\n</ul>"
    },
    "tags": [],
    "actions": [],
    "attackNotes": [],
    "effectNotes": [],
    "changes": [],
    "contextNotes": [],
    "links": {
      "children": [],
      "charges": []
    },
    "tag": "classFeat_petrificationSubdomain",
    "useCustomTag": true,
    "armorProf": {
      "value": []
    },
    "weaponProf": {
      "value": []
    },
    "languages": {
      "value": []
    },
    "scriptCalls": [],
    "subType": "classFeat",
    "associations": {
      "classes": [["Cleric"]]
    }
  }
}
