{
  "_id": "okBdYuHA2VdKyo8L",
  "name": "Phantasm Subschool",
  "type": "feat",
  "img": "systems/pf1/icons/spells/horror-acid-1.jpg",
  "sort": 0,
  "flags": {},
  "system": {
    "description": {
      "value": "<p><strong>Associated School:</strong>&nbsp;<em>Illusion</em>.</p>\n<p><strong>Replacement Powers:</strong> This subschool replaces the blinding ray and&nbsp;<em>invisibility</em>&nbsp;field powers of the&nbsp;<em>illusion</em>&nbsp;school.</p>"
    },
    "tags": [],
    "actions": [],
    "attackNotes": [],
    "effectNotes": [],
    "changes": [],
    "contextNotes": [],
    "links": {
      "children": [],
      "charges": []
    },
    "tag": "classFeat_phantasmSubschool",
    "useCustomTag": true,
    "armorProf": {
      "value": []
    },
    "weaponProf": {
      "value": []
    },
    "languages": {
      "value": []
    },
    "scriptCalls": [],
    "subType": "classFeat",
    "associations": {
      "classes": [["Wizard"]]
    }
  }
}
