{
  "_id": "nABWxNooWLiFt6gk",
  "name": "Pollute Water",
  "type": "feat",
  "img": "systems/pf1/icons/skills/violet_02.jpg",
  "sort": 0,
  "flags": {},
  "system": {
    "description": {
      "value": "<p>The witch can corrupt bodies of water with foul energies. This functions as the blight hex, except it affects only either an area of standing water or a creature with the aquatic or water subtype. A creature of any type that drinks water from a polluted area must succeed at a Fortitude saving throw or become nauseated for 1d3 rounds and afflicted as if blighted with the blight hex curse.</p>\n<p>A creature that succeeds at this saving throw is immune to the effects of polluted water from this area for 24 hours.</p>\n<p>Polluted water does not quench thirst.</p>"
    },
    "tags": [],
    "actions": [],
    "attackNotes": [],
    "effectNotes": [],
    "changes": [],
    "contextNotes": [],
    "links": {
      "children": [],
      "charges": []
    },
    "tag": "classFeat_polluteWater",
    "useCustomTag": true,
    "armorProf": {
      "value": []
    },
    "weaponProf": {
      "value": []
    },
    "languages": {
      "value": []
    },
    "scriptCalls": [],
    "subType": "classFeat",
    "associations": {
      "classes": [["Witch"]]
    },
    "abilityType": "su"
  }
}
