{
  "_id": "rYysZH5hllziSfl9",
  "name": "Protection Patron",
  "type": "feat",
  "img": "systems/pf1/icons/feats/improved-familiar.jpg",
  "sort": 0,
  "flags": {},
  "system": {
    "description": {
      "value": "<ul>\n<li>2nd — @Compendium[pf1.spells.yk5bgi6j9kbtigof]{Sanctuary}</li>\n<li>4th — @Compendium[pf1.spells.tkjnm3lw7ni82tag]{Resist Energy}</li>\n<li>6th — @Compendium[pf1.spells.1gz3zdpxu7uic5ky]{Wrathful Mantle}</li>\n<li>8th — @Compendium[pf1.spells.knyako6zopc1chrv]{Stoneskin}</li>\n<li>10th — @Compendium[pf1.spells.wu4y1ilg6iq28cr6]{Interposing Hand}</li>\n<li>12th — @Compendium[pf1.spells.odel1qsctfkp8rdm]{Forbiddance}</li>\n<li>14th — @Compendium[pf1.spells.jg3p4t3dv1a7nqvo]{Spell Immunity, Greater}</li>\n<li>16th — @Compendium[pf1.spells.ijwcwnt3oatnfghq]{Prismatic Wall}</li>\n<li>18th — @Compendium[pf1.spells.kdzx88z16gs8l392]{Freedom}</li>\n</ul>"
    },
    "tags": [],
    "actions": [],
    "attackNotes": [],
    "effectNotes": [],
    "changes": [],
    "contextNotes": [],
    "links": {
      "children": [],
      "charges": []
    },
    "tag": "classFeat_protectionPatron",
    "useCustomTag": true,
    "armorProf": {
      "value": []
    },
    "weaponProf": {
      "value": []
    },
    "languages": {
      "value": []
    },
    "scriptCalls": [],
    "subType": "classFeat",
    "associations": {
      "classes": [["Witch"]]
    }
  }
}
