{
  "_id": "7hFLTBScf4tz8wXh",
  "name": "Quarry (VAM)",
  "type": "feat",
  "img": "systems/pf1/icons/skills/arrow_12.jpg",
  "sort": 0,
  "flags": {},
  "system": {
    "description": {
      "value": "<p>At 14th level, as a&nbsp;<em>standard action</em>&nbsp;a vampire hunter can denote one target within his line of sight that he knows is&nbsp;<em>undead</em>&nbsp;as his quarry. Whenever he is following the tracks of his quarry, a vampire hunter can take 10 on his&nbsp;<em>Survival</em>&nbsp;skill checks while moving at normal speed, without penalty. In addition, he gains a +2&nbsp;<em>insight bonus</em>&nbsp;on&nbsp;<em>attack rolls</em>&nbsp;against his quarry, and all critical threats against his quarry are automatically confirmed. A vampire hunter can have no more than one quarry at a time. He can dismiss this effect at any time as a&nbsp;<em>free action</em>, but he cannot select a new quarry for 24 hours. If the vampire hunter sees proof that his quarry is&nbsp;<em>dead</em>&nbsp;or (somehow) was not actually&nbsp;<em>undead</em>, he can select a new quarry after 1 hour.</p>"
    },
    "tags": [],
    "actions": [
      {
        "_id": "a40f5yq0zopx4q9f",
        "name": "Use",
        "img": "systems/pf1/icons/skills/arrow_12.jpg",
        "description": "",
        "tag": "",
        "activation": {
          "cost": 1,
          "type": "standard"
        },
        "unchainedAction": {
          "activation": {
            "cost": 2,
            "type": "action"
          }
        },
        "duration": {
          "value": "24",
          "units": "hour"
        },
        "target": {
          "value": "undead within sight"
        },
        "range": {
          "value": null,
          "units": "seeText",
          "maxIncrements": 1,
          "minValue": null,
          "minUnits": ""
        },
        "uses": {
          "autoDeductChargesCost": "",
          "self": {
            "value": 0,
            "maxFormula": "",
            "per": null
          },
          "per": "",
          "value": 0,
          "maxFormula": ""
        },
        "measureTemplate": {
          "type": "",
          "size": "0",
          "overrideColor": false,
          "customColor": "",
          "overrideTexture": false,
          "customTexture": ""
        },
        "attackName": "",
        "actionType": "",
        "attackBonus": "",
        "critConfirmBonus": "",
        "damage": {
          "parts": [],
          "critParts": [],
          "nonCritParts": []
        },
        "attackParts": [],
        "formulaicAttacks": {
          "count": {
            "formula": ""
          },
          "bonus": {
            "formula": ""
          },
          "label": null
        },
        "formula": "",
        "ability": {
          "attack": null,
          "damage": null,
          "damageMult": 1,
          "critRange": 20,
          "critMult": 2
        },
        "save": {
          "dc": 0,
          "type": "",
          "description": ""
        },
        "effectNotes": [],
        "attackNotes": [],
        "soundEffect": "",
        "powerAttack": {
          "multiplier": "",
          "damageBonus": 2,
          "critMultiplier": 1
        },
        "naturalAttack": {
          "primaryAttack": true,
          "secondary": {
            "attackBonus": "-5",
            "damageMult": 0.5
          }
        },
        "nonlethal": false,
        "usesAmmo": false,
        "spellEffect": "",
        "spellArea": "",
        "conditionals": [],
        "enh": {
          "value": null
        }
      }
    ],
    "uses": {
      "per": ""
    },
    "attackNotes": [],
    "effectNotes": [],
    "changes": [],
    "contextNotes": [],
    "links": {
      "children": [],
      "charges": []
    },
    "tag": "classFeat_quarryVam",
    "useCustomTag": true,
    "armorProf": {
      "value": []
    },
    "weaponProf": {
      "value": []
    },
    "languages": {
      "value": []
    },
    "scriptCalls": [],
    "subType": "classFeat",
    "associations": {
      "classes": [["Vampire Hunter"]]
    },
    "abilityType": "ex"
  }
}
