{
  "_id": "siN5dEQlJHn3SnOE",
  "name": "Quick Scrounge",
  "type": "feat",
  "img": "systems/pf1/icons/items/weapons/dagger.PNG",
  "sort": 0,
  "flags": {},
  "system": {
    "description": {
      "value": "<p>The rogue can search a creature, object, or area in half as much time as normal. If her Perception check would normally require a full-round action or less, it becomes one step shorter along the following progression: full-round action, standard action, move action, swift action, immediate action. This talent has no effect on Perception checks that are attempted as free actions or Perception checks that don’t require an action.</p>"
    },
    "tags": [],
    "actions": [],
    "attackNotes": [],
    "effectNotes": [],
    "changes": [],
    "contextNotes": [],
    "links": {
      "children": [],
      "charges": []
    },
    "tag": "classFeat_quickScrounge",
    "useCustomTag": true,
    "armorProf": {
      "value": []
    },
    "weaponProf": {
      "value": []
    },
    "languages": {
      "value": []
    },
    "scriptCalls": [],
    "subType": "classFeat",
    "associations": {
      "classes": [["Rogue"]]
    },
    "abilityType": "ex"
  }
}
