{
  "_id": "aZasByyQCbpwrCEn",
  "name": "Ranged Baptism",
  "type": "feat",
  "img": "systems/pf1/icons/items/potions/unique-3.jpg",
  "sort": 0,
  "flags": {},
  "system": {
    "description": {
      "value": "<p>When the alchemist uses holy water as a splash weapon, any squares subject to its effects (including creatures affected by splash damage) or that contain creatures subject to its effects are also affected as if by @Compendium[pf1.spells.zpav8ywcqwkcuojw]{Consecrate}, for a number of rounds equal to the alchemist’s Intelligence modifier. Undead struck by holy water remain affected by the @Compendium[pf1.spells.zpav8ywcqwkcuojw]{Consecrate}&nbsp;effect even if they leave the affected area.</p>\n<p>An alchemist must be at least 4th level before selecting this discovery.</p>"
    },
    "tags": [],
    "actions": [],
    "attackNotes": [],
    "effectNotes": [],
    "changes": [],
    "contextNotes": [],
    "links": {
      "children": [],
      "charges": []
    },
    "tag": "classFeat_rangedBaptism",
    "useCustomTag": true,
    "armorProf": {
      "value": []
    },
    "weaponProf": {
      "value": []
    },
    "languages": {
      "value": []
    },
    "scriptCalls": [],
    "subType": "classFeat",
    "associations": {
      "classes": [["Alchemist"]]
    },
    "abilityType": "su"
  }
}
