{
  "_id": "KfzpLWU08J4ax3MY",
  "name": "Savage Hurl",
  "type": "feat",
  "img": "systems/pf1/icons/feats/deafening-critical.jpg",
  "sort": 0,
  "flags": {},
  "system": {
    "description": {
      "value": "<p>The barbarian gains a +1 bonus on ranged attack rolls with thrown weapons that add her Dexterity bonus to the attack roll. This bonus increases to +2 at 4th level if the barbarian’s Strength modifier is at least +4, to +3 at 8th level if her Strength modifier is at least +6, and to +4 at 12th level if her Strength modifier is at least +8.</p>"
    },
    "tags": [],
    "actions": [],
    "attackNotes": [],
    "effectNotes": [],
    "changes": [],
    "contextNotes": [],
    "links": {
      "children": [],
      "charges": []
    },
    "tag": "classFeat_savageHurl",
    "useCustomTag": true,
    "armorProf": {
      "value": []
    },
    "weaponProf": {
      "value": []
    },
    "languages": {
      "value": []
    },
    "scriptCalls": [],
    "subType": "classFeat",
    "associations": {
      "classes": [["Barbarian"], ["Skald"]]
    },
    "abilityType": "ex"
  }
}
