{
  "_id": "tNavVVsvNpg3Dkl5",
  "name": "Scalykind Domain",
  "type": "feat",
  "img": "systems/pf1/icons/skills/blue_17.jpg",
  "sort": 0,
  "flags": {},
  "system": {
    "description": {
      "value": "<p><strong>Granted Powers:</strong> You are a true lord of reptiles, and your gaze can drive weak creatures into unconsciousness.</p>\n<p><strong>Domain Spells:</strong></p>\n<ul>\n<li>1st—@Compendium[pf1.spells.cfzk3vkv1c7ncaug]{Magic Fang}</li>\n<li>2nd—@Compendium[pf1.spells.05m8kfc2u9cg528g]{Animal Trance}</li>\n<li>3rd—@Compendium[pf1.spells.bgtmki0xl4xl4y91]{Magic Fang, Greater}</li>\n<li>4th—@Compendium[pf1.spells.vdh0yuzpjwhky6kr]{Poison}</li>\n<li>5th—@Compendium[pf1.spells.29cfi65seiajh5qv]{Animal Growth}</li>\n<li>6th—@Compendium[pf1.spells.z8xnkfpufuqapseq]{Eyebite}</li>\n<li>7th—@Compendium[pf1.spells.f828mjoo5afszqnk]{Creeping Doom} (takes the form of Diminutive-sized reptiles),</li>\n<li>8th—@Compendium[pf1.spells.3ah9mmg0odateh8l]{Animal Shapes}</li>\n<li>9th—@Compendium[pf1.spells.n3lp01euzcdmtbw5]{Shapechange}*Only reptiles.</li>\n</ul>"
    },
    "tags": [],
    "actions": [],
    "attackNotes": [],
    "effectNotes": [],
    "changes": [],
    "contextNotes": [],
    "links": {
      "children": [],
      "charges": []
    },
    "tag": "classFeat_scalykindDomain",
    "useCustomTag": true,
    "armorProf": {
      "value": []
    },
    "weaponProf": {
      "value": []
    },
    "languages": {
      "value": []
    },
    "scriptCalls": [],
    "subType": "classFeat",
    "associations": {
      "classes": [["Cleric"]]
    }
  }
}
