{
  "_id": "WZhZcT4KPDcgQ6ON",
  "name": "Self-Realization Subdomain",
  "type": "feat",
  "img": "systems/pf1/icons/skills/red_09.jpg",
  "sort": 0,
  "flags": {},
  "system": {
    "description": {
      "value": "<p><strong>Replacement Domain Spells:</strong></p>\n<ul>\n<li>4th—@Compendium[pf1.spells.5v3j49r4mdq9rbx6]{Paragon Surge} (Pathfinder RPG Advanced Race Guide 48; always matches your actual race)</li>\n<li>6th—@Compendium[pf1.spells.dckgxyd6ariois1s]{Primal Scream}</li>\n<li>7th—@Compendium[pf1.spells.9pbl3ktd5oqejl19]{Transformation}</li>\n</ul>"
    },
    "tags": [],
    "actions": [],
    "attackNotes": [],
    "effectNotes": [],
    "changes": [],
    "contextNotes": [],
    "links": {
      "children": [],
      "charges": []
    },
    "tag": "classFeat_selfrealizationSubdomain",
    "useCustomTag": true,
    "armorProf": {
      "value": []
    },
    "weaponProf": {
      "value": []
    },
    "languages": {
      "value": []
    },
    "scriptCalls": [],
    "subType": "classFeat",
    "associations": {
      "classes": [["Cleric"]]
    }
  }
}
