{
  "_id": "Q0nFvxcMA0pTiFGz",
  "name": "Siphon Spell",
  "type": "feat",
  "img": "systems/pf1/icons/spells/runes-blue-3.jpg",
  "sort": 0,
  "flags": {},
  "system": {
    "description": {
      "value": "<p>When the arcanist uses the greater spell disruption exploit, she can siphon some of the power of the targeted spell to restore her arcane reservoir. If the caster level of the spell is equal to or higher than that of the arcanist, and she exceeds the DC of the dispel check by 5 or more, she adds 1 point to her arcane reservoir. If she exceeds this check by 10 or more, she instead adds 2 points to her arcane reservoir. This has no effect on magic items.</p>\n<p>The arcanist must have the greater spell disruption exploit to select this exploit.</p>"
    },
    "tags": [],
    "actions": [],
    "attackNotes": [],
    "effectNotes": [],
    "changes": [],
    "contextNotes": [],
    "links": {
      "children": [],
      "charges": []
    },
    "tag": "classFeat_siphonSpell",
    "useCustomTag": true,
    "armorProf": {
      "value": []
    },
    "weaponProf": {
      "value": []
    },
    "languages": {
      "value": []
    },
    "scriptCalls": [],
    "subType": "classFeat",
    "associations": {
      "classes": [["Arcanist"]]
    },
    "abilityType": "su"
  }
}
