{
  "_id": "nc0L3jGiAicAGChP",
  "name": "Sleight of Hand Stunt",
  "type": "feat",
  "img": "systems/pf1/icons/items/weapons/dagger.PNG",
  "sort": 0,
  "flags": {},
  "system": {
    "description": {
      "value": "<p>In place of an attack of opportunity, a rogue with this talent can attempt a Sleight of Hand check against the CMD of an opponent that provokes an attack of opportunity by firing a projectile weapon while threatened. If successful, the rogue plucks the ammunition from the provoking weapon, negating the attack. The rogue may use this ability as many times in a round as she could make attacks of opportunity. At the GM’s discretion, certain projectile weapons may not be susceptible to this ability, such as siege engines or firearms. A rogue must be trained in Sleight of Hand to select this talent.</p>"
    },
    "tags": [],
    "actions": [],
    "attackNotes": [],
    "effectNotes": [],
    "changes": [],
    "contextNotes": [],
    "links": {
      "children": [],
      "charges": []
    },
    "tag": "classFeat_sleightOfHandStunt",
    "useCustomTag": true,
    "armorProf": {
      "value": []
    },
    "weaponProf": {
      "value": []
    },
    "languages": {
      "value": []
    },
    "scriptCalls": [],
    "subType": "classFeat",
    "associations": {
      "classes": [["Rogue"]]
    },
    "abilityType": "ex"
  }
}
