{
  "_id": "Ch98vtjFEhuS817N",
  "name": "Stormborn Bloodline",
  "type": "feat",
  "img": "systems/pf1/icons/spells/lighting-sky-3.jpg",
  "sort": 0,
  "flags": {},
  "system": {
    "description": {
      "value": "<p><em>You trace your heritage to fierce and proud spirits of storm and sky, and living lightning sings in your veins.</em></p>\n<p><strong>Class Skill:</strong>&nbsp;<em>Knowledge</em>&nbsp;(nature).</p>\n<p><strong>Bonus Spells:</strong></p>\n<ul>\n<li>@Compendium[pf1.spells.33pe0bge7b7aq3io]{Shocking Grasp}&nbsp;(3rd),</li>\n<li>@Compendium[pf1.spells.cnuin981hdq7ryit]{Gust Of Wind}&nbsp;(5th),</li>\n<li>@Compendium[pf1.spells.m84969gni5iu4bdt]{Lightning Bolt} (7th),</li>\n<li>@Compendium[pf1.spells.bacuzpculp9tld48]{Shout}&nbsp;(9th),</li>\n<li>@Compendium[pf1.spells.wqvy12w1xgk6l9b0]{Overland Flight}&nbsp;(11th),</li>\n<li>@Compendium[pf1.spells.6vfauefzzmwl4az7]{Chain Lightning}&nbsp;(13th),</li>\n<li>@Compendium[pf1.spells.578t0lra5ll3aifs]{Control Weather}&nbsp;(15th),</li>\n<li>@Compendium[pf1.spells.i9greyz3c0ap32vi]{Whirlwind}&nbsp;(17th),</li>\n<li>@Compendium[pf1.spells.n4e35m6qu9nmkhgm]{Storm Of Vengeance}&nbsp;(19th).</li>\n</ul>\n<p><strong>Bonus Feats:</strong></p>\n<ul>\n<li>@Compendium[pf1.feats.K4FEFu94JKOP2l51]{Deadly Aim},</li>\n<li>@Compendium[pf1.feats.JreaiTHdyWFNj3Tb]{Dodge},</li>\n<li>@Compendium[pf1.feats.9mcYid7xJY9NiySx]{Enlarge Spell},</li>\n<li>@Compendium[pf1.feats.HMCAM3Zyo77kG8Yg]{Far Shot},</li>\n<li>@Compendium[pf1.feats.fVRnBIHR4Jq6btvm]{Great Fortitude},</li>\n<li>@Compendium[pf1.feats.8rsFtye3PwM6CKli]{Point-Blank Shot},</li>\n<li>@Compendium[pf1.feats.7zJTztNW7hdaqjKc]{Skill Focus}&nbsp;(<em>Fly</em>),</li>\n<li>@Compendium[pf1.feats.9p0aAtCyLdcwnftS]{Wind Stance}.</li>\n</ul>\n<p><a name=\"TOC-Bloodline-Arcana\"></a><strong>Bloodline Arcana:</strong> Whenever you cast a spell with the [electricity] or [sonic] descriptor, increase the save DC by 1.</p>"
    },
    "tags": [],
    "actions": [],
    "attackNotes": [],
    "effectNotes": [],
    "changes": [],
    "contextNotes": [],
    "links": {
      "children": [],
      "charges": []
    },
    "tag": "classFeat_stormbornBloodline",
    "useCustomTag": true,
    "armorProf": {
      "value": []
    },
    "weaponProf": {
      "value": []
    },
    "languages": {
      "value": []
    },
    "scriptCalls": [],
    "subType": "classFeat",
    "associations": {
      "classes": [["Sorcerer"]]
    }
  }
}
