{
  "_id": "dIvavKE9Zx2pVcO2",
  "name": "Sunsight",
  "type": "feat",
  "img": "systems/pf1/icons/spells/evil-eye-red-1.jpg",
  "sort": 0,
  "flags": {},
  "system": {
    "description": {
      "value": "<p>At 1st level, you gain&nbsp;<em>low-light vision</em>&nbsp;and cannot be&nbsp;<em>dazzled</em>. If you already have&nbsp;<em>low-light vision</em>, you instead gain a +4 bonus on saving throws against&nbsp;<em>blindness</em>&nbsp;effects.</p>"
    },
    "tags": [],
    "actions": [
      {
        "_id": "3b7u9qda98ejk3nj",
        "name": "Use",
        "img": "systems/pf1/icons/spells/evil-eye-red-1.jpg",
        "description": "",
        "tag": "",
        "activation": {
          "cost": 1,
          "type": "passive"
        },
        "unchainedAction": {
          "activation": {
            "cost": 1,
            "type": "passive"
          }
        },
        "duration": {
          "value": null,
          "units": ""
        },
        "target": {
          "value": ""
        },
        "range": {
          "value": null,
          "units": "",
          "maxIncrements": 1,
          "minValue": null,
          "minUnits": ""
        },
        "uses": {
          "autoDeductChargesCost": "",
          "self": {
            "value": 0,
            "maxFormula": "",
            "per": null
          },
          "per": "",
          "value": 0,
          "maxFormula": ""
        },
        "measureTemplate": {
          "type": "",
          "size": "0",
          "overrideColor": false,
          "customColor": "",
          "overrideTexture": false,
          "customTexture": ""
        },
        "attackName": "",
        "actionType": "",
        "attackBonus": "",
        "critConfirmBonus": "",
        "damage": {
          "parts": [],
          "critParts": [],
          "nonCritParts": []
        },
        "attackParts": [],
        "formulaicAttacks": {
          "count": {
            "formula": ""
          },
          "bonus": {
            "formula": ""
          },
          "label": null
        },
        "formula": "",
        "ability": {
          "attack": null,
          "damage": null,
          "damageMult": 1,
          "critRange": 20,
          "critMult": 2
        },
        "save": {
          "dc": 0,
          "type": "",
          "description": ""
        },
        "effectNotes": [],
        "attackNotes": [],
        "soundEffect": "",
        "powerAttack": {
          "multiplier": "",
          "damageBonus": 2,
          "critMultiplier": 1
        },
        "naturalAttack": {
          "primaryAttack": true,
          "secondary": {
            "attackBonus": "-5",
            "damageMult": 0.5
          }
        },
        "nonlethal": false,
        "usesAmmo": false,
        "spellEffect": "",
        "spellArea": "",
        "conditionals": [],
        "enh": {
          "value": null
        }
      }
    ],
    "uses": {
      "per": ""
    },
    "attackNotes": [],
    "effectNotes": [],
    "changes": [],
    "contextNotes": [],
    "links": {
      "children": [],
      "charges": []
    },
    "tag": "classFeat_sunsight",
    "useCustomTag": true,
    "armorProf": {
      "value": []
    },
    "weaponProf": {
      "value": []
    },
    "languages": {
      "value": []
    },
    "scriptCalls": [],
    "subType": "classFeat",
    "associations": {
      "classes": [["Sorcerer"]]
    },
    "abilityType": "su"
  }
}
