{
  "_id": "NaFS32cjBFEw7jGA",
  "name": "Superstition (UC)",
  "type": "feat",
  "img": "systems/pf1/icons/feats/deafening-critical.jpg",
  "sort": 0,
  "flags": {},
  "system": {
    "description": {
      "value": "<p>The barbarian gains a +2 competence bonus on saving throws made to resist spells and spell-like abilities.</p>\n<p>This bonus increases by 1 for every 4 levels the barbarian has.</p>\n<p>The barbarian cannot be the willing target of any spell and must attempt saving throws to resist all spells, even those cast by allies.</p>"
    },
    "tags": [],
    "actions": [],
    "attackNotes": [],
    "effectNotes": [],
    "changes": [],
    "contextNotes": [],
    "links": {
      "children": [],
      "charges": []
    },
    "tag": "classFeat_superstitionUc",
    "useCustomTag": true,
    "armorProf": {
      "value": []
    },
    "weaponProf": {
      "value": []
    },
    "languages": {
      "value": []
    },
    "scriptCalls": [],
    "subType": "classFeat",
    "associations": {
      "classes": [["Barbarian (Unchained)"]]
    },
    "abilityType": "ex"
  }
}
