{
  "_id": "5VtEwp9mLrB6oTsF",
  "name": "Track (INQ)",
  "type": "feat",
  "img": "systems/pf1/icons/skills/beast_01.jpg",
  "system": {
    "description": {
      "value": "<p>At 2nd level, an inquisitor adds half her level on @Compendium[pf1.skills.TXrxgrB2sQjppZFY]{Survival} skill checks made to follow or identify tracks.</p>"
    },
    "tags": [],
    "actions": [],
    "attackNotes": [],
    "effectNotes": [],
    "changes": [],
    "contextNotes": [
      {
        "text": "+[[max(1, floor(@classes.inquisitor.level / 2))]] to follow tracks",
        "subTarget": "skill.sur"
      }
    ],
    "links": {
      "children": [],
      "charges": []
    },
    "tag": "classFeat_trackInq",
    "useCustomTag": true,
    "armorProf": {
      "value": []
    },
    "weaponProf": {
      "value": []
    },
    "languages": {
      "value": []
    },
    "scriptCalls": [],
    "subType": "classFeat",
    "associations": {
      "classes": [["Inquisitor"]]
    },
    "abilityType": "ex"
  },
  "sort": 0,
  "flags": {}
}
