{
  "_id": "NAso2tQYl5bBfL1O",
  "name": "Transposition",
  "type": "feat",
  "img": "systems/pf1/icons/spells/link-spirit-3.jpg",
  "sort": 0,
  "flags": {},
  "system": {
    "description": {
      "value": "<p>At 8th level, a summoner can use his maker’s call ability to swap locations with his eidolon. If it is larger than him, he can appear in any square occupied by the eidolon. The eidolon must occupy the square that was occupied by the summoner if able, or as close as possible if it is not able.</p>"
    },
    "tags": [],
    "actions": [],
    "attackNotes": [],
    "effectNotes": [],
    "changes": [],
    "contextNotes": [],
    "links": {
      "children": [],
      "charges": []
    },
    "tag": "classFeat_transposition",
    "useCustomTag": true,
    "armorProf": {
      "value": []
    },
    "weaponProf": {
      "value": []
    },
    "languages": {
      "value": []
    },
    "scriptCalls": [],
    "subType": "classFeat",
    "associations": {
      "classes": [["Summoner"]]
    },
    "abilityType": "su"
  }
}
