{
  "_id": "XAMIufM24q2qAB7o",
  "name": "True Magus",
  "type": "feat",
  "img": "systems/pf1/icons/spells/enchant-sky-3.jpg",
  "sort": 0,
  "flags": {},
  "system": {
    "description": {
      "value": "<p>At 20th level, the magus becomes a master of spells and combat. Whenever he uses his spell combat ability, he does not need to make a concentration check to cast the spell defensively. Whenever the magus uses spell combat and his spell targets the same creature as his melee attacks, he can choose to either increase the DC to resist the spell by +2, grant himself a +2 circumstance bonus on any checks made to overcome spell resistance, or grant himself a +2 circumstance bonus on all attack rolls made against the target during his turn.</p>"
    },
    "tags": [],
    "actions": [],
    "attackNotes": [],
    "effectNotes": [],
    "changes": [],
    "contextNotes": [],
    "links": {
      "children": [],
      "charges": []
    },
    "tag": "classFeat_trueMagus",
    "useCustomTag": true,
    "armorProf": {
      "value": []
    },
    "weaponProf": {
      "value": []
    },
    "languages": {
      "value": []
    },
    "scriptCalls": [],
    "subType": "classFeat",
    "associations": {
      "classes": [["Magus"]]
    },
    "abilityType": "su"
  }
}
