{
  "_id": "a9ranIu7S0jfe48a",
  "name": "Whimsy Mystery",
  "type": "feat",
  "img": "systems/pf1/icons/spells/light-magenta-2.jpg",
  "sort": 0,
  "flags": {},
  "system": {
    "description": {
      "value": "<p><strong>Class Skills:</strong> An oracle with the whimsy mystery adds Bluff, Disguise, Perform, Sleight of Hand, and Stealth to her list of class skills.<br><br><strong>Bonus Spells:&nbsp;</strong></p>\n<ul>\n<li>@Compendium[pf1.spells.bl71og1gklwncmt7]{Faerie Fire} (2nd),&nbsp;</li>\n<li>@Compendium[pf1.spells.5nr9o7o0it6ewf17]{Hideous Laughter} (4th),&nbsp;</li>\n<li>@Compendium[pf1.spells.3ofgzglphaotmwnw]{Shamefully Overdressed} (6th),&nbsp;</li>\n<li>@Compendium[pf1.spells.7rx66m98dwo18fy8]{Major Image} (8th),&nbsp;</li>\n<li>@Compendium[pf1.spells.fv17a5jsmapb0wcz]{Entice Fey, Lesser} (10th),&nbsp;</li>\n<li>@Compendium[pf1.spells.446vcsetq4ny904e]{Mislead} (12th),&nbsp;</li>\n<li>@Compendium[pf1.spells.b9klr16gssc2x0ab]{Entice Fey} (14th),&nbsp;</li>\n<li>@Compendium[pf1.spells.oq3mqv5vovjkoa2p]{Irresistible Dance} (16th),&nbsp;</li>\n<li>@Compendium[pf1.spells.6isran0p5phoru7x]{Entice Fey, Greater} (18th).</li>\n</ul>"
    },
    "tags": [],
    "actions": [],
    "attackNotes": [],
    "effectNotes": [],
    "changes": [],
    "contextNotes": [],
    "links": {
      "children": [],
      "charges": []
    },
    "tag": "classFeat_whimsyMystery",
    "useCustomTag": true,
    "armorProf": {
      "value": []
    },
    "weaponProf": {
      "value": []
    },
    "languages": {
      "value": []
    },
    "scriptCalls": [],
    "subType": "classFeat",
    "associations": {
      "classes": [["Oracle"]]
    }
  }
}
