{
  "_id": "z8xnkfpufuqapseq",
  "name": "Eyebite",
  "type": "spell",
  "img": "systems/pf1/icons/misc/magic-swirl.png",
  "sort": 0,
  "flags": {},
  "system": {
    "tags": [],
    "actions": [
      {
        "_id": "cwcmlzmjhkp5dh5z",
        "name": "Use",
        "img": "systems/pf1/icons/misc/magic-swirl.png",
        "description": "",
        "tag": "",
        "activation": {
          "cost": 1,
          "type": "standard"
        },
        "unchainedAction": {
          "activation": {
            "cost": 2,
            "type": "action"
          }
        },
        "duration": {
          "value": "1 round/level",
          "units": ""
        },
        "target": {
          "value": "one living creature"
        },
        "range": {
          "value": null,
          "units": "close",
          "maxIncrements": 1,
          "minValue": null,
          "minUnits": ""
        },
        "uses": {
          "autoDeductChargesCost": "",
          "self": {
            "value": 0,
            "maxFormula": "",
            "per": null
          },
          "per": "",
          "value": 0,
          "maxFormula": ""
        },
        "measureTemplate": {
          "type": "",
          "size": "0",
          "overrideColor": false,
          "customColor": "",
          "overrideTexture": false,
          "customTexture": ""
        },
        "attackName": "",
        "actionType": "spellsave",
        "attackBonus": "",
        "critConfirmBonus": "",
        "damage": {
          "parts": [],
          "critParts": [],
          "nonCritParts": []
        },
        "attackParts": [],
        "formulaicAttacks": {
          "count": {
            "formula": ""
          },
          "bonus": {
            "formula": ""
          },
          "label": null
        },
        "formula": "",
        "ability": {
          "attack": "",
          "damage": "",
          "damageMult": 1,
          "critRange": 20,
          "critMult": 2
        },
        "save": {
          "dc": "0",
          "type": "fort",
          "description": "Fortitude negates"
        },
        "effectNotes": [],
        "attackNotes": [],
        "soundEffect": "",
        "powerAttack": {
          "multiplier": "",
          "damageBonus": 2,
          "critMultiplier": 1
        },
        "naturalAttack": {
          "primaryAttack": true,
          "secondary": {
            "attackBonus": "-5",
            "damageMult": 0.5
          }
        },
        "nonlethal": false,
        "usesAmmo": false,
        "spellEffect": "",
        "spellArea": "",
        "conditionals": [],
        "enh": {
          "value": null
        }
      }
    ],
    "uses": {
      "per": ""
    },
    "attackNotes": [],
    "effectNotes": [],
    "links": {
      "children": []
    },
    "scriptCalls": [],
    "learnedAt": {
      "class": [
        ["sorcerer/wizard", 6],
        ["bard", 6],
        ["alchemist", 6],
        ["witch", 6],
        ["mesmerist", 6],
        ["spiritualist", 6]
      ],
      "domain": [["Scalykind", 6]],
      "subDomain": [["Curse", 6]],
      "elementalSchool": [],
      "bloodline": [
        ["Accursed", 6],
        ["Pestilence", 6]
      ]
    },
    "level": 6,
    "school": "nec",
    "types": "emotion, pain",
    "components": {
      "verbal": true,
      "somatic": true
    },
    "shortDescription": "<p>Each round, you can target a single living creature, striking it with waves of power. Depending on the target's HD, this attack has as many as three effects. <table><tr><th>hd</th><th>Effect</th></tr><tr><td>10 or more</td><td>Sickened</td></tr><tr><td>5-9</td><td>Panicked, sickened</td></tr><tr><td>4 or less</td><td>Comatose, panicked, sickened</td></tr></table>  The effects are cumulative and concurrent. <i>Sickened:</i> Sudden pain and fever sweeps over the subject's body. A creature affected by this spell remains sickened for 10 minutes per caster level. The effects cannot be negated by a <i>remove disease</i> or <i>heal</i> spell, but a <i>remove curse</i> is effective. <i>Panicked:</i> The subject becomes panicked for 1d4 rounds. Even after the panic ends, the creature remains shaken for 10 minutes per caster level, and it automatically becomes panicked again if it comes within sight of you during that time. This is a fear effect. <i>Comatose:</i> The subject falls into a catatonic coma for 10 minutes per caster level. During this time, it cannot be awakened by any means short of dispelling the effect. This is not a <i>sleep</i> effect, and thus elves are not immune to it. You must spend a swift action each round after the first to target a foe.</p>"
  }
}
