{
  "_id": "26x41q3v0vhz8va0",
  "name": "Lucky Number",
  "type": "spell",
  "img": "systems/pf1/icons/misc/magic-swirl.png",
  "sort": 0,
  "flags": {},
  "system": {
    "tags": [],
    "actions": [
      {
        "_id": "yi913hjieqww63b0",
        "name": "Use",
        "img": "systems/pf1/icons/misc/magic-swirl.png",
        "description": "",
        "tag": "",
        "activation": {
          "cost": 1,
          "type": "standard"
        },
        "unchainedAction": {
          "activation": {
            "cost": 2,
            "type": "action"
          }
        },
        "duration": {
          "value": "24 hours or until discharged",
          "units": ""
        },
        "target": {
          "value": "one willing creature"
        },
        "range": {
          "value": null,
          "units": "touch",
          "maxIncrements": 1,
          "minValue": null,
          "minUnits": ""
        },
        "uses": {
          "autoDeductChargesCost": "",
          "self": {
            "value": 0,
            "maxFormula": "",
            "per": null
          },
          "per": "",
          "value": 0,
          "maxFormula": ""
        },
        "measureTemplate": {
          "type": "",
          "size": "0",
          "overrideColor": false,
          "customColor": "",
          "overrideTexture": false,
          "customTexture": ""
        },
        "attackName": "",
        "actionType": "",
        "attackBonus": "",
        "critConfirmBonus": "",
        "damage": {
          "parts": [],
          "critParts": [],
          "nonCritParts": []
        },
        "attackParts": [],
        "formulaicAttacks": {
          "count": {
            "formula": ""
          },
          "bonus": {
            "formula": ""
          },
          "label": null
        },
        "formula": "",
        "ability": {
          "attack": "",
          "damage": "",
          "damageMult": 1,
          "critRange": 20,
          "critMult": 2
        },
        "save": {
          "dc": "0",
          "type": "",
          "description": ""
        },
        "effectNotes": [],
        "attackNotes": [],
        "soundEffect": "",
        "powerAttack": {
          "multiplier": "",
          "damageBonus": 2,
          "critMultiplier": 1
        },
        "naturalAttack": {
          "primaryAttack": true,
          "secondary": {
            "attackBonus": "-5",
            "damageMult": 0.5
          }
        },
        "nonlethal": false,
        "usesAmmo": false,
        "spellEffect": "",
        "spellArea": "",
        "conditionals": [],
        "enh": {
          "value": null
        }
      }
    ],
    "uses": {
      "per": ""
    },
    "attackNotes": [],
    "effectNotes": [],
    "links": {
      "children": []
    },
    "scriptCalls": [],
    "learnedAt": {
      "class": [
        ["sorcerer/wizard", 1],
        ["cleric/oracle", 1],
        ["druid", 1],
        ["bard", 1],
        ["paladin", 1],
        ["summoner", 1],
        ["witch", 1],
        ["inquisitor", 1],
        ["hunter", 1],
        ["unchained Summoner", 1]
      ],
      "domain": [],
      "subDomain": [],
      "elementalSchool": [],
      "bloodline": []
    },
    "school": "trs",
    "components": {
      "verbal": true,
      "somatic": true
    },
    "sr": false,
    "shortDescription": "<p>You are able to tweak tiny variables affecting a creature's immediate future in order to grant the target a Bit of Luck at the right time. Roll a d20; once during the duration of <i>lucky number</i>, when the target creature rolls that result (regardless of what type of dice the target rolls), the creature has the option to either reroll the result or add a +2 luck bonus to the result. The creature must decide to use this ability before the success or failure of the original roll is known. A creature can have only one <i>lucky number</i> at a time. If <i>lucky number</i> is cast on a creature already affected by that spell, the new number replaces the previous one.</p>"
  }
}
