{
  "_id": "0evx195gmtcpdxef",
  "name": "Perceive Betrayal",
  "type": "spell",
  "img": "systems/pf1/icons/misc/magic-swirl.png",
  "sort": 0,
  "flags": {},
  "system": {
    "tags": [],
    "actions": [
      {
        "_id": "9abnuprjdkoiq8ka",
        "name": "Use",
        "img": "systems/pf1/icons/misc/magic-swirl.png",
        "description": "",
        "tag": "",
        "activation": {
          "cost": 1,
          "type": "minute"
        },
        "unchainedAction": {
          "activation": {
            "cost": 1,
            "type": "minute"
          }
        },
        "duration": {
          "value": "1 hour/level",
          "units": ""
        },
        "target": {
          "value": "you"
        },
        "range": {
          "value": null,
          "units": "personal",
          "maxIncrements": 1,
          "minValue": null,
          "minUnits": ""
        },
        "uses": {
          "autoDeductChargesCost": "",
          "self": {
            "value": 0,
            "maxFormula": "",
            "per": null
          },
          "per": "",
          "value": 0,
          "maxFormula": ""
        },
        "measureTemplate": {
          "type": "",
          "size": "0",
          "overrideColor": false,
          "customColor": "",
          "overrideTexture": false,
          "customTexture": ""
        },
        "attackName": "",
        "actionType": "",
        "attackBonus": "",
        "critConfirmBonus": "",
        "damage": {
          "parts": [],
          "critParts": [],
          "nonCritParts": []
        },
        "attackParts": [],
        "formulaicAttacks": {
          "count": {
            "formula": ""
          },
          "bonus": {
            "formula": ""
          },
          "label": null
        },
        "formula": "",
        "ability": {
          "attack": "",
          "damage": "",
          "damageMult": 1,
          "critRange": 20,
          "critMult": 2
        },
        "save": {
          "dc": "0",
          "type": "",
          "description": ""
        },
        "effectNotes": [],
        "attackNotes": [],
        "soundEffect": "",
        "powerAttack": {
          "multiplier": "",
          "damageBonus": 2,
          "critMultiplier": 1
        },
        "naturalAttack": {
          "primaryAttack": true,
          "secondary": {
            "attackBonus": "-5",
            "damageMult": 0.5
          }
        },
        "nonlethal": false,
        "usesAmmo": false,
        "spellEffect": "",
        "spellArea": "",
        "conditionals": [],
        "enh": {
          "value": null
        }
      }
    ],
    "uses": {
      "per": ""
    },
    "attackNotes": [],
    "effectNotes": [],
    "links": {
      "children": []
    },
    "scriptCalls": [],
    "learnedAt": {
      "class": [
        ["sorcerer/wizard", 7],
        ["cleric/oracle", 6],
        ["witch", 6],
        ["inquisitor", 4]
      ],
      "domain": [],
      "subDomain": [],
      "elementalSchool": [],
      "bloodline": []
    },
    "level": 7,
    "school": "div",
    "components": {
      "verbal": true,
      "somatic": true,
      "material": true,
      "focus": true
    },
    "materials": {
      "value": "12 drops of blood",
      "focus": "a silver circlet worth 500 gp"
    },
    "sr": false,
    "shortDescription": "<p>By donning a silver circlet anointed with blood, you gain the ability to sense traitorous intent toward a single person to whom you defer, designated when you cast the spell. The spell alerts you when a creature with traitorous intent is within 200 feet, although it doesn't identify the source. By concentrating, you can learn the strength of the greatest threat, based on the following categories.  <i>Ill Will</i>: Someone dislikes your liege, but isn't planning to act against her.  <i>Plotting</i>: Someone is actively conspiring against your liege.  <i>Imminent</i>: Someone is in the process of carrying out a plot against your liege.  Creatures that are immune to mind-affecting or thought-detecting effects cannot have their intent detected by <i>perceive betrayal</i>.</p>"
  }
}
