{
  "_id": "iYAQs7zjFbgcmect",
  "name": "Spiritualist",
  "type": "class",
  "img": "systems/pf1/icons/skills/shadow_17.jpg",
  "sort": 0,
  "flags": {},
  "system": {
    "description": {
      "value": "<p>Becoming a spiritualist is not a calling—it’s a phenomenon.</p>\n<p>When a creature dies, its spirit flees its body and begins the next stage of its existence. Debilitating emotional attachments during life and other psychic corruptions cause some spirits to drift into the&nbsp;<em>Ethereal Plane</em>&nbsp;and descend toward the&nbsp;<em>Negative Energy Plane</em>. Some of these spirits are able to escape the pull of undeath and make their way back to the&nbsp;<em>Material Plane</em>, seeking refuge in a psychically attuned mind. Such a fusing of consciousnesses creates a spiritualist—the master of a single powerful phantom whom the spiritualist can manifest to do her bidding.</p>\n<p><strong>Role:</strong> The spiritualist seeks the occult and esoteric truth about life, death, and the passage beyond, using her phantom as a guide and tool. The connection with her phantom allows her to harness the powers of life and death, thought and nightmare, shadow and revelation.</p>\n<p><strong>Alignment:</strong> Any.</p>\n<p><strong>Hit Die</strong>: d8.</p>\n<p><strong>Starting Wealth</strong>: 2d6 × 10 gp (average 70 gp.) In addition, each character begins play with an outfit worth 10 gp or less.</p>\n<h2><span id=\"Class_Skills\">Class Skills</span></h2>\n<p>The spiritualist’s class skills are&nbsp;<em>Bluff</em>&nbsp;(<em>Cha</em>), <em>Craft</em>&nbsp;(<em>Int</em>), <em>Fly</em>&nbsp;(<em>Dex</em>), <em>Heal</em>&nbsp;(<em>Wis</em>), <em>Intimidate</em>&nbsp;(<em>Cha</em>), <em>Knowledge</em>&nbsp;(all) (<em>Int</em>), <em>Linguistics</em>&nbsp;(<em>Int</em>), <em>Profession</em>&nbsp;(<em>Wis</em>), <em>Sense Motive</em>&nbsp;(<em>Wis</em>), <em>Spellcraft</em>&nbsp;(<em>Int</em>), and <em>Use Magic Device</em>&nbsp;(<em>Cha</em>).</p>\n<p><strong>Skill Ranks per Level</strong>: 4 +&nbsp;<em>Int</em>&nbsp;modifier.</p>"
    },
    "casting": {
      "type": "spontaneous",
      "progression": "med",
      "ability": "wis",
      "spells": "psychic"
    },
    "tags": [],
    "changes": [],
    "links": {
      "children": [],
      "classAssociations": [
        {
          "id": "pf1.class-abilities.d7ywi83kzYsEVlyy",
          "dataType": "compendium",
          "name": "Etheric Tether",
          "img": "systems/pf1/icons/skills/blue_38.jpg",
          "level": 1,
          "_index": 0
        },
        {
          "id": "pf1.class-abilities.ryQboCpsLfFBCzdL",
          "dataType": "compendium",
          "name": "Phantom",
          "img": "systems/pf1/icons/skills/emerald_07.jpg",
          "level": 1,
          "_index": 1
        },
        {
          "id": "pf1.class-abilities.J2rIdwacRuGkgwVJ",
          "dataType": "compendium",
          "name": "Shared Consciousness",
          "img": "systems/pf1/icons/skills/emerald_11.jpg",
          "level": 1,
          "_index": 2
        },
        {
          "id": "pf1.class-abilities.xtSXGphDhzkMwbpW",
          "dataType": "compendium",
          "name": "Bonded Senses",
          "img": "systems/pf1/icons/skills/blue_22.jpg",
          "level": 2,
          "_index": 3
        },
        {
          "id": "pf1.class-abilities.aBXAFSi18n9Sndjf",
          "dataType": "compendium",
          "name": "Bonded Manifestation",
          "img": "systems/pf1/icons/skills/blue_12.jpg",
          "level": 3,
          "_index": 4
        },
        {
          "id": "pf1.class-abilities.ik7YjF6IXgTNeqrq",
          "dataType": "compendium",
          "name": "Ectoplasmic Bonded Manifestation",
          "img": "systems/pf1/icons/skills/blue_20.jpg",
          "level": 3,
          "_index": 5
        },
        {
          "id": "pf1.class-abilities.krNQXh76ArUBtdOW",
          "dataType": "compendium",
          "name": "Incorporeal Bonded Manifestation",
          "img": "systems/pf1/icons/skills/blue_20.jpg",
          "level": 3,
          "_index": 6
        },
        {
          "id": "pf1.class-abilities.Rao7jnaGBzSbltiw",
          "dataType": "compendium",
          "name": "Spiritual Interference",
          "img": "systems/pf1/icons/skills/blue_36.jpg",
          "level": 4,
          "_index": 7
        },
        {
          "id": "pf1.class-abilities.nOLAYJpzuRmt1GdB",
          "dataType": "compendium",
          "name": "Greater Spiritual Interference",
          "img": "systems/pf1/icons/skills/emerald_01.jpg",
          "level": 12,
          "_index": 8
        },
        {
          "id": "pf1.class-abilities.aQ0aWLmgTI3TIGXo",
          "dataType": "compendium",
          "name": "Detect Undead",
          "img": "systems/pf1/icons/skills/affliction_17.jpg",
          "level": 5,
          "_index": 9
        },
        {
          "id": "pf1.class-abilities.NUsLshXpE3d8W3AI",
          "dataType": "compendium",
          "name": "Phantom Recall",
          "img": "systems/pf1/icons/skills/affliction_03.jpg",
          "level": 6,
          "_index": 10
        },
        {
          "id": "pf1.class-abilities.bwPeas5tuLvKhuE4",
          "dataType": "compendium",
          "name": "Calm Spirit",
          "img": "systems/pf1/icons/skills/affliction_05.jpg",
          "level": 7,
          "_index": 11
        },
        {
          "id": "pf1.class-abilities.GRfwR4nZHTx7JifZ",
          "dataType": "compendium",
          "name": "See Invisibility",
          "img": "systems/pf1/icons/skills/shadow_12.jpg",
          "level": 9,
          "_index": 12
        },
        {
          "id": "pf1.class-abilities.C7d96scKQaGqfOdL",
          "dataType": "compendium",
          "name": "Fused Consciousness",
          "img": "systems/pf1/icons/skills/blue_35.jpg",
          "level": 10,
          "_index": 13
        },
        {
          "id": "pf1.class-abilities.5gI26LbbY4Rk93We",
          "dataType": "compendium",
          "name": "Spiritual Bond",
          "img": "systems/pf1/icons/skills/blue_26.jpg",
          "level": 14,
          "_index": 14
        },
        {
          "id": "pf1.class-abilities.OsRZD888rDOpHqoZ",
          "dataType": "compendium",
          "name": "Call Spirit",
          "img": "systems/pf1/icons/skills/affliction_07.jpg",
          "level": 16,
          "_index": 15
        },
        {
          "id": "pf1.class-abilities.sO5cLMTyyJARtKto",
          "dataType": "compendium",
          "name": "Dual Bond",
          "img": "systems/pf1/icons/skills/blue_13.jpg",
          "level": 17,
          "_index": 16
        },
        {
          "id": "pf1.class-abilities.PuzIaPLe5w4eF72t",
          "dataType": "compendium",
          "name": "Empowered Consciousness",
          "img": "systems/pf1/icons/skills/emerald_09.jpg",
          "level": 20,
          "_index": 17
        }
      ]
    },
    "tag": "spiritualist",
    "useCustomTag": true,
    "armorProf": {
      "value": ["lgt"]
    },
    "weaponProf": {
      "value": ["sim"],
      "custom": "Kukri;Sap;Scythe"
    },
    "languages": {
      "value": []
    },
    "scriptCalls": [],
    "bab": "med",
    "skillsPerLevel": 4,
    "savingThrows": {
      "fort": {
        "value": "high"
      },
      "will": {
        "value": "high"
      }
    },
    "classSkills": {
      "blf": true,
      "acr": false,
      "apr": false,
      "art": true,
      "clm": false,
      "crf": true,
      "dip": false,
      "dev": false,
      "dis": false,
      "esc": false,
      "fly": true,
      "han": false,
      "hea": true,
      "int": true,
      "kar": true,
      "kdu": true,
      "ken": true,
      "kge": true,
      "khi": true,
      "klo": true,
      "kna": true,
      "kno": true,
      "kpl": true,
      "kre": true,
      "lin": true,
      "lor": true,
      "per": false,
      "prf": false,
      "pro": true,
      "rid": false,
      "sen": true,
      "slt": false,
      "spl": true,
      "ste": false,
      "sur": false,
      "swm": false,
      "umd": true
    }
  }
}
